xof 0302txt 0064

// Created by AC3D 6.4.30  ( www.inivis.com )
// Export Plugin : 'DirectX.p' v1.9 by Frank Meinert


Material MatTex_1_1 {
  1.0; 1.0; 1.0; 1.0;;
  128.0;
  0.2; 0.2; 0.2;;
  0.0; 0.0; 0.0;;
  TextureFileName { "texture.png"; }
}


Frame WORLD {

FrameTransformMatrix {
  1.0, 0.0, 0.0, 0.0,
  0.0, 1.0, 0.0, 0.0,
  0.0, 0.0, 1.0, 0.0,
  0.0, 0.0, 0.0, 1.0;;
}

Frame cylinder {

FrameTransformMatrix {
  1.0, 0.0, 0.0, 0.0,
  0.0, 1.0, 0.0, 0.0,
  0.0, 0.0, 1.0, 0.0,
  -0.010148, 0.009851, -0.265128, 1.0;;
}

Mesh cylinder {
761;
0.195975;1.1078;-0.92168;,
-0.194419;1.1078;-0.92168;,
-0.215253;1.22424;-0.321726;,
0.216298;1.22424;-0.321726;,
-1.05553;0.385241;-0.92168;,
-1.12332;0.000777;-0.92168;,
-1.24208;0.000522;-0.321726;,
-1.16714;0.425517;-0.321726;,
-0.194419;-1.10624;-0.92168;,
0.195974;-1.10624;-0.92168;,
0.216297;-1.2232;-0.321726;,
-0.215253;-1.2232;-0.321726;,
1.05708;-0.383686;-0.92168;,
1.12487;0.000776;-0.92168;,
1.24313;0.000521;-0.321726;,
1.16819;-0.424473;-0.321726;,
0.195975;1.1078;-0.92168;,
0.216298;1.22424;-0.321726;,
0.162464;0.91975;-0.855088;,
0.147194;0.832259;-1.38385;,
0.147194;0.832259;-1.38385;,
-0.146114;0.832259;-1.38385;,
-0.215253;1.22424;-0.321726;,
-0.194419;1.1078;-0.92168;,
-0.146114;0.832259;-1.38385;,
-0.161767;0.91975;-0.855088;,
0.216298;1.22424;-0.321726;,
-0.215253;1.22424;-0.321726;,
-0.161767;0.91975;-0.855088;,
0.162464;0.91975;-0.855088;,
-1.05553;0.385241;-0.92168;,
-1.16714;0.425517;-0.321726;,
-0.876934;0.319653;-0.855088;,
-0.793075;0.289393;-1.38385;,
-0.793075;0.289393;-1.38385;,
-0.844008;0.00054;-1.38385;,
-1.24208;0.000522;-0.321726;,
-1.12332;0.000777;-0.92168;,
-0.844008;0.00054;-1.38385;,
-0.933237;0.000348;-0.855088;,
-1.16714;0.425517;-0.321726;,
-1.24208;0.000522;-0.321726;,
-0.933237;0.000348;-0.855088;,
-0.876934;0.319653;-0.855088;,
-0.194419;-1.10624;-0.92168;,
-0.215253;-1.2232;-0.321726;,
-0.161767;-0.919053;-0.855088;,
-0.146115;-0.831178;-1.38385;,
-0.146115;-0.831178;-1.38385;,
0.147194;-0.831178;-1.38385;,
0.216297;-1.2232;-0.321726;,
0.195974;-1.10624;-0.92168;,
0.147194;-0.831178;-1.38385;,
0.162463;-0.919053;-0.855088;,
-0.215253;-1.2232;-0.321726;,
0.216297;-1.2232;-0.321726;,
0.162463;-0.919053;-0.855088;,
-0.161767;-0.919053;-0.855088;,
1.05708;-0.383686;-0.92168;,
1.16819;-0.424473;-0.321726;,
0.877631;-0.318957;-0.855088;,
0.794156;-0.288313;-1.38385;,
0.794156;-0.288313;-1.38385;,
0.845088;0.000539;-1.38385;,
1.24313;0.000521;-0.321726;,
1.12487;0.000776;-0.92168;,
0.845088;0.000539;-1.38385;,
0.933934;0.000347;-0.855088;,
1.16819;-0.424473;-0.321726;,
1.24313;0.000521;-0.321726;,
0.933934;0.000347;-0.855088;,
0.877631;-0.318957;-0.855088;,
0.900875;0.328113;0.563612;,
0.900875;0.328113;-0.617282;,
0.734464;0.616345;-0.617282;,
0.734464;0.616345;0.563612;,
0.479508;0.830278;-0.617282;,
0.479508;0.830278;0.563612;,
0.166759;0.94411;-0.617282;,
0.166759;0.94411;0.563612;,
0.166759;0.94411;0.563612;,
0.166759;0.94411;-0.617282;,
-0.166062;0.94411;-0.617282;,
-0.166062;0.94411;0.563612;,
-0.166062;0.94411;0.563612;,
-0.166062;0.94411;-0.617282;,
-0.478812;0.830278;-0.617282;,
-0.478812;0.830278;0.563612;,
-0.733767;0.616345;-0.617282;,
-0.733767;0.616345;0.563612;,
-0.900178;0.328113;-0.617282;,
-0.900178;0.328113;0.563612;,
-0.957972;0.000348;-0.617282;,
-0.957972;0.000348;0.563612;,
-0.900178;-0.327416;-0.617282;,
-0.900178;-0.327416;0.563612;,
-0.733767;-0.615648;-0.617282;,
-0.733767;-0.615648;0.563612;,
-0.478812;-0.829581;-0.617282;,
-0.478812;-0.829581;0.563612;,
-0.166063;-0.943413;-0.617282;,
-0.166063;-0.943413;0.563612;,
-0.166063;-0.943413;0.563612;,
-0.166063;-0.943413;-0.617282;,
0.166759;-0.943413;-0.617282;,
0.166759;-0.943413;0.563612;,
0.166759;-0.943413;0.563612;,
0.166759;-0.943413;-0.617282;,
0.479508;-0.829581;-0.617282;,
0.479508;-0.829581;0.563612;,
0.734464;-0.615648;-0.617282;,
0.734464;-0.615648;0.563612;,
0.900875;-0.327418;-0.617282;,
0.900875;-0.327418;0.563612;,
0.958669;0.000347;-0.617282;,
0.958669;0.000347;0.563612;,
0.900875;0.328113;0.563612;,
0.734464;0.616345;0.563612;,
0.667552;0.560171;0.161196;,
0.818835;0.298143;0.161196;,
0.734464;0.616345;-0.617282;,
0.900875;0.328113;-0.617282;,
0.818835;0.298143;-0.15095;,
0.667552;0.560171;-0.15095;,
0.479508;0.830278;0.563612;,
0.435774;0.754655;0.161196;,
0.479508;0.830278;-0.617282;,
0.435774;0.754655;-0.15095;,
0.166759;0.94411;0.563612;,
0.151457;0.858139;0.161196;,
0.166759;0.94411;-0.617282;,
0.151457;0.858139;-0.15095;,
0.166759;0.94411;0.563612;,
-0.166062;0.94411;0.563612;,
-0.151108;0.858139;0.161196;,
0.151457;0.858139;0.161196;,
-0.166062;0.94411;-0.617282;,
-0.151108;0.858139;-0.15095;,
-0.166062;0.94411;0.563612;,
-0.478812;0.830278;0.563612;,
-0.435426;0.754655;0.161196;,
-0.151108;0.858139;0.161196;,
-0.478812;0.830278;-0.617282;,
-0.435426;0.754655;-0.15095;,
-0.733767;0.616345;0.563612;,
-0.667204;0.560171;0.161196;,
-0.733767;0.616345;-0.617282;,
-0.667204;0.560171;-0.15095;,
-0.900178;0.328113;0.563612;,
-0.818486;0.298143;0.161196;,
-0.900178;0.328113;-0.617282;,
-0.818486;0.298143;-0.15095;,
-0.957972;0.000348;0.563612;,
-0.871026;0.000174;0.161196;,
-0.957972;0.000348;-0.617282;,
-0.871026;0.000174;-0.15095;,
-0.900178;-0.327416;0.563612;,
-0.818486;-0.297793;0.161196;,
-0.900178;-0.327416;-0.617282;,
-0.818486;-0.297793;-0.15095;,
-0.733767;-0.615648;0.563612;,
-0.667204;-0.559822;0.161196;,
-0.733767;-0.615648;-0.617282;,
-0.667204;-0.559822;-0.15095;,
-0.478812;-0.829581;0.563612;,
-0.435426;-0.754307;0.161196;,
-0.478812;-0.829581;-0.617282;,
-0.435426;-0.754307;-0.15095;,
-0.166063;-0.943413;0.563612;,
-0.151108;-0.857791;0.161196;,
-0.166063;-0.943413;-0.617282;,
-0.151108;-0.857791;-0.15095;,
0.166759;-0.943413;0.563612;,
0.151456;-0.857791;0.161196;,
0.166759;-0.943413;-0.617282;,
0.151456;-0.857791;-0.15095;,
0.166759;-0.943413;0.563612;,
0.479508;-0.829581;0.563612;,
0.435774;-0.754308;0.161196;,
0.151456;-0.857791;0.161196;,
0.479508;-0.829581;-0.617282;,
0.435774;-0.754308;-0.15095;,
0.734464;-0.615648;0.563612;,
0.667552;-0.559823;0.161196;,
0.734464;-0.615648;-0.617282;,
0.667552;-0.559823;-0.15095;,
0.900875;-0.327418;0.563612;,
0.818835;-0.297794;0.161196;,
0.900875;-0.327418;-0.617282;,
0.818835;-0.297794;-0.15095;,
0.958669;0.000347;0.563612;,
0.871374;0.000173;0.161196;,
0.958669;0.000347;-0.617282;,
0.871374;0.000173;-0.15095;,
0.818835;0.298143;0.161196;,
0.667552;0.560171;0.161196;,
0.667378;0.559996;0.8712;,
0.818661;0.297969;0.8712;,
0.667552;0.560171;-0.15095;,
0.818835;0.298143;-0.15095;,
0.818661;0.297969;-0.8712;,
0.667378;0.559996;-0.8712;,
0.435774;0.754655;0.161196;,
0.4356;0.754481;0.8712;,
0.435774;0.754655;-0.15095;,
0.4356;0.754481;-0.8712;,
0.151457;0.858139;0.161196;,
0.151283;0.857965;0.8712;,
0.151457;0.858139;-0.15095;,
0.151283;0.857965;-0.8712;,
0.151457;0.858139;0.161196;,
-0.151108;0.858139;0.161196;,
-0.151283;0.857965;0.8712;,
0.151283;0.857965;0.8712;,
-0.151108;0.858139;-0.15095;,
-0.151283;0.857965;-0.8712;,
-0.151108;0.858139;0.161196;,
-0.435426;0.754655;0.161196;,
-0.4356;0.754481;0.8712;,
-0.151283;0.857965;0.8712;,
-0.435426;0.754655;-0.15095;,
-0.4356;0.754481;-0.8712;,
-0.667204;0.560171;0.161196;,
-0.667378;0.559996;0.8712;,
-0.667204;0.560171;-0.15095;,
-0.667378;0.559996;-0.8712;,
-0.818486;0.298143;0.161196;,
-0.818661;0.297969;0.8712;,
-0.818486;0.298143;-0.15095;,
-0.818661;0.297969;-0.8712;,
-0.871026;0.000174;0.161196;,
-0.8712;0.0;0.8712;,
-0.871026;0.000174;-0.15095;,
-0.8712;0.0;-0.8712;,
-0.818486;-0.297793;0.161196;,
-0.818661;-0.297967;0.8712;,
-0.818486;-0.297793;-0.15095;,
-0.818661;-0.297967;-0.8712;,
-0.667204;-0.559822;0.161196;,
-0.667378;-0.559996;0.8712;,
-0.667204;-0.559822;-0.15095;,
-0.667378;-0.559996;-0.8712;,
-0.435426;-0.754307;0.161196;,
-0.4356;-0.754481;0.8712;,
-0.435426;-0.754307;-0.15095;,
-0.4356;-0.754481;-0.8712;,
-0.151108;-0.857791;0.161196;,
-0.151283;-0.857965;0.8712;,
-0.151108;-0.857791;-0.15095;,
-0.151283;-0.857965;-0.8712;,
0.151456;-0.857791;0.161196;,
0.151281;-0.857965;0.8712;,
0.151456;-0.857791;-0.15095;,
0.151281;-0.857965;-0.8712;,
0.151456;-0.857791;0.161196;,
0.435774;-0.754308;0.161196;,
0.4356;-0.754481;0.8712;,
0.151281;-0.857965;0.8712;,
0.435774;-0.754308;-0.15095;,
0.4356;-0.754481;-0.8712;,
0.667552;-0.559823;0.161196;,
0.667378;-0.559998;0.8712;,
0.667552;-0.559823;-0.15095;,
0.667378;-0.559998;-0.8712;,
0.818835;-0.297794;0.161196;,
0.818661;-0.297969;0.8712;,
0.818835;-0.297794;-0.15095;,
0.818661;-0.297969;-0.8712;,
0.871374;0.000173;0.161196;,
0.8712;0.0;0.8712;,
0.871374;0.000173;-0.15095;,
0.8712;0.0;-0.8712;,
0.794156;0.289393;-1.38385;,
0.647502;0.543405;-1.38385;,
0.715515;0.600446;-0.855088;,
0.877631;0.319653;-0.855088;,
0.422814;0.73194;-1.38385;,
0.467141;0.808857;-0.855088;,
0.147194;0.832259;-1.38385;,
0.162464;0.91975;-0.855088;,
-0.146114;0.832259;-1.38385;,
-0.421735;0.73194;-1.38385;,
-0.466444;0.808856;-0.855088;,
-0.161767;0.91975;-0.855088;,
-0.646422;0.543405;-1.38385;,
-0.714818;0.600446;-0.855088;,
-0.793075;0.289393;-1.38385;,
-0.876934;0.319653;-0.855088;,
-0.844008;0.00054;-1.38385;,
-0.793075;-0.288313;-1.38385;,
-0.876934;-0.318956;-0.855088;,
-0.933237;0.000348;-0.855088;,
-0.646422;-0.542324;-1.38385;,
-0.714818;-0.599749;-0.855088;,
-0.421735;-0.730859;-1.38385;,
-0.466444;-0.808159;-0.855088;,
-0.146115;-0.831178;-1.38385;,
-0.161767;-0.919053;-0.855088;,
0.147194;-0.831178;-1.38385;,
0.422814;-0.730861;-1.38385;,
0.467141;-0.80816;-0.855088;,
0.162463;-0.919053;-0.855088;,
0.647501;-0.542326;-1.38385;,
0.715515;-0.599749;-0.855088;,
0.794156;-0.288313;-1.38385;,
0.877631;-0.318957;-0.855088;,
0.845088;0.000539;-1.38385;,
0.933934;0.000347;-0.855088;,
0.647502;0.543405;-1.38385;,
0.794156;0.289393;-1.38385;,
0.721817;0.262941;-1.42606;,
0.588496;0.493863;-1.42606;,
0.877631;0.319653;-0.855088;,
0.715515;0.600446;-0.855088;,
0.650327;0.545717;-1.08799;,
0.797703;0.290451;-1.08799;,
0.422814;0.73194;-1.38385;,
0.588496;0.493863;-1.42606;,
0.384234;0.665258;-1.42606;,
0.467141;0.808857;-0.855088;,
0.424531;0.735182;-1.08799;,
0.147194;0.832259;-1.38385;,
0.384234;0.665258;-1.42606;,
0.133671;0.756456;-1.42606;,
0.162464;0.91975;-0.855088;,
0.147552;0.835994;-1.08799;,
-0.146114;0.832259;-1.38385;,
0.133671;0.756456;-1.42606;,
-0.132974;0.756456;-1.42606;,
-0.161767;0.91975;-0.855088;,
-0.147204;0.835994;-1.08799;,
-0.421735;0.73194;-1.38385;,
-0.132974;0.756456;-1.42606;,
-0.383537;0.665258;-1.42606;,
-0.466444;0.808856;-0.855088;,
-0.424182;0.735182;-1.08799;,
-0.646422;0.543405;-1.38385;,
-0.383537;0.665258;-1.42606;,
-0.587799;0.493863;-1.42606;,
-0.714818;0.600446;-0.855088;,
-0.649978;0.545717;-1.08799;,
-0.793075;0.289393;-1.38385;,
-0.587799;0.493863;-1.42606;,
-0.72112;0.262941;-1.42606;,
-0.876934;0.319653;-0.855088;,
-0.797355;0.290451;-1.08799;,
-0.844008;0.00054;-1.38385;,
-0.72112;0.262941;-1.42606;,
-0.767423;0.000348;-1.42606;,
-0.933237;0.000348;-0.855088;,
-0.848539;0.000174;-1.08799;,
-0.793075;-0.288313;-1.38385;,
-0.767423;0.000348;-1.42606;,
-0.72112;-0.262245;-1.42606;,
-0.876934;-0.318956;-0.855088;,
-0.797356;-0.290102;-1.08799;,
-0.646422;-0.542324;-1.38385;,
-0.72112;-0.262245;-1.42606;,
-0.587799;-0.493166;-1.42606;,
-0.714818;-0.599749;-0.855088;,
-0.649978;-0.545368;-1.08799;,
-0.421735;-0.730859;-1.38385;,
-0.587799;-0.493166;-1.42606;,
-0.383537;-0.664561;-1.42606;,
-0.466444;-0.808159;-0.855088;,
-0.424182;-0.734833;-1.08799;,
-0.146115;-0.831178;-1.38385;,
-0.383537;-0.664561;-1.42606;,
-0.132974;-0.755759;-1.42606;,
-0.161767;-0.919053;-0.855088;,
-0.147204;-0.835645;-1.08799;,
0.147194;-0.831178;-1.38385;,
-0.132974;-0.755759;-1.42606;,
0.13367;-0.755759;-1.42606;,
0.162463;-0.919053;-0.855088;,
0.147551;-0.835645;-1.08799;,
0.422814;-0.730861;-1.38385;,
0.13367;-0.755759;-1.42606;,
0.384234;-0.664561;-1.42606;,
0.467141;-0.80816;-0.855088;,
0.424531;-0.734833;-1.08799;,
0.647501;-0.542326;-1.38385;,
0.384234;-0.664561;-1.42606;,
0.588496;-0.493166;-1.42606;,
0.715515;-0.599749;-0.855088;,
0.650327;-0.545369;-1.08799;,
0.794156;-0.288313;-1.38385;,
0.588496;-0.493166;-1.42606;,
0.721817;-0.262246;-1.42606;,
0.877631;-0.318957;-0.855088;,
0.797703;-0.290104;-1.08799;,
0.845088;0.000539;-1.38385;,
0.721817;-0.262246;-1.42606;,
0.76812;0.000347;-1.42606;,
0.933934;0.000347;-0.855088;,
0.848888;0.000173;-1.08799;,
0.76812;0.000347;-1.42606;,
0.721817;0.262941;-1.42606;,
0.588496;0.493863;-1.42606;,
0.721817;0.262941;-1.42606;,
0.655102;0.238549;-1.65545;,
0.534077;0.448172;-1.65545;,
0.797703;0.290451;-1.08799;,
0.650327;0.545717;-1.08799;,
0.384234;0.665258;-1.42606;,
0.588496;0.493863;-1.42606;,
0.348654;0.60376;-1.65545;,
0.424531;0.735182;-1.08799;,
0.133671;0.756456;-1.42606;,
0.384234;0.665258;-1.42606;,
0.1212;0.686546;-1.65545;,
0.147552;0.835994;-1.08799;,
-0.132974;0.756456;-1.42606;,
0.133671;0.756456;-1.42606;,
-0.120852;0.686546;-1.65545;,
-0.147204;0.835994;-1.08799;,
-0.383537;0.665258;-1.42606;,
-0.132974;0.756456;-1.42606;,
-0.348306;0.60376;-1.65545;,
-0.424182;0.735182;-1.08799;,
-0.587799;0.493863;-1.42606;,
-0.383537;0.665258;-1.42606;,
-0.533729;0.448172;-1.65545;,
-0.649978;0.545717;-1.08799;,
-0.72112;0.262941;-1.42606;,
-0.587799;0.493863;-1.42606;,
-0.654754;0.238549;-1.65545;,
-0.797355;0.290451;-1.08799;,
-0.767423;0.000348;-1.42606;,
-0.72112;0.262941;-1.42606;,
-0.696786;0.000174;-1.65545;,
-0.848539;0.000174;-1.08799;,
-0.72112;-0.262245;-1.42606;,
-0.767423;0.000348;-1.42606;,
-0.654754;-0.238201;-1.65545;,
-0.797356;-0.290102;-1.08799;,
-0.587799;-0.493166;-1.42606;,
-0.72112;-0.262245;-1.42606;,
-0.533729;-0.447823;-1.65545;,
-0.649978;-0.545368;-1.08799;,
-0.383537;-0.664561;-1.42606;,
-0.587799;-0.493166;-1.42606;,
-0.348306;-0.603411;-1.65545;,
-0.424182;-0.734833;-1.08799;,
-0.132974;-0.755759;-1.42606;,
-0.383537;-0.664561;-1.42606;,
-0.120852;-0.686197;-1.65545;,
-0.147204;-0.835645;-1.08799;,
0.13367;-0.755759;-1.42606;,
-0.132974;-0.755759;-1.42606;,
0.1212;-0.686197;-1.65545;,
0.147551;-0.835645;-1.08799;,
0.384234;-0.664561;-1.42606;,
0.13367;-0.755759;-1.42606;,
0.348654;-0.603411;-1.65545;,
0.424531;-0.734833;-1.08799;,
0.588496;-0.493166;-1.42606;,
0.384234;-0.664561;-1.42606;,
0.534077;-0.447823;-1.65545;,
0.650327;-0.545369;-1.08799;,
0.721817;-0.262246;-1.42606;,
0.588496;-0.493166;-1.42606;,
0.655102;-0.238201;-1.65545;,
0.797703;-0.290104;-1.08799;,
0.76812;0.000347;-1.42606;,
0.721817;-0.262246;-1.42606;,
0.697134;0.000173;-1.65545;,
0.848888;0.000173;-1.08799;,
0.721817;0.262941;-1.42606;,
0.76812;0.000347;-1.42606;,
-0.269;1.53071;4.58045;,
0.27054;1.53071;4.58045;,
0.320437;1.81566;3.28273;,
-0.319741;1.81566;3.28273;,
-1.55278;0.000769;4.58045;,
-1.45908;0.532113;4.58045;,
-1.73181;0.630798;3.28273;,
-1.84296;0.000348;3.28273;,
0.270539;-1.52917;4.58045;,
-0.269001;-1.52917;4.58045;,
-0.319741;-1.81496;3.28273;,
0.320435;-1.81496;3.28273;,
1.55431;0.000768;4.58045;,
1.46063;-0.530574;4.58045;,
1.73249;-0.630104;3.28273;,
1.84367;0.000346;3.28273;,
-0.269;1.53071;4.58045;,
-0.319741;1.81566;3.28273;,
-0.132167;0.750722;1.84783;,
-0.111189;0.632909;2.24641;,
0.27054;1.53071;4.58045;,
-0.269;1.53071;4.58045;,
-0.111189;0.632909;2.24641;,
0.111886;0.632909;2.24641;,
0.320437;1.81566;3.28273;,
0.27054;1.53071;4.58045;,
0.111886;0.632909;2.24641;,
0.132516;0.750722;1.84783;,
-0.319741;1.81566;3.28273;,
0.320437;1.81566;3.28273;,
0.132516;0.750722;1.84783;,
-0.132167;0.750722;1.84783;,
-1.55278;0.000769;4.58045;,
-1.84296;0.000348;3.28273;,
-0.761952;0.000174;1.84783;,
-0.64197;0.000348;2.24641;,
-1.45908;0.532113;4.58045;,
-1.55278;0.000769;4.58045;,
-0.64197;0.000348;2.24641;,
-0.603233;0.220035;2.24641;,
-1.73181;0.630798;3.28273;,
-1.45908;0.532113;4.58045;,
-0.603233;0.220035;2.24641;,
-0.71599;0.260836;1.84783;,
-1.84296;0.000348;3.28273;,
-1.73181;0.630798;3.28273;,
-0.71599;0.260836;1.84783;,
-0.761952;0.000174;1.84783;,
0.270539;-1.52917;4.58045;,
0.320435;-1.81496;3.28273;,
0.132516;-0.750373;1.84783;,
0.111886;-0.632212;2.24641;,
-0.269001;-1.52917;4.58045;,
0.270539;-1.52917;4.58045;,
0.111886;-0.632212;2.24641;,
-0.111189;-0.632212;2.24641;,
-0.319741;-1.81496;3.28273;,
-0.269001;-1.52917;4.58045;,
-0.111189;-0.632212;2.24641;,
-0.132168;-0.750373;1.84783;,
0.320435;-1.81496;3.28273;,
-0.319741;-1.81496;3.28273;,
-0.132168;-0.750373;1.84783;,
0.132516;-0.750373;1.84783;,
1.55431;0.000768;4.58045;,
1.84367;0.000346;3.28273;,
0.7623;0.000173;1.84783;,
0.642667;0.000347;2.24641;,
1.46063;-0.530574;4.58045;,
1.55431;0.000768;4.58045;,
0.642667;0.000347;2.24641;,
0.60393;-0.219338;2.24641;,
1.73249;-0.630104;3.28273;,
1.46063;-0.530574;4.58045;,
0.60393;-0.219338;2.24641;,
0.716338;-0.260489;1.84783;,
1.84367;0.000346;3.28273;,
1.73249;-0.630104;3.28273;,
0.716338;-0.260489;1.84783;,
0.7623;0.000173;1.84783;,
0.534077;0.448172;-1.65545;,
0.655102;0.238549;-1.65545;,
0.000174;0.017598;-2.82286;,
0.348654;0.60376;-1.65545;,
0.000174;0.017598;-2.82286;,
0.1212;0.686546;-1.65545;,
0.000174;0.017598;-2.82286;,
-0.120852;0.686546;-1.65545;,
0.000174;0.017598;-2.82286;,
-0.348306;0.60376;-1.65545;,
0.000174;0.017598;-2.82286;,
-0.533729;0.448172;-1.65545;,
0.000174;0.017598;-2.82286;,
-0.654754;0.238549;-1.65545;,
0.000174;0.017598;-2.82286;,
-0.696786;0.000174;-1.65545;,
0.000174;0.017598;-2.82286;,
-0.654754;-0.238201;-1.65545;,
0.000174;0.017598;-2.82286;,
-0.533729;-0.447823;-1.65545;,
0.000174;0.017598;-2.82286;,
-0.348306;-0.603411;-1.65545;,
0.000174;0.017598;-2.82286;,
-0.120852;-0.686197;-1.65545;,
0.000174;0.017598;-2.82286;,
0.1212;-0.686197;-1.65545;,
0.000174;0.017598;-2.82286;,
0.348654;-0.603411;-1.65545;,
0.000174;0.017598;-2.82286;,
0.534077;-0.447823;-1.65545;,
0.000174;0.017598;-2.82286;,
0.655102;-0.238201;-1.65545;,
0.000174;0.017598;-2.82286;,
0.697134;0.000173;-1.65545;,
0.000174;0.017598;-2.82286;,
0.000174;0.017598;-2.82286;,
0.583997;0.49006;1.84783;,
0.716338;0.260836;1.84783;,
0.381237;0.660194;1.84783;,
0.132516;0.750722;1.84783;,
-0.132167;0.750722;1.84783;,
0.132516;0.750722;1.84783;,
0.151283;0.857965;0.8712;,
-0.380889;0.660194;1.84783;,
-0.132167;0.750722;1.84783;,
-0.583648;0.49006;1.84783;,
-0.71599;0.260836;1.84783;,
-0.761952;0.000174;1.84783;,
-0.71599;0.260836;1.84783;,
-0.71599;-0.260488;1.84783;,
-0.761952;0.000174;1.84783;,
-0.583648;-0.489711;1.84783;,
-0.380889;-0.659846;1.84783;,
-0.132168;-0.750373;1.84783;,
0.132516;-0.750373;1.84783;,
-0.132168;-0.750373;1.84783;,
0.381237;-0.659847;1.84783;,
0.132516;-0.750373;1.84783;,
0.583997;-0.489711;1.84783;,
0.716338;-0.260489;1.84783;,
0.7623;0.000173;1.84783;,
0.716338;-0.260489;1.84783;,
0.7623;0.000173;1.84783;,
0.492393;0.413222;2.24641;,
0.60393;0.220035;2.24641;,
0.321508;0.556612;2.24641;,
0.111886;0.632909;2.24641;,
-0.320811;0.556612;2.24641;,
-0.111189;0.632909;2.24641;,
-0.491696;0.413222;2.24641;,
-0.603233;0.220035;2.24641;,
-0.603233;-0.219338;2.24641;,
-0.64197;0.000348;2.24641;,
-0.491696;-0.412525;2.24641;,
-0.320811;-0.555915;2.24641;,
-0.111189;-0.632212;2.24641;,
0.321508;-0.555916;2.24641;,
0.111886;-0.632212;2.24641;,
0.492393;-0.412527;2.24641;,
0.60393;-0.219338;2.24641;,
0.642667;0.000347;2.24641;,
0.399156;0.335027;2.52216;,
0.489501;0.178545;2.52216;,
0.260738;0.451174;2.52216;,
0.090944;0.512974;2.52216;,
-0.089745;0.512974;2.52216;,
-0.111189;0.632909;2.24641;,
-0.25954;0.451173;2.52216;,
-0.089745;0.512974;2.52216;,
-0.397957;0.335027;2.52216;,
-0.488302;0.178545;2.52216;,
-0.519678;0.000599;2.52216;,
-0.488302;-0.177346;2.52216;,
-0.397957;-0.333829;2.52216;,
-0.25954;-0.449975;2.52216;,
-0.089746;-0.511774;2.52216;,
0.090944;-0.511774;2.52216;,
-0.089746;-0.511774;2.52216;,
-0.111189;-0.632212;2.24641;,
0.260738;-0.449975;2.52216;,
0.399155;-0.333829;2.52216;,
0.489501;-0.177346;2.52216;,
0.520877;0.000598;2.52216;,
0.242754;0.203797;1.86261;,
0.297639;0.108733;1.86261;,
0.489501;0.178545;2.52216;,
0.399156;0.335027;2.52216;,
0.158666;0.274355;1.86261;,
0.260738;0.451174;2.52216;,
0.055516;0.311898;1.86261;,
0.090944;0.512974;2.52216;,
-0.054253;0.311898;1.86261;,
-0.089745;0.512974;2.52216;,
-0.157403;0.274355;1.86261;,
-0.25954;0.451173;2.52216;,
-0.241491;0.203797;1.86261;,
-0.397957;0.335027;2.52216;,
-0.296376;0.108733;1.86261;,
-0.488302;0.178545;2.52216;,
-0.315437;0.000631;1.86261;,
-0.519678;0.000599;2.52216;,
-0.296376;-0.10747;1.86261;,
-0.488302;-0.177346;2.52216;,
-0.241492;-0.202533;1.86261;,
-0.397957;-0.333829;2.52216;,
-0.157403;-0.273092;1.86261;,
-0.25954;-0.449975;2.52216;,
-0.054253;-0.310636;1.86261;,
-0.089746;-0.511774;2.52216;,
0.055516;-0.310636;1.86261;,
0.090944;-0.511774;2.52216;,
0.158666;-0.273092;1.86261;,
0.260738;-0.449975;2.52216;,
0.242754;-0.202533;1.86261;,
0.399155;-0.333829;2.52216;,
0.297639;-0.107471;1.86261;,
0.489501;-0.177346;2.52216;,
0.316701;0.000631;1.86261;,
0.520877;0.000598;2.52216;,
0.191729;0.161057;2.82275;,
0.234941;0.086211;2.82275;,
0.297639;0.108733;1.86261;,
0.242754;0.203797;1.86261;,
0.125525;0.216609;2.82275;,
0.158666;0.274355;1.86261;,
0.044313;0.246168;2.82275;,
0.055516;0.311898;1.86261;,
-0.04211;0.246168;2.82275;,
-0.054253;0.311898;1.86261;,
-0.123322;0.216609;2.82275;,
-0.157403;0.274355;1.86261;,
-0.189527;0.161057;2.82275;,
-0.241491;0.203797;1.86261;,
-0.232739;0.086211;2.82275;,
-0.296376;0.108733;1.86261;,
-0.247746;0.001101;2.82275;,
-0.315437;0.000631;1.86261;,
-0.232739;-0.084009;2.82275;,
-0.296376;-0.10747;1.86261;,
-0.189527;-0.158855;2.82275;,
-0.241492;-0.202533;1.86261;,
-0.123322;-0.214407;2.82275;,
-0.157403;-0.273092;1.86261;,
-0.04211;-0.243965;2.82275;,
-0.054253;-0.310636;1.86261;,
0.044313;-0.243965;2.82275;,
0.055516;-0.310636;1.86261;,
0.125524;-0.214407;2.82275;,
0.158666;-0.273092;1.86261;,
0.191729;-0.158855;2.82275;,
0.242754;-0.202533;1.86261;,
0.234941;-0.084009;2.82275;,
0.297639;-0.107471;1.86261;,
0.249949;0.0011;2.82275;,
0.316701;0.000631;1.86261;,
0.001045;0.053317;1.35803;,
0.001045;0.053317;1.35803;,
0.234941;0.086211;2.82275;,
0.191729;0.161057;2.82275;,
0.001045;0.053317;1.35803;,
0.125525;0.216609;2.82275;,
0.001045;0.053317;1.35803;,
0.044313;0.246168;2.82275;,
0.001045;0.053317;1.35803;,
-0.04211;0.246168;2.82275;,
0.001045;0.053317;1.35803;,
-0.123322;0.216609;2.82275;,
0.001045;0.053317;1.35803;,
-0.189527;0.161057;2.82275;,
0.001045;0.053317;1.35803;,
-0.232739;0.086211;2.82275;,
0.001045;0.053317;1.35803;,
-0.247746;0.001101;2.82275;,
0.001045;0.053317;1.35803;,
-0.232739;-0.084009;2.82275;,
0.001045;0.053317;1.35803;,
-0.189527;-0.158855;2.82275;,
0.001045;0.053317;1.35803;,
-0.123322;-0.214407;2.82275;,
0.001045;0.053317;1.35803;,
-0.04211;-0.243965;2.82275;,
0.001045;0.053317;1.35803;,
0.044313;-0.243965;2.82275;,
0.001045;0.053317;1.35803;,
0.125524;-0.214407;2.82275;,
0.001045;0.053317;1.35803;,
0.191729;-0.158855;2.82275;,
0.001045;0.053317;1.35803;,
0.234941;-0.084009;2.82275;,
0.001045;0.053317;1.35803;,
0.249949;0.0011;2.82275;;

338;
4;0,1,2,3;,
4;4,5,6,7;,
4;8,9,10,11;,
4;12,13,14,15;,
4;16,17,18,19;,
4;1,0,20,21;,
4;22,23,24,25;,
4;26,27,28,29;,
4;30,31,32,33;,
4;5,4,34,35;,
4;36,37,38,39;,
4;40,41,42,43;,
4;44,45,46,47;,
4;9,8,48,49;,
4;50,51,52,53;,
4;54,55,56,57;,
4;58,59,60,61;,
4;13,12,62,63;,
4;64,65,66,67;,
4;68,69,70,71;,
4;72,73,74,75;,
4;75,74,76,77;,
4;77,76,78,79;,
4;80,81,82,83;,
4;84,85,86,87;,
4;87,86,88,89;,
4;89,88,90,91;,
4;91,90,92,93;,
4;93,92,94,95;,
4;95,94,96,97;,
4;97,96,98,99;,
4;99,98,100,101;,
4;102,103,104,105;,
4;106,107,108,109;,
4;109,108,110,111;,
4;111,110,112,113;,
4;113,112,114,115;,
4;115,114,73,72;,
4;116,117,118,119;,
4;120,121,122,123;,
4;117,124,125,118;,
4;126,120,123,127;,
4;124,128,129,125;,
4;130,126,127,131;,
4;132,133,134,135;,
4;136,130,131,137;,
4;138,139,140,141;,
4;142,136,137,143;,
4;139,144,145,140;,
4;146,142,143,147;,
4;144,148,149,145;,
4;150,146,147,151;,
4;148,152,153,149;,
4;154,150,151,155;,
4;152,156,157,153;,
4;158,154,155,159;,
4;156,160,161,157;,
4;162,158,159,163;,
4;160,164,165,161;,
4;166,162,163,167;,
4;164,168,169,165;,
4;170,166,167,171;,
4;168,172,173,169;,
4;174,170,171,175;,
4;176,177,178,179;,
4;180,174,175,181;,
4;177,182,183,178;,
4;184,180,181,185;,
4;182,186,187,183;,
4;188,184,185,189;,
4;186,190,191,187;,
4;192,188,189,193;,
4;190,116,119,191;,
4;121,192,193,122;,
4;194,195,196,197;,
4;198,199,200,201;,
4;195,202,203,196;,
4;204,198,201,205;,
4;202,206,207,203;,
4;208,204,205,209;,
4;210,211,212,213;,
4;214,208,209,215;,
4;216,217,218,219;,
4;220,214,215,221;,
4;217,222,223,218;,
4;224,220,221,225;,
4;222,226,227,223;,
4;228,224,225,229;,
4;226,230,231,227;,
4;232,228,229,233;,
4;230,234,235,231;,
4;236,232,233,237;,
4;234,238,239,235;,
4;240,236,237,241;,
4;238,242,243,239;,
4;244,240,241,245;,
4;242,246,247,243;,
4;248,244,245,249;,
4;246,250,251,247;,
4;252,248,249,253;,
4;254,255,256,257;,
4;258,252,253,259;,
4;255,260,261,256;,
4;262,258,259,263;,
4;260,264,265,261;,
4;266,262,263,267;,
4;264,268,269,265;,
4;270,266,267,271;,
4;268,194,197,269;,
4;199,270,271,200;,
4;272,273,274,275;,
4;273,276,277,274;,
4;276,278,279,277;,
4;280,281,282,283;,
4;281,284,285,282;,
4;284,286,287,285;,
4;288,289,290,291;,
4;289,292,293,290;,
4;292,294,295,293;,
4;294,296,297,295;,
4;298,299,300,301;,
4;299,302,303,300;,
4;302,304,305,303;,
4;306,272,275,307;,
4;308,309,310,311;,
4;312,313,314,315;,
4;316,308,317,318;,
4;313,319,320,314;,
4;321,316,322,323;,
4;319,324,325,320;,
4;326,321,327,328;,
4;324,329,330,325;,
4;331,326,332,333;,
4;329,334,335,330;,
4;336,331,337,338;,
4;334,339,340,335;,
4;341,336,342,343;,
4;339,344,345,340;,
4;346,341,347,348;,
4;344,349,350,345;,
4;351,346,352,353;,
4;349,354,355,350;,
4;356,351,357,358;,
4;354,359,360,355;,
4;361,356,362,363;,
4;359,364,365,360;,
4;366,361,367,368;,
4;364,369,370,365;,
4;371,366,372,373;,
4;369,374,375,370;,
4;376,371,377,378;,
4;374,379,380,375;,
4;381,376,382,383;,
4;379,384,385,380;,
4;386,381,387,388;,
4;384,389,390,385;,
4;391,386,392,393;,
4;389,394,395,390;,
4;309,391,396,397;,
4;394,312,315,395;,
4;398,399,400,401;,
4;402,403,201,200;,
4;404,405,401,406;,
4;403,407,205,201;,
4;408,409,406,410;,
4;407,411,209,205;,
4;412,413,410,414;,
4;411,415,215,209;,
4;416,417,414,418;,
4;415,419,221,215;,
4;420,421,418,422;,
4;419,423,225,221;,
4;424,425,422,426;,
4;423,427,229,225;,
4;428,429,426,430;,
4;427,431,233,229;,
4;432,433,430,434;,
4;431,435,237,233;,
4;436,437,434,438;,
4;435,439,241,237;,
4;440,441,438,442;,
4;439,443,245,241;,
4;444,445,442,446;,
4;443,447,249,245;,
4;448,449,446,450;,
4;447,451,253,249;,
4;452,453,450,454;,
4;451,455,259,253;,
4;456,457,454,458;,
4;455,459,263,259;,
4;460,461,458,462;,
4;459,463,267,263;,
4;464,465,462,466;,
4;463,467,271,267;,
4;468,469,466,400;,
4;467,402,200,271;,
4;470,471,472,473;,
4;474,475,476,477;,
4;478,479,480,481;,
4;482,483,484,485;,
4;486,487,488,489;,
4;490,491,492,493;,
4;494,495,496,497;,
4;498,499,500,501;,
4;502,503,504,505;,
4;506,507,508,509;,
4;510,511,512,513;,
4;514,515,516,517;,
4;518,519,520,521;,
4;522,523,524,525;,
4;526,527,528,529;,
4;530,531,532,533;,
4;534,535,536,537;,
4;538,539,540,541;,
4;542,543,544,545;,
4;546,547,548,549;,
3;550,551,552;,
3;553,550,554;,
3;555,553,556;,
3;557,555,558;,
3;559,557,560;,
3;561,559,562;,
3;563,561,564;,
3;565,563,566;,
3;567,565,568;,
3;569,567,570;,
3;571,569,572;,
3;573,571,574;,
3;575,573,576;,
3;577,575,578;,
3;579,577,580;,
3;581,579,582;,
3;583,581,584;,
3;551,583,585;,
4;586,587,197,196;,
4;588,586,196,203;,
4;589,588,203,207;,
4;590,591,592,219;,
4;593,594,219,218;,
4;595,593,218,223;,
4;596,595,223,227;,
4;597,598,227,231;,
4;599,600,231,235;,
4;601,599,235,239;,
4;602,601,239,243;,
4;603,602,243,247;,
4;604,605,247,251;,
4;606,607,257,256;,
4;608,606,256,261;,
4;609,608,261,265;,
4;610,611,265,269;,
4;587,612,269,197;,
4;613,614,587,586;,
4;615,613,586,588;,
4;616,615,588,589;,
4;617,618,594,593;,
4;619,617,593,595;,
4;620,619,595,596;,
4;621,622,600,599;,
4;623,621,599,601;,
4;624,623,601,602;,
4;625,624,602,603;,
4;626,627,607,606;,
4;628,626,606,608;,
4;629,628,608,609;,
4;614,630,612,587;,
4;631,632,614,613;,
4;633,631,613,615;,
4;634,633,615,616;,
4;635,634,616,636;,
4;637,638,618,617;,
4;639,637,617,619;,
4;640,639,619,620;,
4;641,640,620,622;,
4;642,641,622,621;,
4;643,642,621,623;,
4;644,643,623,624;,
4;645,644,624,625;,
4;646,647,648,627;,
4;649,646,627,626;,
4;650,649,626,628;,
4;651,650,628,629;,
4;652,651,629,630;,
4;632,652,630,614;,
4;653,654,655,656;,
4;657,653,656,658;,
4;659,657,658,660;,
4;661,659,660,662;,
4;663,661,662,664;,
4;665,663,664,666;,
4;667,665,666,668;,
4;669,667,668,670;,
4;671,669,670,672;,
4;673,671,672,674;,
4;675,673,674,676;,
4;677,675,676,678;,
4;679,677,678,680;,
4;681,679,680,682;,
4;683,681,682,684;,
4;685,683,684,686;,
4;687,685,686,688;,
4;654,687,688,655;,
4;689,690,691,692;,
4;693,689,692,694;,
4;695,693,694,696;,
4;697,695,696,698;,
4;699,697,698,700;,
4;701,699,700,702;,
4;703,701,702,704;,
4;705,703,704,706;,
4;707,705,706,708;,
4;709,707,708,710;,
4;711,709,710,712;,
4;713,711,712,714;,
4;715,713,714,716;,
4;717,715,716,718;,
4;719,717,718,720;,
4;721,719,720,722;,
4;723,721,722,724;,
4;690,723,724,691;,
4;725,726,727,728;,
4;729,725,728,730;,
4;731,729,730,732;,
4;733,731,732,734;,
4;735,733,734,736;,
4;737,735,736,738;,
4;739,737,738,740;,
4;741,739,740,742;,
4;743,741,742,744;,
4;745,743,744,746;,
4;747,745,746,748;,
4;749,747,748,750;,
4;751,749,750,752;,
4;753,751,752,754;,
4;755,753,754,756;,
4;757,755,756,758;,
4;759,757,758,760;,
4;726,759,760,727;;

MeshMaterialList {
1;
338;
0,
0,
0,
0,
0,
0,
0,
0,
0,
0,
0,
0,
0,
0,
0,
0,
0,
0,
0,
0,
0,
0,
0,
0,
0,
0,
0,
0,
0,
0,
0,
0,
0,
0,
0,
0,
0,
0,
0,
0,
0,
0,
0,
0,
0,
0,
0,
0,
0,
0,
0,
0,
0,
0,
0,
0,
0,
0,
0,
0,
0,
0,
0,
0,
0,
0,
0,
0,
0,
0,
0,
0,
0,
0,
0,
0,
0,
0,
0,
0,
0,
0,
0,
0,
0,
0,
0,
0,
0,
0,
0,
0,
0,
0,
0,
0,
0,
0,
0,
0,
0,
0,
0,
0,
0,
0,
0,
0,
0,
0,
0,
0,
0,
0,
0,
0,
0,
0,
0,
0,
0,
0,
0,
0,
0,
0,
0,
0,
0,
0,
0,
0,
0,
0,
0,
0,
0,
0,
0,
0,
0,
0,
0,
0,
0,
0,
0,
0,
0,
0,
0,
0,
0,
0,
0,
0,
0,
0,
0,
0,
0,
0,
0,
0,
0,
0,
0,
0,
0,
0,
0,
0,
0,
0,
0,
0,
0,
0,
0,
0,
0,
0,
0,
0,
0,
0,
0,
0,
0,
0,
0,
0,
0,
0,
0,
0,
0,
0,
0,
0,
0,
0,
0,
0,
0,
0,
0,
0,
0,
0,
0,
0,
0,
0,
0,
0,
0,
0,
0,
0,
0,
0,
0,
0,
0,
0,
0,
0,
0,
0,
0,
0,
0,
0,
0,
0,
0,
0,
0,
0,
0,
0,
0,
0,
0,
0,
0,
0,
0,
0,
0,
0,
0,
0,
0,
0,
0,
0,
0,
0,
0,
0,
0,
0,
0,
0,
0,
0,
0,
0,
0,
0,
0,
0,
0,
0,
0,
0,
0,
0,
0,
0,
0,
0,
0,
0,
0,
0,
0,
0,
0,
0,
0,
0,
0,
0,
0,
0,
0,
0,
0,
0,
0,
0,
0,
0,
0,
0,
0,
0,
0,
0,
0,
0,
0,
0,
0,
0,
0,
0,
0,
0,
0,
0,
0,
0,
0,
0,
0,
0,
0,
0,
0,
0,
0,
0,
0,
0;;
{ MatTex_1_1 }
}

MeshTextureCoords {
761;
0.36367;0.655459;,
0.183654;0.655459;,
0.174047;0.572944;,
0.373042;0.572944;,
0.870072;0.2755;,
0.870072;0.362113;,
0.698575;0.36217;,
0.698575;0.266426;,
0.363275;0.655459;,
0.183258;0.655459;,
0.173887;0.572944;,
0.372881;0.572944;,
-0.323144;0.448726;,
-0.323144;0.362113;,
-0.151646;0.362171;,
-0.151646;0.457915;,
-0.323144;0.11272;,
-0.151646;0.086485;,
-0.304109;0.155083;,
-0.455256;0.174794;,
0.341177;0.719024;,
0.205928;0.719024;,
0.698575;0.086485;,
0.870072;0.11272;,
1.00218;0.174794;,
0.851037;0.155083;,
0.173887;0.572944;,
0.372881;0.572944;,
0.348218;0.646301;,
0.198711;0.646301;,
-0.213415;0.655459;,
-0.264882;0.572944;,
-0.131064;0.646301;,
-0.092395;0.719024;,
1.00218;0.297093;,
1.00218;0.362166;,
0.846366;0.572944;,
0.791603;0.655459;,
0.66281;0.719024;,
0.703954;0.646301;,
-0.151646;0.266426;,
-0.151646;0.36217;,
-0.304109;0.362209;,
-0.304109;0.290275;,
0.870072;0.611506;,
0.698575;0.637855;,
0.851037;0.569336;,
1.00218;0.549539;,
0.341001;0.719024;,
0.205752;0.719024;,
-0.151646;0.637855;,
-0.323144;0.611506;,
-0.455256;0.549539;,
-0.304109;0.569336;,
0.174047;0.572944;,
0.373042;0.572944;,
0.348218;0.646301;,
0.19871;0.646301;,
-0.213811;0.655459;,
-0.265043;0.572944;,
-0.131064;0.646301;,
-0.092572;0.719024;,
-0.455256;0.42724;,
-0.455256;0.362167;,
0.846527;0.572944;,
0.791999;0.655459;,
0.662987;0.719024;,
0.703954;0.646301;,
0.698575;0.457915;,
0.698575;0.362171;,
0.851037;0.36221;,
0.851037;0.434144;,
0.767552;0.240442;,
0.498449;0.240442;,
0.475659;0.133361;,
0.789713;0.133361;,
0.426587;0.053882;,
0.838761;0.053882;,
0.334551;0.011593;,
0.935596;0.011593;,
0.230002;0.040044;,
-0.371043;0.040044;,
0.964226;0.040044;,
0.363181;0.040044;,
-0.388667;0.011593;,
0.212378;0.011593;,
0.120341;0.053882;,
-0.291833;0.053882;,
0.071269;0.133361;,
-0.242785;0.133361;,
0.048479;0.240442;,
-0.220623;0.240442;,
0.041829;0.36221;,
-0.214225;0.36221;,
0.048479;0.483978;,
-0.220623;0.483978;,
0.071269;0.591059;,
-0.242785;0.591059;,
0.120341;0.670537;,
-0.291832;0.670537;,
0.212378;0.712827;,
-0.388667;0.712827;,
0.367613;0.664052;,
0.968658;0.664052;,
-0.366611;0.664052;,
0.234434;0.664052;,
0.935596;0.712827;,
0.33455;0.712827;,
0.426587;0.670537;,
0.838761;0.670537;,
0.475659;0.591059;,
0.789713;0.591059;,
0.498449;0.483978;,
0.767552;0.483978;,
0.505099;0.36221;,
0.761154;0.36221;,
0.767552;0.240442;,
0.789713;0.133361;,
0.692831;0.15423;,
0.682946;0.251576;,
0.475659;0.133361;,
0.498449;0.240442;,
0.595536;0.251576;,
0.586233;0.15423;,
0.838761;0.053882;,
0.720094;0.081977;,
0.426587;0.053882;,
0.560445;0.081977;,
0.935596;0.011593;,
0.827536;0.043532;,
0.334551;0.011593;,
0.45581;0.043532;,
0.230002;0.040044;,
0.363181;0.040044;,
0.471507;0.071983;,
0.121943;0.071983;,
0.212378;0.011593;,
0.090851;0.043532;,
-0.388667;0.011593;,
-0.291833;0.053882;,
-0.173105;0.081977;,
-0.28034;0.043532;,
0.120341;0.053882;,
-0.013574;0.081977;,
-0.242785;0.133361;,
-0.145875;0.15423;,
0.071269;0.133361;,
-0.03933;0.15423;,
-0.220623;0.240442;,
-0.135998;0.251576;,
0.048479;0.240442;,
-0.048625;0.251576;,
-0.214225;0.36221;,
-0.133341;0.362274;,
0.041829;0.36221;,
-0.051122;0.362274;,
-0.220623;0.483978;,
-0.135998;0.472973;,
0.048479;0.483978;,
-0.048625;0.472973;,
-0.242785;0.591059;,
-0.145875;0.570319;,
0.071269;0.591059;,
-0.03933;0.570319;,
-0.291832;0.670537;,
-0.173105;0.642572;,
0.120341;0.670537;,
-0.013574;0.642572;,
-0.388667;0.712827;,
-0.28034;0.681017;,
0.212378;0.712827;,
0.090851;0.681017;,
-0.521845;0.712827;,
-0.629904;0.681017;,
0.33455;0.712827;,
0.455809;0.681017;,
0.935596;0.712827;,
0.838761;0.670537;,
0.720094;0.642572;,
0.827536;0.681017;,
0.426587;0.670537;,
0.560445;0.642572;,
0.789713;0.591059;,
0.692831;0.570319;,
0.475659;0.591059;,
0.586233;0.570319;,
0.767552;0.483978;,
0.682946;0.472973;,
0.498449;0.483978;,
0.595536;0.472973;,
0.761154;0.36221;,
0.680286;0.362275;,
0.505099;0.36221;,
0.598036;0.362275;,
0.682946;0.251576;,
0.692831;0.15423;,
0.850621;0.154295;,
0.827271;0.251641;,
0.586233;0.15423;,
0.595536;0.251576;,
0.448393;0.251641;,
0.425043;0.154295;,
0.720094;0.081977;,
0.894718;0.082041;,
0.560445;0.081977;,
0.380943;0.082041;,
0.827536;0.043532;,
0.962396;0.043596;,
0.45581;0.043532;,
0.313258;0.043596;,
0.121943;0.071983;,
0.471507;0.071983;,
0.336561;0.072048;,
0.256803;0.072048;,
0.090851;0.043532;,
0.23349;0.043596;,
-0.28034;0.043532;,
-0.173105;0.081977;,
-0.347641;0.082041;,
-0.415287;0.043596;,
-0.013574;0.081977;,
0.165837;0.082041;,
-0.145875;0.15423;,
-0.303575;0.154295;,
-0.03933;0.15423;,
0.121769;0.154295;,
-0.135998;0.251576;,
-0.280244;0.251641;,
-0.048625;0.251576;,
0.098436;0.251641;,
-0.133341;0.362274;,
-0.273037;0.362339;,
-0.051122;0.362274;,
0.09123;0.362339;,
-0.135998;0.472973;,
-0.280244;0.473037;,
-0.048625;0.472973;,
0.098436;0.473037;,
-0.145875;0.570319;,
-0.303575;0.570384;,
-0.03933;0.570319;,
0.121769;0.570384;,
-0.173105;0.642572;,
-0.347641;0.642637;,
-0.013574;0.642572;,
0.165837;0.642637;,
-0.28034;0.681017;,
-0.415287;0.681082;,
0.090851;0.681017;,
0.23349;0.681082;,
-0.629904;0.681017;,
-0.495045;0.681082;,
0.455809;0.681017;,
0.313258;0.681082;,
0.827536;0.681017;,
0.720094;0.642572;,
0.894718;0.642637;,
0.962396;0.681082;,
0.560445;0.642572;,
0.380943;0.642637;,
0.692831;0.570319;,
0.850621;0.570384;,
0.586233;0.570319;,
0.425043;0.570384;,
0.682946;0.472973;,
0.827271;0.473038;,
0.595536;0.472973;,
0.448393;0.473038;,
0.680286;0.362275;,
0.820058;0.362339;,
0.598036;0.362275;,
0.455606;0.362339;,
0.394272;0.254827;,
0.374934;0.160458;,
0.435037;0.139267;,
0.458624;0.243585;,
0.342196;0.090416;,
0.389378;0.06184;,
0.297988;0.053147;,
0.316928;0.020642;,
0.249004;0.053147;,
0.204792;0.090416;,
0.15755;0.061841;,
0.23;0.020642;,
0.172047;0.160458;,
0.111891;0.139267;,
0.152705;0.254827;,
0.088304;0.243585;,
0.146381;0.362138;,
0.152705;0.46945;,
0.088304;0.480835;,
0.081103;0.36221;,
0.172047;0.563818;,
0.111891;0.585152;,
0.204792;0.633861;,
0.15755;0.662579;,
0.249004;0.67113;,
0.23;0.703777;,
0.297987;0.67113;,
0.342196;0.633861;,
0.389378;0.662579;,
0.316928;0.703777;,
0.374934;0.563819;,
0.435037;0.585152;,
0.394272;0.46945;,
0.458624;0.480835;,
0.400594;0.362139;,
0.465825;0.36221;,
0.374934;0.160458;,
0.394272;0.254827;,
0.382111;0.264654;,
0.364204;0.178864;,
0.458624;0.243585;,
0.435037;0.139267;,
0.398382;0.1596;,
0.420172;0.254433;,
0.342196;0.090416;,
0.364204;0.178864;,
0.334463;0.115189;,
0.389378;0.06184;,
0.359699;0.089211;,
0.297988;0.053147;,
0.334463;0.115189;,
0.295088;0.081308;,
0.316928;0.020642;,
0.30466;0.051759;,
0.249004;0.053147;,
0.295088;0.081308;,
0.25184;0.081308;,
0.23;0.020642;,
0.242195;0.051759;,
0.204792;0.090416;,
0.25184;0.081308;,
0.212466;0.115189;,
0.15755;0.061841;,
0.187165;0.089212;,
0.172047;0.160458;,
0.212466;0.115189;,
0.182724;0.178864;,
0.111891;0.139267;,
0.148491;0.1596;,
0.152705;0.254827;,
0.182724;0.178864;,
0.164817;0.264654;,
0.088304;0.243585;,
0.126709;0.254433;,
0.146381;0.362138;,
0.164817;0.264654;,
0.158899;0.36221;,
0.081103;0.36221;,
0.119769;0.362274;,
0.152705;0.46945;,
0.158899;0.36221;,
0.164817;0.459766;,
0.088304;0.480835;,
0.126709;0.470115;,
0.172047;0.563818;,
0.164817;0.459766;,
0.182724;0.545555;,
0.111891;0.585152;,
0.148491;0.564949;,
0.204792;0.633861;,
0.182724;0.545555;,
0.212466;0.60923;,
0.15755;0.662579;,
0.187165;0.635337;,
0.249004;0.67113;,
0.212466;0.60923;,
0.25184;0.643111;,
0.23;0.703777;,
0.242195;0.67279;,
0.297987;0.67113;,
0.25184;0.643111;,
0.295088;0.643111;,
0.316928;0.703777;,
0.30466;0.67279;,
0.342196;0.633861;,
0.295088;0.643111;,
0.334463;0.60923;,
0.389378;0.662579;,
0.359699;0.635337;,
0.374934;0.563819;,
0.334463;0.60923;,
0.364204;0.545555;,
0.435037;0.585152;,
0.398382;0.564949;,
0.394272;0.46945;,
0.364204;0.545555;,
0.382111;0.459766;,
0.458624;0.480835;,
0.420172;0.470115;,
0.400594;0.362139;,
0.382111;0.459766;,
0.388029;0.36221;,
0.465825;0.36221;,
0.427113;0.362275;,
0.388029;0.36221;,
0.382111;0.264654;,
0.364204;0.178864;,
0.382111;0.264654;,
0.36083;0.273716;,
0.345811;0.195839;,
0.420172;0.254433;,
0.398382;0.1596;,
0.334463;0.115189;,
0.364204;0.178864;,
0.321568;0.138036;,
0.359699;0.089211;,
0.295088;0.081308;,
0.334463;0.115189;,
0.290368;0.10728;,
0.30466;0.051759;,
0.25184;0.081308;,
0.295088;0.081308;,
0.256512;0.10728;,
0.242195;0.051759;,
0.212466;0.115189;,
0.25184;0.081308;,
0.225314;0.138036;,
0.187165;0.089212;,
0.182724;0.178864;,
0.212466;0.115189;,
0.201073;0.195839;,
0.148491;0.1596;,
0.164817;0.264654;,
0.182724;0.178864;,
0.186056;0.273716;,
0.126709;0.254433;,
0.158899;0.36221;,
0.164817;0.264654;,
0.181009;0.362274;,
0.119769;0.362274;,
0.164817;0.459766;,
0.158899;0.36221;,
0.186056;0.450833;,
0.126709;0.470115;,
0.182724;0.545555;,
0.164817;0.459766;,
0.201073;0.52871;,
0.148491;0.564949;,
0.212466;0.60923;,
0.182724;0.545555;,
0.225314;0.586512;,
0.187165;0.635337;,
0.25184;0.643111;,
0.212466;0.60923;,
0.256512;0.617269;,
0.242195;0.67279;,
0.295088;0.643111;,
0.25184;0.643111;,
0.290368;0.617269;,
0.30466;0.67279;,
0.334463;0.60923;,
0.295088;0.643111;,
0.321568;0.586513;,
0.359699;0.635337;,
0.364204;0.545555;,
0.334463;0.60923;,
0.345811;0.52871;,
0.398382;0.564949;,
0.382111;0.459766;,
0.364204;0.545555;,
0.36083;0.450833;,
0.420172;0.470115;,
0.388029;0.36221;,
0.382111;0.459766;,
0.365878;0.362275;,
0.427113;0.362275;,
0.382111;0.264654;,
0.388029;0.36221;,
0.166982;0.01779;,
0.380279;0.01779;,
0.400005;0.1746;,
0.146923;0.1746;,
-0.455256;0.362128;,
-0.455256;0.259502;,
-0.129342;0.240442;,
-0.129342;0.362209;,
0.166649;0.01779;,
0.379946;0.01779;,
0.400005;0.1746;,
0.146924;0.1746;,
1.00218;0.362128;,
1.00218;0.464754;,
0.676271;0.483978;,
0.676271;0.36221;,
-0.455256;0.066629;,
-0.129342;0.011593;,
0.078403;0.193163;,
-0.035534;0.219704;,
0.166649;0.01779;,
0.379946;0.01779;,
0.324896;0.219735;,
0.222033;0.219735;,
0.676271;0.011593;,
1.00218;0.066629;,
0.582463;0.219704;,
0.468525;0.193163;,
0.146923;0.011593;,
0.400005;0.011593;,
0.334409;0.193163;,
0.212359;0.193163;,
0.887462;0.01779;,
1.00218;0.1746;,
0.624972;0.274555;,
0.569647;0.219735;,
1.00218;0.259502;,
1.00218;0.362128;,
0.582463;0.36221;,
0.582463;0.312718;,
-0.411309;0.1746;,
-0.303495;0.01779;,
-0.004856;0.219735;,
-0.05685;0.274555;,
-0.455256;0.362209;,
-0.411309;0.240442;,
-0.05685;0.303526;,
-0.078043;0.362249;,
1.00218;0.657628;,
0.676271;0.712827;,
0.468525;0.531335;,
0.582463;0.504715;,
0.166982;0.01779;,
0.380279;0.01779;,
0.324896;0.219735;,
0.222033;0.219735;,
-0.129342;0.712827;,
-0.455256;0.657628;,
-0.035534;0.504715;,
0.078403;0.531335;,
0.400005;0.712827;,
0.146923;0.712827;,
0.212359;0.531335;,
0.334408;0.531335;,
0.887795;0.01779;,
1.00218;0.1746;,
0.624811;0.274555;,
0.569647;0.219735;,
-0.455256;0.464754;,
-0.455256;0.362128;,
-0.035534;0.36221;,
-0.035534;0.411701;,
-0.411309;0.1746;,
-0.303828;0.01779;,
-0.004856;0.219735;,
-0.056689;0.274555;,
1.00218;0.36221;,
0.958237;0.483978;,
0.603618;0.420972;,
0.624811;0.362249;,
0.526993;0.916718;,
0.526993;0.863171;,
0.09454;0.80673;,
0.526993;0.956462;,
0.09454;0.80673;,
0.526993;0.977609;,
0.09454;0.80673;,
0.526993;0.977609;,
0.09454;0.80673;,
0.526993;0.956462;,
0.09454;0.80673;,
0.526993;0.916718;,
0.09454;0.80673;,
0.526993;0.863171;,
0.09454;0.80673;,
0.526993;0.802279;,
0.09454;0.80673;,
0.526993;0.741388;,
0.09454;0.80673;,
0.526993;0.687841;,
0.09454;0.80673;,
0.526993;0.648097;,
0.09454;0.80673;,
0.526993;0.626949;,
0.09454;0.80673;,
0.526993;0.626949;,
0.09454;0.80673;,
0.526993;0.648097;,
0.09454;0.80673;,
0.526993;0.687841;,
0.09454;0.80673;,
0.526993;0.741388;,
0.09454;0.80673;,
0.526993;0.802279;,
0.09454;0.80673;,
0.09454;0.80673;,
0.931221;0.180277;,
0.91644;0.265436;,
0.955033;0.11707;,
0.985622;0.083438;,
-0.43865;0.083438;,
-0.471818;0.083438;,
-0.495045;0.043596;,
-0.408063;0.11707;,
-0.43865;0.083438;,
-0.384253;0.180277;,
-0.369474;0.265436;,
-0.3645;0.362274;,
-0.369474;0.265436;,
-0.369474;0.459113;,
-0.3645;0.362274;,
-0.384253;0.544272;,
-0.408063;0.607479;,
-0.43865;0.64111;,
-0.471818;0.641111;,
-0.43865;0.64111;,
0.955033;0.607479;,
0.985622;0.641111;,
0.931221;0.544272;,
0.91644;0.459113;,
0.911466;0.362275;,
0.91644;0.459113;,
0.911466;0.362275;,
0.952168;0.208823;,
0.9413;0.280594;,
0.969247;0.155552;,
0.990677;0.127207;,
-0.422318;0.155552;,
-0.443749;0.127207;,
-0.40524;0.208823;,
-0.394371;0.280594;,
-0.394371;0.443825;,
-0.390657;0.36221;,
-0.40524;0.515597;,
-0.422318;0.568867;,
-0.443749;0.597212;,
0.969247;0.568868;,
0.990677;0.597212;,
0.952168;0.515597;,
0.9413;0.443825;,
0.937586;0.36221;,
0.965809;0.237873;,
0.957751;0.296008;,
0.978322;0.194724;,
0.993856;0.171764;,
1.01047;0.171764;,
1.01369;0.127207;,
-0.431439;0.194724;,
-0.446974;0.171764;,
-0.418925;0.237873;,
-0.410867;0.296008;,
-0.408092;0.362116;,
-0.410867;0.428225;,
-0.418925;0.48636;,
-0.431439;0.529509;,
-0.446974;0.552469;,
0.993857;0.552469;,
1.01047;0.552469;,
1.01369;0.597212;,
0.978322;0.529509;,
0.965809;0.48636;,
0.957751;0.428225;,
0.954976;0.362117;,
0.205398;0.821851;,
0.21677;0.842159;,
0.256522;0.827246;,
0.237803;0.793817;,
0.187976;0.806778;,
0.209124;0.769006;,
0.166604;0.798758;,
0.173944;0.755804;,
0.14386;0.798758;,
0.136507;0.755804;,
0.122489;0.806778;,
0.101327;0.769006;,
0.105066;0.821851;,
0.072647;0.793817;,
0.093694;0.842159;,
0.053928;0.827246;,
0.089745;0.865252;,
0.047427;0.865259;,
0.093694;0.888345;,
0.053928;0.903272;,
0.105066;0.908653;,
0.072647;0.936701;,
0.122489;0.923726;,
0.101327;0.961512;,
0.14386;0.931746;,
0.136507;0.974714;,
0.166604;0.931746;,
0.173944;0.974714;,
0.187976;0.923726;,
0.209124;0.961512;,
0.205398;0.908653;,
0.237803;0.936701;,
0.21677;0.888345;,
0.256522;0.903272;,
0.220719;0.865252;,
0.263023;0.865259;,
0.194826;0.830981;,
0.203779;0.84697;,
0.21677;0.842159;,
0.205398;0.821851;,
0.181109;0.819114;,
0.187976;0.806778;,
0.164283;0.8128;,
0.166604;0.798758;,
0.146376;0.8128;,
0.14386;0.798758;,
0.12955;0.819114;,
0.122489;0.806778;,
0.115833;0.830981;,
0.105066;0.821851;,
0.10688;0.84697;,
0.093694;0.842159;,
0.10377;0.865152;,
0.089745;0.865252;,
0.10688;0.883333;,
0.093694;0.888345;,
0.115833;0.899322;,
0.105066;0.908653;,
0.12955;0.911189;,
0.122489;0.923726;,
0.146376;0.917504;,
0.14386;0.931746;,
0.164283;0.917504;,
0.166604;0.931746;,
0.181109;0.911189;,
0.187976;0.923726;,
0.194826;0.899322;,
0.205398;0.908653;,
0.203779;0.883333;,
0.21677;0.888345;,
0.206889;0.865152;,
0.220719;0.865252;,
0.155318;0.853997;,
0.155318;0.853997;,
0.203779;0.84697;,
0.194826;0.830981;,
0.155318;0.853997;,
0.181109;0.819114;,
0.155318;0.853997;,
0.164283;0.8128;,
0.155318;0.853997;,
0.146376;0.8128;,
0.155318;0.853997;,
0.12955;0.819114;,
0.155318;0.853997;,
0.115833;0.830981;,
0.155318;0.853997;,
0.10688;0.84697;,
0.155318;0.853997;,
0.10377;0.865152;,
0.155318;0.853997;,
0.10688;0.883333;,
0.155318;0.853997;,
0.115833;0.899322;,
0.155318;0.853997;,
0.12955;0.911189;,
0.155318;0.853997;,
0.146376;0.917504;,
0.155318;0.853997;,
0.164283;0.917504;,
0.155318;0.853997;,
0.181109;0.911189;,
0.155318;0.853997;,
0.194826;0.899322;,
0.155318;0.853997;,
0.203779;0.883333;,
0.155318;0.853997;,
0.206889;0.865152;;
}

MeshNormals{
761;
0.0;0.934246;-0.356628;,
0.0;0.934246;-0.356628;,
0.0;0.98168;-0.190537;,
0.0;0.98168;-0.190537;,
-0.920043;0.162226;-0.356657;,
-0.920043;0.162226;-0.356657;,
-0.966626;0.170439;-0.191272;,
-0.966626;0.170439;-0.191272;,
0.0;-0.934234;-0.35666;,
0.0;-0.934234;-0.35666;,
0.0;-0.981522;-0.19135;,
0.0;-0.981522;-0.19135;,
0.920048;-0.162233;-0.356639;,
0.920048;-0.162233;-0.356639;,
0.966747;-0.170471;-0.19063;,
0.966747;-0.170471;-0.19063;,
0.98455;-0.175103;0.000591;,
0.98455;-0.175103;0.000591;,
0.98455;-0.175103;0.000591;,
0.98455;-0.175103;0.000591;,
0.136728;0.740838;-0.65762;,
-0.13677;0.740917;-0.657523;,
-0.985239;-0.171185;-0.000919;,
-0.985239;-0.171185;-0.000919;,
-0.985239;-0.171185;-0.000919;,
-0.985239;-0.171185;-0.000919;,
0.0;-0.868444;0.495787;,
0.0;-0.868444;0.495787;,
0.10891;-0.911476;0.396674;,
-0.108891;-0.911417;0.396814;,
0.344225;0.938887;0.000941;,
0.344225;0.938887;0.000941;,
0.344225;0.938887;0.000941;,
0.344225;0.938887;0.000941;,
-0.706464;0.263489;-0.656873;,
-0.754078;-0.006007;-0.656757;,
-0.002167;-0.999997;-0.000795;,
-0.002167;-0.999997;-0.000795;,
-0.002167;-0.999997;-0.000795;,
-0.002167;-0.999997;-0.000795;,
0.855467;-0.150841;0.495403;,
0.855467;-0.150841;0.495403;,
0.916915;-0.051037;0.395806;,
0.87901;-0.265611;0.39597;,
-0.985065;0.172184;-0.000595;,
-0.985065;0.172184;-0.000595;,
-0.985065;0.172184;-0.000595;,
-0.985065;0.172184;-0.000595;,
-0.136867;-0.741641;-0.656686;,
0.136822;-0.74156;-0.656787;,
0.984369;0.176118;0.000921;,
0.984369;0.176118;0.000921;,
0.984369;0.176118;0.000921;,
0.984369;0.176118;0.000921;,
0.0;0.868685;0.495365;,
0.0;0.868685;0.495365;,
-0.108943;0.911821;0.39587;,
0.108963;0.91188;0.395729;,
-0.339821;-0.94049;-0.000937;,
-0.339821;-0.94049;-0.000937;,
-0.339821;-0.94049;-0.000937;,
-0.339821;-0.94049;-0.000937;,
0.705983;-0.263376;-0.657435;,
0.753388;0.006;-0.657549;,
-0.002156;0.999997;0.000792;,
-0.002156;0.999997;0.000792;,
-0.002156;0.999997;0.000792;,
-0.002156;0.999997;0.000792;,
-0.855265;0.150814;0.495758;,
-0.855265;0.150814;0.495758;,
-0.916511;0.051034;0.396741;,
-0.878755;0.265548;0.396579;,
0.939693;0.34202;0.0;,
0.939693;0.34202;0.0;,
0.766044;0.642788;0.0;,
0.766044;0.642788;0.0;,
0.5;0.866025;0.0;,
0.5;0.866025;0.0;,
0.173649;0.984808;0.0;,
0.173649;0.984808;0.0;,
0.173649;0.984808;0.0;,
0.173649;0.984808;0.0;,
-0.173649;0.984808;0.0;,
-0.173649;0.984808;0.0;,
-0.173649;0.984808;0.0;,
-0.173649;0.984808;0.0;,
-0.5;0.866025;0.0;,
-0.5;0.866025;0.0;,
-0.766044;0.642788;0.0;,
-0.766044;0.642788;0.0;,
-0.939693;0.34202;0.0;,
-0.939693;0.34202;0.0;,
-1.0;0.0;0.0;,
-1.0;0.0;0.0;,
-0.939693;-0.34202;0.0;,
-0.939693;-0.34202;0.0;,
-0.766044;-0.642789;0.0;,
-0.766044;-0.642789;0.0;,
-0.500001;-0.866025;0.0;,
-0.500001;-0.866025;0.0;,
-0.173649;-0.984808;0.0;,
-0.173649;-0.984808;0.0;,
-0.173649;-0.984808;0.0;,
-0.173649;-0.984808;0.0;,
0.173649;-0.984808;0.0;,
0.173649;-0.984808;0.0;,
0.173649;-0.984808;0.0;,
0.173649;-0.984808;0.0;,
0.5;-0.866025;0.0;,
0.5;-0.866025;0.0;,
0.766043;-0.642789;0.0;,
0.766043;-0.642789;0.0;,
0.939692;-0.342021;0.0;,
0.939692;-0.342021;0.0;,
1.0;0.0;0.0;,
1.0;0.0;0.0;,
-0.918311;-0.334236;0.212109;,
-0.748605;-0.628155;0.21216;,
-0.748605;-0.628155;0.21216;,
-0.918311;-0.334236;0.212109;,
-0.752944;-0.631796;-0.184142;,
-0.923632;-0.336173;-0.184097;,
-0.923632;-0.336173;-0.184097;,
-0.752944;-0.631796;-0.184142;,
-0.488619;-0.846314;0.212142;,
-0.488619;-0.846314;0.212142;,
-0.491451;-0.851218;-0.184128;,
-0.491451;-0.851218;-0.184128;,
-0.169698;-0.962411;0.212058;,
-0.169698;-0.962411;0.212058;,
-0.170681;-0.967984;-0.184054;,
-0.170681;-0.967984;-0.184054;,
-0.169698;-0.962411;0.212058;,
0.169708;-0.962439;0.211919;,
0.169708;-0.962439;0.211919;,
-0.169698;-0.962411;0.212058;,
0.170689;-0.968006;-0.18393;,
0.170689;-0.968006;-0.18393;,
0.169708;-0.962439;0.211919;,
0.488667;-0.846387;0.211739;,
0.488667;-0.846387;0.211739;,
0.169708;-0.962439;0.211919;,
0.491487;-0.851274;-0.183772;,
0.491487;-0.851274;-0.183772;,
0.74871;-0.628239;0.211541;,
0.74871;-0.628239;0.211541;,
0.753024;-0.63186;-0.183599;,
0.753024;-0.63186;-0.183599;,
0.918467;-0.334291;0.211349;,
0.918467;-0.334291;0.211349;,
0.923749;-0.336215;-0.183431;,
0.923749;-0.336215;-0.183431;,
0.977446;0.000003;0.211187;,
0.977446;0.000003;0.211187;,
0.983059;0.000002;-0.183288;,
0.983059;0.000002;-0.183288;,
0.918521;0.334316;0.211073;,
0.918521;0.334316;0.211073;,
0.923791;0.336233;-0.183188;,
0.923791;0.336233;-0.183188;,
0.748793;0.628314;0.211021;,
0.748793;0.628314;0.211021;,
0.753087;0.631916;-0.183143;,
0.753087;0.631916;-0.183143;,
0.488741;0.84652;0.211038;,
0.488741;0.84652;0.211038;,
0.491543;0.851374;-0.183158;,
0.491543;0.851374;-0.183158;,
0.169737;0.962609;0.211122;,
0.169737;0.962609;0.211122;,
0.170711;0.968134;-0.183231;,
0.170711;0.968134;-0.183231;,
-0.169726;0.962581;0.211261;,
-0.169726;0.962581;0.211261;,
-0.170702;0.968113;-0.183355;,
-0.170702;0.968113;-0.183355;,
-0.169726;0.962581;0.211261;,
-0.488692;0.846447;0.211441;,
-0.488692;0.846447;0.211441;,
-0.169726;0.962581;0.211261;,
-0.491506;0.85132;-0.183512;,
-0.491506;0.85132;-0.183512;,
-0.748689;0.628231;0.21164;,
-0.748689;0.628231;0.21164;,
-0.753008;0.631854;-0.183685;,
-0.753008;0.631854;-0.183685;,
-0.918366;0.334262;0.211833;,
-0.918366;0.334262;0.211833;,
-0.923673;0.336192;-0.183854;,
-0.923673;0.336192;-0.183854;,
-0.977271;0.000003;0.211995;,
-0.977271;0.000003;0.211995;,
-0.982927;0.000002;-0.183998;,
-0.982927;0.000002;-0.183998;,
0.939693;0.34202;0.000315;,
0.766044;0.642789;0.000346;,
0.764857;0.641793;0.055637;,
0.938237;0.34149;0.055633;,
0.766043;0.642789;-0.000341;,
0.939693;0.34202;-0.00031;,
0.938455;0.34157;-0.051305;,
0.765036;0.641943;-0.051268;,
0.500001;0.866025;0.000335;,
0.499226;0.864684;0.055635;,
0.500001;0.866025;-0.00033;,
0.499343;0.864885;-0.051281;,
0.17365;0.984807;0.000284;,
0.173381;0.983283;0.055628;,
0.17365;0.984807;-0.00028;,
0.173421;0.983509;-0.051339;,
0.17365;0.984807;0.000284;,
-0.17365;0.984807;0.000199;,
-0.17338;0.983283;0.055617;,
0.173381;0.983283;0.055628;,
-0.17365;0.984807;-0.000196;,
-0.173418;0.983504;-0.051435;,
-0.17365;0.984807;0.000199;,
-0.500001;0.866025;0.00009;,
-0.499227;0.864686;0.055601;,
-0.17338;0.983283;0.055617;,
-0.500001;0.866025;-0.000089;,
-0.499334;0.864874;-0.051556;,
-0.766044;0.642789;-0.00003;,
-0.764859;0.641795;0.055584;,
-0.766044;0.642789;0.00003;,
-0.765019;0.64193;-0.051693;,
-0.939692;0.342021;-0.000147;,
-0.938241;0.341492;0.055568;,
-0.939692;0.342021;0.000145;,
-0.938429;0.341562;-0.051825;,
-1.0;0.0;-0.000245;,
-0.998456;0.0;0.055554;,
-1.0;0.0;0.000242;,
-0.99865;0.000002;-0.051934;,
-0.939693;-0.34202;-0.000315;,
-0.938242;-0.341491;0.055544;,
-0.939693;-0.34202;0.00031;,
-0.938421;-0.341556;-0.052012;,
-0.766044;-0.642788;-0.000346;,
-0.764862;-0.641796;0.05554;,
-0.766044;-0.642788;0.000341;,
-0.765006;-0.641917;-0.052048;,
-0.500001;-0.866025;-0.000335;,
-0.499229;-0.864688;0.055541;,
-0.500001;-0.866025;0.000331;,
-0.499323;-0.864852;-0.052036;,
-0.17365;-0.984807;-0.000284;,
-0.173381;-0.983287;0.055549;,
-0.17365;-0.984807;0.00028;,
-0.173414;-0.983476;-0.051979;,
0.173648;-0.984808;-0.000198;,
0.17338;-0.983286;0.055561;,
0.173648;-0.984808;0.000196;,
0.173416;-0.983481;-0.051883;,
0.173648;-0.984808;-0.000198;,
0.499999;-0.866026;-0.000089;,
0.499226;-0.864687;0.055576;,
0.17338;-0.983286;0.055561;,
0.499999;-0.866026;0.000088;,
0.49933;-0.864864;-0.05176;,
0.766044;-0.642788;0.00003;,
0.764859;-0.641794;0.055592;,
0.766044;-0.642788;-0.00003;,
0.765023;-0.64193;-0.051626;,
0.939693;-0.34202;0.000147;,
0.938239;-0.34149;0.055609;,
0.939693;-0.34202;-0.000145;,
0.938447;-0.341565;-0.051494;,
1.0;0.0;0.000245;,
0.998452;0.0;0.055623;,
1.0;0.0;-0.000242;,
0.998679;0.000001;-0.051383;,
0.926718;0.337299;-0.165602;,
0.755473;0.633917;-0.165559;,
0.755473;0.633917;-0.165559;,
0.926718;0.337299;-0.165602;,
0.4931;0.854071;-0.165574;,
0.4931;0.854071;-0.165574;,
0.174027;0.921113;-0.348233;,
0.337439;0.927102;-0.163147;,
-0.174016;0.921071;-0.348348;,
-0.493068;0.854022;-0.16592;,
-0.493068;0.854022;-0.16592;,
-0.337426;0.927065;-0.163385;,
-0.755403;0.633862;-0.166091;,
-0.755403;0.633862;-0.166091;,
-0.876932;0.331299;-0.348184;,
-0.85434;0.493253;-0.163721;,
-0.937308;-0.011388;-0.348317;,
-0.926577;-0.337245;-0.166493;,
-0.926577;-0.337245;-0.166493;,
-0.971474;-0.171298;-0.163997;,
-0.755347;-0.633811;-0.166537;,
-0.755347;-0.633811;-0.166537;,
-0.493019;-0.853933;-0.166522;,
-0.493019;-0.853933;-0.166522;,
-0.173974;-0.921096;-0.348302;,
-0.33739;-0.926962;-0.164039;,
0.173983;-0.921138;-0.348188;,
0.49305;-0.853983;-0.166175;,
0.49305;-0.853983;-0.166175;,
0.337399;-0.927001;-0.163802;,
0.755417;-0.633867;-0.166005;,
0.755417;-0.633867;-0.166005;,
0.87686;-0.33131;-0.348353;,
0.854376;-0.493275;-0.163467;,
0.937343;0.011429;-0.34822;,
0.971606;0.171321;-0.16319;,
0.368027;0.308807;-0.877037;,
0.451566;0.164338;-0.876973;,
0.618996;0.288587;-0.730453;,
0.559381;0.391714;-0.730516;,
-0.882628;-0.321246;0.343174;,
-0.719503;-0.603732;0.343254;,
-0.719503;-0.603732;0.343254;,
-0.882628;-0.321246;0.343174;,
0.240224;0.4161;-0.877014;,
0.482897;0.482853;-0.730523;,
0.39167;0.559432;-0.7305;,
-0.469624;-0.813417;0.343229;,
-0.469624;-0.813417;0.343229;,
0.057438;0.622517;-0.780495;,
0.288641;0.618938;-0.730481;,
0.176727;0.659782;-0.73038;,
-0.108891;-0.911417;0.396814;,
-0.163102;-0.92503;0.343099;,
-0.057511;0.622701;-0.780343;,
0.05956;0.680485;-0.730338;,
-0.059635;0.68066;-0.730168;,
0.10891;-0.911476;0.396674;,
0.16313;-0.925105;0.342883;,
-0.240726;0.416871;-0.87651;,
-0.176826;0.660058;-0.730107;,
-0.288989;0.619476;-0.729887;,
0.469748;-0.813608;0.342605;,
0.469748;-0.813608;0.342605;,
-0.369134;0.309687;-0.876261;,
-0.39208;0.56004;-0.729814;,
-0.48369;0.483496;-0.729572;,
0.719773;-0.603949;0.342304;,
0.719773;-0.603949;0.342304;,
-0.604178;0.165034;-0.779572;,
-0.560243;0.392379;-0.729497;,
-0.620193;0.289025;-0.729263;,
0.87901;-0.265611;0.39597;,
0.883028;-0.321387;0.342011;,
-0.624415;0.051511;-0.779393;,
-0.660962;0.177212;-0.729195;,
-0.68193;0.059488;-0.728995;,
0.916915;-0.051037;0.395806;,
0.939788;0.000006;0.341759;,
-0.45378;-0.16518;-0.875671;,
-0.681981;-0.059536;-0.728942;,
-0.661346;-0.177392;-0.728803;,
0.88317;0.321452;0.341583;,
0.88317;0.321452;0.341583;,
-0.370017;-0.310486;-0.875606;,
-0.620667;-0.289252;-0.72877;,
-0.560876;-0.392942;-0.728707;,
0.719989;0.604144;0.341505;,
0.719989;0.604144;0.341505;,
-0.241504;-0.418275;-0.875627;,
-0.484369;-0.484129;-0.728701;,
-0.392658;-0.561057;-0.728721;,
0.469938;0.81395;0.341532;,
0.469938;0.81395;0.341532;,
-0.057713;-0.623979;-0.779307;,
-0.289566;-0.620555;-0.728741;,
-0.177071;-0.661386;-0.728845;,
0.108963;0.91188;0.395729;,
0.163205;0.925544;0.341661;,
0.057638;-0.623792;-0.779463;,
-0.059847;-0.682012;-0.728889;,
0.05977;-0.681833;-0.729062;,
-0.108943;0.911821;0.39587;,
-0.163176;0.925469;0.341878;,
0.240996;-0.417495;-0.876139;,
0.176969;-0.661106;-0.729124;,
0.289214;-0.620011;-0.729343;,
-0.469814;0.813761;0.342153;,
-0.469814;0.813761;0.342153;,
0.368908;-0.309603;-0.876386;,
0.392245;-0.560443;-0.729415;,
0.483575;-0.483485;-0.729656;,
-0.719718;0.603928;0.342456;,
-0.719718;0.603928;0.342456;,
0.603384;-0.164817;-0.780232;,
0.560012;-0.392276;-0.72973;,
0.619466;-0.288814;-0.729964;,
-0.878755;0.265548;0.396579;,
-0.882768;0.321312;0.342752;,
0.623141;-0.05154;-0.78041;,
0.660101;-0.176975;-0.730032;,
0.680604;-0.059517;-0.73023;,
-0.916511;0.051034;0.396741;,
-0.939335;0.000007;0.343002;,
0.680551;0.059469;-0.730283;,
0.659717;0.176794;-0.730422;,
0.67121;0.523534;-0.524776;,
0.78903;0.319524;-0.524725;,
0.858941;0.312712;-0.405501;,
0.7007;0.588042;-0.404014;,
0.934776;0.340232;-0.102158;,
0.762044;0.639432;-0.102055;,
0.451668;0.721535;-0.52477;,
0.632132;0.570094;-0.524787;,
0.457591;0.792662;-0.402863;,
0.497389;0.8615;-0.102091;,
0.17767;0.832572;-0.52465;,
0.399034;0.751949;-0.524733;,
0.158966;0.90165;-0.40219;,
0.172741;0.979645;-0.102256;,
-0.11781;0.843263;-0.524432;,
0.117788;0.843179;-0.524571;,
-0.158981;0.901696;-0.402081;,
-0.172731;0.979618;-0.10253;,
-0.39919;0.752283;-0.524135;,
-0.17775;0.832765;-0.524316;,
-0.457665;0.792779;-0.402547;,
-0.497344;0.861432;-0.102879;,
-0.632553;0.570536;-0.523799;,
-0.451974;0.721904;-0.523998;,
-0.700866;0.588176;-0.403529;,
-0.761946;0.639354;-0.10327;,
-0.789722;0.319879;-0.523466;,
-0.671801;0.523894;-0.523659;,
-0.85919;0.312801;-0.404906;,
-0.934631;0.340181;-0.103647;,
-0.851678;0.030515;-0.523176;,
-0.810662;0.262575;-0.523338;,
-0.913647;0.000083;-0.406508;,
-0.994581;0.000003;-0.103961;,
-0.810884;-0.262642;-0.522959;,
-0.85174;-0.030542;-0.523074;,
-0.857891;-0.312162;-0.408139;,
-0.934579;-0.340157;-0.104184;,
-0.672214;-0.524174;-0.522849;,
-0.790024;-0.320057;-0.522901;,
-0.698877;-0.586341;-0.409603;,
-0.761868;-0.639283;-0.104285;,
-0.452397;-0.722469;-0.522853;,
-0.632944;-0.570987;-0.522835;,
-0.455916;-0.789583;-0.41073;,
-0.497276;-0.861306;-0.104251;,
-0.177998;-0.833555;-0.522975;,
-0.399474;-0.752998;-0.52289;,
-0.15829;-0.897611;-0.411387;,
-0.172704;-0.979459;-0.104089;,
0.11782;-0.844027;-0.523199;,
-0.117842;-0.844111;-0.523058;,
0.158275;-0.897563;-0.411497;,
0.172713;-0.979486;-0.103813;,
0.399317;-0.752661;-0.523495;,
0.177915;-0.833359;-0.523315;,
0.45584;-0.789463;-0.411046;,
0.497319;-0.861377;-0.103461;,
0.632522;-0.570543;-0.523828;,
0.45209;-0.722098;-0.523631;,
0.698708;-0.586204;-0.410088;,
0.761966;-0.639362;-0.103076;,
0.789332;-0.319704;-0.52416;,
0.671622;-0.523813;-0.523968;,
0.857641;-0.312073;-0.408732;,
0.934725;-0.340208;-0.1027;,
0.850896;-0.03043;-0.524452;,
0.81008;-0.262472;-0.524289;,
0.913366;0.000083;-0.40714;,
0.994745;0.000002;-0.102382;,
0.809859;0.262404;-0.524664;,
0.850836;0.030402;-0.524551;,
0.0;0.976731;0.214469;,
0.0;0.976731;0.214469;,
0.0;0.976731;0.214469;,
0.0;0.976731;0.214469;,
-0.961772;0.169587;0.215023;,
-0.961772;0.169587;0.215023;,
-0.961772;0.169587;0.215023;,
-0.961772;0.169587;0.215023;,
0.0;-0.976597;0.215077;,
0.0;-0.976597;0.215077;,
0.0;-0.976597;0.215077;,
0.0;-0.976597;0.215077;,
0.961881;-0.169607;0.214519;,
0.961881;-0.169607;0.214519;,
0.961881;-0.169607;0.214519;,
0.961881;-0.169607;0.214519;,
-0.984761;-0.173912;0.000342;,
-0.984761;-0.173912;0.000342;,
-0.984761;-0.173912;0.000342;,
-0.984761;-0.173912;0.000342;,
0.0;-0.933332;0.359014;,
0.0;-0.933332;0.359014;,
0.0;-0.933332;0.359014;,
0.0;-0.933332;0.359014;,
0.984846;-0.173431;-0.000232;,
0.984846;-0.173431;-0.000232;,
0.984846;-0.173431;-0.000232;,
0.984846;-0.173431;-0.000232;,
0.0;0.803008;-0.595968;,
0.0;0.803008;-0.595968;,
0.0;0.96521;-0.261475;,
0.0;0.96521;-0.261475;,
0.000231;-1.0;0.000295;,
0.000231;-1.0;0.000295;,
0.000231;-1.0;0.000295;,
0.000231;-1.0;0.000295;,
0.919252;-0.1621;0.358747;,
0.919252;-0.1621;0.358747;,
0.919252;-0.1621;0.358747;,
0.919252;-0.1621;0.358747;,
0.341691;0.939812;-0.000369;,
0.341691;0.939812;-0.000369;,
0.341691;0.939812;-0.000369;,
0.341691;0.939812;-0.000369;,
-0.790893;0.139449;-0.595854;,
-0.790893;0.139449;-0.595854;,
-0.950607;0.167614;-0.261252;,
-0.950607;0.167614;-0.261252;,
0.984854;0.173383;-0.000343;,
0.984854;0.173383;-0.000343;,
0.984854;0.173383;-0.000343;,
0.984854;0.173383;-0.000343;,
0.0;0.933446;0.358717;,
0.0;0.933446;0.358717;,
0.0;0.933446;0.358717;,
0.0;0.933446;0.358717;,
-0.98477;0.173864;0.000231;,
-0.98477;0.173864;0.000231;,
-0.98477;0.173864;0.000231;,
-0.98477;0.173864;0.000231;,
0.0;-0.803102;-0.595841;,
0.0;-0.803102;-0.595841;,
0.0;-0.965277;-0.261228;,
0.0;-0.965277;-0.261228;,
0.000232;1.0;-0.000295;,
0.000232;1.0;-0.000295;,
0.000232;1.0;-0.000295;,
0.000232;1.0;-0.000295;,
-0.919165;0.162068;0.358985;,
-0.919165;0.162068;0.358985;,
-0.919165;0.162068;0.358985;,
-0.919165;0.162068;0.358985;,
-0.342348;-0.939573;0.000368;,
-0.342348;-0.939573;0.000368;,
-0.342348;-0.939573;0.000368;,
-0.342348;-0.939573;0.000368;,
0.790818;-0.139448;-0.595954;,
0.790818;-0.139448;-0.595954;,
0.950553;-0.167611;-0.26145;,
0.950553;-0.167611;-0.26145;,
0.7007;0.588042;-0.404014;,
0.858941;0.312712;-0.405501;,
0.722601;0.418496;-0.550189;,
0.457591;0.792662;-0.402863;,
0.537092;0.641383;-0.547868;,
0.158966;0.90165;-0.40219;,
0.286044;0.7872;-0.546348;,
-0.158981;0.901696;-0.402081;,
0.0;0.837904;-0.545818;,
-0.457665;0.792779;-0.402547;,
-0.286044;0.7872;-0.546347;,
-0.700866;0.588176;-0.403529;,
-0.537092;0.641383;-0.547868;,
-0.85919;0.312801;-0.404906;,
-0.722601;0.418496;-0.550189;,
-0.913647;0.000083;-0.406508;,
-0.820286;0.145942;-0.553021;,
-0.857891;-0.312162;-0.408139;,
-0.818765;-0.143065;-0.556018;,
-0.698877;-0.586341;-0.409603;,
-0.718752;-0.413665;-0.558817;,
-0.455916;-0.789583;-0.41073;,
-0.532715;-0.633558;-0.561087;,
-0.15829;-0.897611;-0.411387;,
-0.283187;-0.776742;-0.562563;,
0.158275;-0.897563;-0.411497;,
0.0;-0.826406;-0.563075;,
0.45584;-0.789463;-0.411046;,
0.283187;-0.776742;-0.562563;,
0.698708;-0.586204;-0.410088;,
0.532715;-0.633558;-0.561087;,
0.857641;-0.312073;-0.408732;,
0.718752;-0.413666;-0.558817;,
0.913366;0.000083;-0.40714;,
0.818765;-0.143066;-0.556018;,
0.820286;0.145942;-0.553021;,
0.750584;0.629815;0.199893;,
0.92072;0.335116;0.199928;,
0.489908;0.848545;0.199905;,
0.226433;0.959071;0.170033;,
-0.180806;0.98319;-0.025439;,
0.180809;0.983186;-0.025543;,
0.173381;0.983283;0.055628;,
-0.489876;0.848496;0.200187;,
-0.226424;0.95905;0.170165;,
-0.750514;0.629761;0.200326;,
-0.905116;0.389498;0.170457;,
-0.999659;-0.007318;-0.025058;,
-0.936866;0.34878;-0.025176;,
-0.920582;-0.335063;0.200653;,
-0.983721;-0.056436;0.170608;,
-0.750459;-0.62971;0.20069;,
-0.489828;-0.848408;0.200678;,
-0.226399;-0.95897;0.170643;,
0.180796;-0.9832;-0.02513;,
-0.180794;-0.983202;-0.025026;,
0.489859;-0.848458;0.200394;,
0.226405;-0.958992;0.170512;,
0.750529;-0.629765;0.200256;,
0.905153;-0.389516;0.170221;,
0.999648;0.007331;-0.025511;,
0.936858;-0.348787;-0.025391;,
0.983814;0.05645;0.170068;,
0.718664;0.603032;0.346228;,
0.881547;0.320862;0.346298;,
0.469073;0.812453;0.346251;,
0.216772;0.905364;0.365137;,
-0.468963;0.812284;0.346796;,
-0.216739;0.905271;0.365388;,
-0.718422;0.60284;0.347064;,
-0.853587;0.370547;0.366176;,
-0.881064;-0.320677;0.347695;,
-0.928731;-0.056236;0.366466;,
-0.71823;-0.602666;0.347764;,
-0.468794;-0.811979;0.34774;,
-0.216649;-0.904821;0.366554;,
0.468903;-0.812148;0.347197;,
0.21668;-0.904915;0.366305;,
0.718472;-0.602858;0.34693;,
0.853834;-0.370625;0.36552;,
0.929216;0.056264;0.365229;,
0.700835;0.588072;0.403734;,
0.859663;0.312898;0.403824;,
0.457436;0.792293;0.403762;,
0.158861;0.900901;0.403907;,
-0.158825;0.900798;0.40415;,
-0.216739;0.905271;0.365388;,
-0.457268;0.792034;0.40446;,
-0.158825;0.900798;0.40415;,
-0.700467;0.587779;0.4048;,
-0.859118;0.312707;0.405131;,
-0.914134;0.000009;0.405413;,
-0.858925;-0.312618;0.405609;,
-0.700172;-0.587512;0.405694;,
-0.457009;-0.791569;0.405662;,
-0.158722;-0.9002;0.40552;,
0.158757;-0.900302;0.40528;,
-0.158722;-0.9002;0.40552;,
-0.216649;-0.904821;0.366554;,
0.457175;-0.791826;0.404971;,
0.700541;-0.587806;0.404631;,
0.859471;-0.31281;0.4043;,
0.91475;0.000009;0.40402;,
-0.731786;-0.614041;0.295708;,
-0.897667;-0.326724;0.295713;,
-0.897667;-0.326724;0.295713;,
-0.731786;-0.614041;0.295708;,
-0.477639;-0.827295;0.29571;,
-0.477639;-0.827295;0.29571;,
-0.165881;-0.940762;0.295719;,
-0.165881;-0.940762;0.295719;,
0.165881;-0.940758;0.295734;,
0.165881;-0.940758;0.295734;,
0.477633;-0.827283;0.295753;,
0.477633;-0.827283;0.295753;,
0.73177;-0.614028;0.295773;,
0.73177;-0.614028;0.295773;,
0.897643;-0.326716;0.295793;,
0.897643;-0.326716;0.295793;,
0.955247;0.0;0.29581;,
0.955247;0.0;0.29581;,
0.897636;0.32671;0.295822;,
0.897636;0.32671;0.295822;,
0.731758;0.614016;0.295828;,
0.731758;0.614016;0.295828;,
0.477621;0.827264;0.295826;,
0.477621;0.827264;0.295826;,
0.165876;0.940732;0.295817;,
0.165876;0.940732;0.295817;,
-0.165878;0.940737;0.295802;,
-0.165878;0.940737;0.295802;,
-0.477629;0.827274;0.295783;,
-0.477629;0.827274;0.295783;,
-0.731773;0.61403;0.295763;,
-0.731773;0.61403;0.295763;,
-0.897658;0.326722;0.295742;,
-0.897658;0.326722;0.295742;,
-0.955273;0.0;0.295725;,
-0.955273;0.0;0.295725;,
0.764211;0.641248;0.069158;,
0.937438;0.341202;0.06922;,
0.937438;0.341202;0.06922;,
0.764211;0.641248;0.069158;,
0.498804;0.86395;0.069178;,
0.498804;0.86395;0.069178;,
0.173231;0.982442;0.069279;,
0.173231;0.982442;0.069279;,
-0.173228;0.98243;0.069447;,
-0.173228;0.98243;0.069447;,
-0.498784;0.863922;0.069664;,
-0.498784;0.863922;0.069664;,
-0.76417;0.641217;0.069901;,
-0.76417;0.641217;0.069901;,
-0.937378;0.34118;0.070132;,
-0.937378;0.34118;0.070132;,
-0.997524;0.000001;0.070327;,
-0.997524;0.000001;0.070327;,
-0.937357;-0.341168;0.070464;,
-0.937357;-0.341168;0.070464;,
-0.764137;-0.641187;0.070526;,
-0.764137;-0.641187;0.070526;,
-0.498754;-0.863871;0.070505;,
-0.498754;-0.863871;0.070505;,
-0.173216;-0.982364;0.070405;,
-0.173216;-0.982364;0.070405;,
0.17322;-0.982376;0.070237;,
0.17322;-0.982376;0.070237;,
0.498774;-0.863899;0.07002;,
0.498774;-0.863899;0.07002;,
0.764177;-0.64122;0.069782;,
0.764177;-0.64122;0.069782;,
0.937417;-0.341193;0.069551;,
0.937417;-0.341193;0.069551;,
0.997592;0.000001;0.069356;,
0.997592;0.000001;0.069356;,
-0.757826;-0.636039;0.145442;,
-0.928164;-0.337988;0.155806;,
-0.928164;-0.337988;0.155806;,
-0.757826;-0.636039;0.145442;,
-0.495176;-0.857808;0.137715;,
-0.495176;-0.857808;0.137715;,
-0.172069;-0.975985;0.133585;,
-0.172069;-0.975985;0.133585;,
0.172071;-0.975987;0.133573;,
0.172071;-0.975987;0.133573;,
0.495177;-0.857814;0.137677;,
0.495177;-0.857814;0.137677;,
0.75783;-0.636048;0.145386;,
0.75783;-0.636048;0.145386;,
0.928174;-0.337991;0.155737;,
0.928174;-0.337991;0.155737;,
0.98588;-0.000175;0.167452;,
0.98588;-0.000175;0.167452;,
0.924558;0.336325;0.179102;,
0.924558;0.336325;0.179102;,
0.752292;0.631051;0.189291;,
0.752292;0.631051;0.189291;,
0.490304;0.849037;0.19682;,
0.490304;0.849037;0.19682;,
0.170143;0.96474;0.200819;,
0.170143;0.96474;0.200819;,
-0.170142;0.964737;0.200831;,
-0.170142;0.964737;0.200831;,
-0.4903;0.849031;0.196856;,
-0.4903;0.849031;0.196856;,
-0.752283;0.631045;0.189346;,
-0.752283;0.631045;0.189346;,
-0.924546;0.336321;0.17917;,
-0.924546;0.336321;0.17917;,
-0.985868;-0.000175;0.167525;,
-0.985868;-0.000175;0.167525;;

338;
4;0,1,2,3;,
4;4,5,6,7;,
4;8,9,10,11;,
4;12,13,14,15;,
4;16,17,18,19;,
4;1,0,20,21;,
4;22,23,24,25;,
4;26,27,28,29;,
4;30,31,32,33;,
4;5,4,34,35;,
4;36,37,38,39;,
4;40,41,42,43;,
4;44,45,46,47;,
4;9,8,48,49;,
4;50,51,52,53;,
4;54,55,56,57;,
4;58,59,60,61;,
4;13,12,62,63;,
4;64,65,66,67;,
4;68,69,70,71;,
4;72,73,74,75;,
4;75,74,76,77;,
4;77,76,78,79;,
4;80,81,82,83;,
4;84,85,86,87;,
4;87,86,88,89;,
4;89,88,90,91;,
4;91,90,92,93;,
4;93,92,94,95;,
4;95,94,96,97;,
4;97,96,98,99;,
4;99,98,100,101;,
4;102,103,104,105;,
4;106,107,108,109;,
4;109,108,110,111;,
4;111,110,112,113;,
4;113,112,114,115;,
4;115,114,73,72;,
4;116,117,118,119;,
4;120,121,122,123;,
4;117,124,125,118;,
4;126,120,123,127;,
4;124,128,129,125;,
4;130,126,127,131;,
4;132,133,134,135;,
4;136,130,131,137;,
4;138,139,140,141;,
4;142,136,137,143;,
4;139,144,145,140;,
4;146,142,143,147;,
4;144,148,149,145;,
4;150,146,147,151;,
4;148,152,153,149;,
4;154,150,151,155;,
4;152,156,157,153;,
4;158,154,155,159;,
4;156,160,161,157;,
4;162,158,159,163;,
4;160,164,165,161;,
4;166,162,163,167;,
4;164,168,169,165;,
4;170,166,167,171;,
4;168,172,173,169;,
4;174,170,171,175;,
4;176,177,178,179;,
4;180,174,175,181;,
4;177,182,183,178;,
4;184,180,181,185;,
4;182,186,187,183;,
4;188,184,185,189;,
4;186,190,191,187;,
4;192,188,189,193;,
4;190,116,119,191;,
4;121,192,193,122;,
4;194,195,196,197;,
4;198,199,200,201;,
4;195,202,203,196;,
4;204,198,201,205;,
4;202,206,207,203;,
4;208,204,205,209;,
4;210,211,212,213;,
4;214,208,209,215;,
4;216,217,218,219;,
4;220,214,215,221;,
4;217,222,223,218;,
4;224,220,221,225;,
4;222,226,227,223;,
4;228,224,225,229;,
4;226,230,231,227;,
4;232,228,229,233;,
4;230,234,235,231;,
4;236,232,233,237;,
4;234,238,239,235;,
4;240,236,237,241;,
4;238,242,243,239;,
4;244,240,241,245;,
4;242,246,247,243;,
4;248,244,245,249;,
4;246,250,251,247;,
4;252,248,249,253;,
4;254,255,256,257;,
4;258,252,253,259;,
4;255,260,261,256;,
4;262,258,259,263;,
4;260,264,265,261;,
4;266,262,263,267;,
4;264,268,269,265;,
4;270,266,267,271;,
4;268,194,197,269;,
4;199,270,271,200;,
4;272,273,274,275;,
4;273,276,277,274;,
4;276,278,279,277;,
4;280,281,282,283;,
4;281,284,285,282;,
4;284,286,287,285;,
4;288,289,290,291;,
4;289,292,293,290;,
4;292,294,295,293;,
4;294,296,297,295;,
4;298,299,300,301;,
4;299,302,303,300;,
4;302,304,305,303;,
4;306,272,275,307;,
4;308,309,310,311;,
4;312,313,314,315;,
4;316,308,317,318;,
4;313,319,320,314;,
4;321,316,322,323;,
4;319,324,325,320;,
4;326,321,327,328;,
4;324,329,330,325;,
4;331,326,332,333;,
4;329,334,335,330;,
4;336,331,337,338;,
4;334,339,340,335;,
4;341,336,342,343;,
4;339,344,345,340;,
4;346,341,347,348;,
4;344,349,350,345;,
4;351,346,352,353;,
4;349,354,355,350;,
4;356,351,357,358;,
4;354,359,360,355;,
4;361,356,362,363;,
4;359,364,365,360;,
4;366,361,367,368;,
4;364,369,370,365;,
4;371,366,372,373;,
4;369,374,375,370;,
4;376,371,377,378;,
4;374,379,380,375;,
4;381,376,382,383;,
4;379,384,385,380;,
4;386,381,387,388;,
4;384,389,390,385;,
4;391,386,392,393;,
4;389,394,395,390;,
4;309,391,396,397;,
4;394,312,315,395;,
4;398,399,400,401;,
4;402,403,201,200;,
4;404,405,401,406;,
4;403,407,205,201;,
4;408,409,406,410;,
4;407,411,209,205;,
4;412,413,410,414;,
4;411,415,215,209;,
4;416,417,414,418;,
4;415,419,221,215;,
4;420,421,418,422;,
4;419,423,225,221;,
4;424,425,422,426;,
4;423,427,229,225;,
4;428,429,426,430;,
4;427,431,233,229;,
4;432,433,430,434;,
4;431,435,237,233;,
4;436,437,434,438;,
4;435,439,241,237;,
4;440,441,438,442;,
4;439,443,245,241;,
4;444,445,442,446;,
4;443,447,249,245;,
4;448,449,446,450;,
4;447,451,253,249;,
4;452,453,450,454;,
4;451,455,259,253;,
4;456,457,454,458;,
4;455,459,263,259;,
4;460,461,458,462;,
4;459,463,267,263;,
4;464,465,462,466;,
4;463,467,271,267;,
4;468,469,466,400;,
4;467,402,200,271;,
4;470,471,472,473;,
4;474,475,476,477;,
4;478,479,480,481;,
4;482,483,484,485;,
4;486,487,488,489;,
4;490,491,492,493;,
4;494,495,496,497;,
4;498,499,500,501;,
4;502,503,504,505;,
4;506,507,508,509;,
4;510,511,512,513;,
4;514,515,516,517;,
4;518,519,520,521;,
4;522,523,524,525;,
4;526,527,528,529;,
4;530,531,532,533;,
4;534,535,536,537;,
4;538,539,540,541;,
4;542,543,544,545;,
4;546,547,548,549;,
3;550,551,552;,
3;553,550,554;,
3;555,553,556;,
3;557,555,558;,
3;559,557,560;,
3;561,559,562;,
3;563,561,564;,
3;565,563,566;,
3;567,565,568;,
3;569,567,570;,
3;571,569,572;,
3;573,571,574;,
3;575,573,576;,
3;577,575,578;,
3;579,577,580;,
3;581,579,582;,
3;583,581,584;,
3;551,583,585;,
4;586,587,197,196;,
4;588,586,196,203;,
4;589,588,203,207;,
4;590,591,592,219;,
4;593,594,219,218;,
4;595,593,218,223;,
4;596,595,223,227;,
4;597,598,227,231;,
4;599,600,231,235;,
4;601,599,235,239;,
4;602,601,239,243;,
4;603,602,243,247;,
4;604,605,247,251;,
4;606,607,257,256;,
4;608,606,256,261;,
4;609,608,261,265;,
4;610,611,265,269;,
4;587,612,269,197;,
4;613,614,587,586;,
4;615,613,586,588;,
4;616,615,588,589;,
4;617,618,594,593;,
4;619,617,593,595;,
4;620,619,595,596;,
4;621,622,600,599;,
4;623,621,599,601;,
4;624,623,601,602;,
4;625,624,602,603;,
4;626,627,607,606;,
4;628,626,606,608;,
4;629,628,608,609;,
4;614,630,612,587;,
4;631,632,614,613;,
4;633,631,613,615;,
4;634,633,615,616;,
4;635,634,616,636;,
4;637,638,618,617;,
4;639,637,617,619;,
4;640,639,619,620;,
4;641,640,620,622;,
4;642,641,622,621;,
4;643,642,621,623;,
4;644,643,623,624;,
4;645,644,624,625;,
4;646,647,648,627;,
4;649,646,627,626;,
4;650,649,626,628;,
4;651,650,628,629;,
4;652,651,629,630;,
4;632,652,630,614;,
4;653,654,655,656;,
4;657,653,656,658;,
4;659,657,658,660;,
4;661,659,660,662;,
4;663,661,662,664;,
4;665,663,664,666;,
4;667,665,666,668;,
4;669,667,668,670;,
4;671,669,670,672;,
4;673,671,672,674;,
4;675,673,674,676;,
4;677,675,676,678;,
4;679,677,678,680;,
4;681,679,680,682;,
4;683,681,682,684;,
4;685,683,684,686;,
4;687,685,686,688;,
4;654,687,688,655;,
4;689,690,691,692;,
4;693,689,692,694;,
4;695,693,694,696;,
4;697,695,696,698;,
4;699,697,698,700;,
4;701,699,700,702;,
4;703,701,702,704;,
4;705,703,704,706;,
4;707,705,706,708;,
4;709,707,708,710;,
4;711,709,710,712;,
4;713,711,712,714;,
4;715,713,714,716;,
4;717,715,716,718;,
4;719,717,718,720;,
4;721,719,720,722;,
4;723,721,722,724;,
4;690,723,724,691;,
4;725,726,727,728;,
4;729,725,728,730;,
4;731,729,730,732;,
4;733,731,732,734;,
4;735,733,734,736;,
4;737,735,736,738;,
4;739,737,738,740;,
4;741,739,740,742;,
4;743,741,742,744;,
4;745,743,744,746;,
4;747,745,746,748;,
4;749,747,748,750;,
4;751,749,750,752;,
4;753,751,752,754;,
4;755,753,754,756;,
4;757,755,756,758;,
4;759,757,758,760;,
4;726,759,760,727;;
}


}

}

}
