xof 0302txt 0064

// Created by AC3D 6.4.30 <TRIAL> ( www.inivis.com )
// Export Plugin : 'DirectX.p' v1.9 by Frank Meinert


Material MatTex_1_1 {
  1.0; 1.0; 1.0; 1.0;;
  128.0;
  0.2; 0.2; 0.2;;
  0.0; 0.0; 0.0;;
  TextureFileName { "black hole flare.png"; }
}


Frame WORLD {

FrameTransformMatrix {
  1.0, 0.0, 0.0, 0.0,
  0.0, 1.0, 0.0, 0.0,
  0.0, 0.0, 1.0, 0.0,
  0.0, 0.0, 0.0, 1.0;;
}

Frame disk {

FrameTransformMatrix {
  1.0, 0.0, 0.0, 0.0,
  0.0, 1.0, 0.0, 0.0,
  0.0, 0.0, 1.0, 0.0,
  0.0, 4.79221, 0.0, 1.0;;
}

Mesh disk {
206;
38.7982;-0.86772;22.3997;,
44.8003;-0.86772;-0.000279;,
56.0;0.0;0.0;,
48.4974;0.0;28.0;,
48.4974;0.0;28.0;,
56.0;0.0;0.0;,
44.8003;-0.86772;-0.000279;,
38.7982;-0.86772;22.3997;,
22.4003;-0.86772;38.7976;,
28.0;0.0;48.4974;,
28.0;0.0;48.4974;,
22.4003;-0.86772;38.7976;,
0.00029;-0.86772;44.7997;,
0.000013;0.0;56.0;,
0.000013;0.0;56.0;,
0.00029;-0.86772;44.7997;,
-22.3997;-0.86772;38.7976;,
0.00029;-0.86772;44.7997;,
0.000013;0.0;56.0;,
-28.0;0.0;48.4974;,
-28.0;0.0;48.4974;,
0.000013;0.0;56.0;,
0.00029;-0.86772;44.7997;,
-22.3997;-0.86772;38.7976;,
-38.7976;-0.86772;22.3997;,
-48.4974;0.0;28.0;,
-48.4974;0.0;28.0;,
-38.7976;-0.86772;22.3997;,
-44.7997;-0.86772;-0.000272;,
-56.0;0.0;0.000009;,
-56.0;0.0;0.000009;,
-44.7997;-0.86772;-0.000272;,
-38.7976;-0.86772;-22.4003;,
-48.4974;0.0;-28.0;,
-48.4974;0.0;-28.0;,
-38.7976;-0.86772;-22.4003;,
-22.3997;-0.86772;-38.7982;,
-28.0;0.0;-48.4974;,
-28.0;0.0;-48.4974;,
-22.3997;-0.86772;-38.7982;,
0.000275;-0.86772;-44.8003;,
-0.000004;0.0;-56.0;,
-0.000004;0.0;-56.0;,
0.000275;-0.86772;-44.8003;,
22.4003;-0.86772;-38.7982;,
28.0;0.0;-48.4974;,
28.0;0.0;-48.4974;,
22.4003;-0.86772;-38.7982;,
38.7982;-0.86772;-22.4003;,
48.4974;0.0;-28.0;,
48.4974;0.0;-28.0;,
38.7982;-0.86772;-22.4003;,
24.8312;-1.79371;14.3354;,
28.6726;-1.79371;-0.000558;,
28.6726;-1.79371;-0.000558;,
24.8312;-1.79371;14.3354;,
14.3366;-1.79371;24.8301;,
14.3366;-1.79371;24.8301;,
0.000565;-1.79371;28.6714;,
0.000565;-1.79371;28.6714;,
-14.3354;-1.79371;24.8301;,
0.000565;-1.79371;28.6714;,
0.000565;-1.79371;28.6714;,
-14.3354;-1.79371;24.8301;,
-24.8301;-1.79371;14.3354;,
-24.8301;-1.79371;14.3354;,
-28.6714;-1.79371;-0.000554;,
-28.6714;-1.79371;-0.000554;,
-24.8301;-1.79371;-14.3366;,
-24.8301;-1.79371;-14.3366;,
-14.3354;-1.79371;-24.8312;,
-14.3354;-1.79371;-24.8312;,
0.000555;-1.79371;-28.6726;,
0.000555;-1.79371;-28.6726;,
14.3366;-1.79371;-24.8312;,
14.3366;-1.79371;-24.8312;,
24.8312;-1.79371;-14.3366;,
24.8312;-1.79371;-14.3366;,
12.7142;-3.16288;7.33919;,
14.6809;-3.16288;-0.000837;,
14.6809;-3.16288;-0.000837;,
12.7142;-3.16288;7.33919;,
7.34087;-3.16288;12.7125;,
7.34087;-3.16288;12.7125;,
0.00084;-3.16288;14.6792;,
0.00084;-3.16288;14.6792;,
-7.33919;-3.16288;12.7125;,
0.00084;-3.16288;14.6792;,
0.00084;-3.16288;14.6792;,
-7.33919;-3.16288;12.7125;,
-12.7125;-3.16288;7.33919;,
-12.7125;-3.16288;7.33919;,
-14.6792;-3.16288;-0.000834;,
-14.6792;-3.16288;-0.000834;,
-12.7125;-3.16288;-7.34087;,
-12.7125;-3.16288;-7.34087;,
-7.33919;-3.16288;-12.7142;,
-7.33919;-3.16288;-12.7142;,
0.000836;-3.16288;-14.6809;,
0.000836;-3.16288;-14.6809;,
7.34087;-3.16288;-12.7142;,
7.34087;-3.16288;-12.7142;,
12.7142;-3.16288;-7.34087;,
12.7142;-3.16288;-7.34087;,
8.13764;-4.96908;4.6965;,
9.39635;-4.96908;-0.001116;,
9.39635;-4.96908;-0.001116;,
8.13764;-4.96908;4.6965;,
4.69874;-4.96908;8.1354;,
4.69874;-4.96908;8.1354;,
0.001119;-4.96908;9.39414;,
0.001119;-4.96908;9.39414;,
-4.6965;-4.96908;8.1354;,
0.001119;-4.96908;9.39414;,
0.001119;-4.96908;9.39414;,
-4.6965;-4.96908;8.1354;,
-8.1354;-4.96908;4.6965;,
-8.1354;-4.96908;4.6965;,
-9.39414;-4.96908;-0.001115;,
-9.39414;-4.96908;-0.001115;,
-8.1354;-4.96908;-4.69874;,
-8.1354;-4.96908;-4.69874;,
-4.6965;-4.96908;-8.13764;,
-4.6965;-4.96908;-8.13764;,
0.001116;-4.96908;-9.39635;,
0.001116;-4.96908;-9.39635;,
4.69874;-4.96908;-8.13764;,
4.69874;-4.96908;-8.13764;,
8.13764;-4.96908;-4.69874;,
8.13764;-4.96908;-4.69874;,
5.20878;-7.62026;3.00507;,
6.01434;-7.62026;-0.001396;,
6.01434;-7.62026;-0.001396;,
5.20878;-7.62026;3.00507;,
3.00787;-7.62026;5.20598;,
3.00787;-7.62026;5.20598;,
0.001398;-7.62026;6.01157;,
0.001398;-7.62026;6.01157;,
-3.00507;-7.62026;5.20598;,
0.001398;-7.62026;6.01157;,
0.001398;-7.62026;6.01157;,
-3.00507;-7.62026;5.20598;,
-5.20598;-7.62026;3.00507;,
-5.20598;-7.62026;3.00507;,
-6.01157;-7.62026;-0.001395;,
-6.01157;-7.62026;-0.001395;,
-5.20598;-7.62026;-3.00787;,
-5.20598;-7.62026;-3.00787;,
-3.00507;-7.62026;-5.20876;,
-3.00507;-7.62026;-5.20876;,
0.001396;-7.62026;-6.01434;,
0.001396;-7.62026;-6.01434;,
3.00787;-7.62026;-5.20876;,
3.00787;-7.62026;-5.20876;,
5.20876;-7.62026;-3.00787;,
5.20876;-7.62026;-3.00787;,
-0.115151;-11.9908;-0.001396;,
6.01434;-7.62026;-0.001396;,
5.20878;-7.62026;3.00507;,
5.20878;-7.62026;3.00507;,
6.01434;-7.62026;-0.001396;,
-0.115151;-11.9908;-0.001396;,
-0.115151;-11.9908;-0.001396;,
3.00787;-7.62026;5.20598;,
3.00787;-7.62026;5.20598;,
-0.115151;-11.9908;-0.001396;,
-0.115151;-11.9908;-0.001396;,
0.001398;-7.62026;6.01157;,
0.001398;-7.62026;6.01157;,
-0.115151;-11.9908;-0.001396;,
-0.115151;-11.9908;-0.001396;,
-3.00507;-7.62026;5.20598;,
-3.00507;-7.62026;5.20598;,
-0.115151;-11.9908;-0.001396;,
-0.115151;-11.9908;-0.001396;,
-5.20598;-7.62026;3.00507;,
-5.20598;-7.62026;3.00507;,
-0.115151;-11.9908;-0.001396;,
-0.115151;-11.9908;-0.001396;,
-6.01157;-7.62026;-0.001395;,
-6.01157;-7.62026;-0.001395;,
-0.115151;-11.9908;-0.001396;,
-0.115151;-11.9908;-0.001396;,
-5.20598;-7.62026;-3.00787;,
-5.20598;-7.62026;-3.00787;,
-0.115151;-11.9908;-0.001396;,
-0.115151;-11.9908;-0.001396;,
-3.00507;-7.62026;-5.20876;,
-3.00507;-7.62026;-5.20876;,
-0.115151;-11.9908;-0.001396;,
-0.115151;-11.9908;-0.001396;,
0.001396;-7.62026;-6.01434;,
0.001396;-7.62026;-6.01434;,
-0.115151;-11.9908;-0.001396;,
-0.115151;-11.9908;-0.001396;,
3.00787;-7.62026;-5.20876;,
3.00787;-7.62026;-5.20876;,
-0.115151;-11.9908;-0.001396;,
-0.115151;-11.9908;-0.001396;,
5.20876;-7.62026;-3.00787;,
5.20876;-7.62026;-3.00787;,
-0.115151;-11.9908;-0.001396;,
-0.115151;-11.9908;-0.001396;,
6.01434;-7.62026;-0.001396;,
6.01434;-7.62026;-0.001396;,
-0.115151;-11.9908;-0.001396;;

144;
4;0,1,2,3;,
4;4,5,6,7;,
4;8,0,3,9;,
4;10,4,7,11;,
4;12,8,9,13;,
4;14,10,11,15;,
4;16,17,18,19;,
4;20,21,22,23;,
4;24,16,19,25;,
4;26,20,23,27;,
4;28,24,25,29;,
4;30,26,27,31;,
4;32,28,29,33;,
4;34,30,31,35;,
4;36,32,33,37;,
4;38,34,35,39;,
4;40,36,37,41;,
4;42,38,39,43;,
4;44,40,41,45;,
4;46,42,43,47;,
4;48,44,45,49;,
4;50,46,47,51;,
4;1,48,49,2;,
4;5,50,51,6;,
4;52,53,1,0;,
4;7,6,54,55;,
4;56,52,0,8;,
4;11,7,55,57;,
4;58,56,8,12;,
4;15,11,57,59;,
4;60,61,17,16;,
4;23,22,62,63;,
4;64,60,16,24;,
4;27,23,63,65;,
4;66,64,24,28;,
4;31,27,65,67;,
4;68,66,28,32;,
4;35,31,67,69;,
4;70,68,32,36;,
4;39,35,69,71;,
4;72,70,36,40;,
4;43,39,71,73;,
4;74,72,40,44;,
4;47,43,73,75;,
4;76,74,44,48;,
4;51,47,75,77;,
4;53,76,48,1;,
4;6,51,77,54;,
4;78,79,53,52;,
4;55,54,80,81;,
4;82,78,52,56;,
4;57,55,81,83;,
4;84,82,56,58;,
4;59,57,83,85;,
4;86,87,61,60;,
4;63,62,88,89;,
4;90,86,60,64;,
4;65,63,89,91;,
4;92,90,64,66;,
4;67,65,91,93;,
4;94,92,66,68;,
4;69,67,93,95;,
4;96,94,68,70;,
4;71,69,95,97;,
4;98,96,70,72;,
4;73,71,97,99;,
4;100,98,72,74;,
4;75,73,99,101;,
4;102,100,74,76;,
4;77,75,101,103;,
4;79,102,76,53;,
4;54,77,103,80;,
4;104,105,79,78;,
4;81,80,106,107;,
4;108,104,78,82;,
4;83,81,107,109;,
4;110,108,82,84;,
4;85,83,109,111;,
4;112,113,87,86;,
4;89,88,114,115;,
4;116,112,86,90;,
4;91,89,115,117;,
4;118,116,90,92;,
4;93,91,117,119;,
4;120,118,92,94;,
4;95,93,119,121;,
4;122,120,94,96;,
4;97,95,121,123;,
4;124,122,96,98;,
4;99,97,123,125;,
4;126,124,98,100;,
4;101,99,125,127;,
4;128,126,100,102;,
4;103,101,127,129;,
4;105,128,102,79;,
4;80,103,129,106;,
4;130,131,105,104;,
4;107,106,132,133;,
4;134,130,104,108;,
4;109,107,133,135;,
4;136,134,108,110;,
4;111,109,135,137;,
4;138,139,113,112;,
4;115,114,140,141;,
4;142,138,112,116;,
4;117,115,141,143;,
4;144,142,116,118;,
4;119,117,143,145;,
4;146,144,118,120;,
4;121,119,145,147;,
4;148,146,120,122;,
4;123,121,147,149;,
4;150,148,122,124;,
4;125,123,149,151;,
4;152,150,124,126;,
4;127,125,151,153;,
4;154,152,126,128;,
4;129,127,153,155;,
4;131,154,128,105;,
4;106,129,155,132;,
3;156,157,158;,
3;159,160,161;,
3;162,158,163;,
3;164,159,165;,
3;166,163,167;,
3;168,164,169;,
3;170,167,171;,
3;172,168,173;,
3;174,171,175;,
3;176,172,177;,
3;178,175,179;,
3;180,176,181;,
3;182,179,183;,
3;184,180,185;,
3;186,183,187;,
3;188,184,189;,
3;190,187,191;,
3;192,188,193;,
3;194,191,195;,
3;196,192,197;,
3;198,195,199;,
3;200,196,201;,
3;202,199,203;,
3;204,200,205;;

MeshMaterialList {
1;
144;
0,
0,
0,
0,
0,
0,
0,
0,
0,
0,
0,
0,
0,
0,
0,
0,
0,
0,
0,
0,
0,
0,
0,
0,
0,
0,
0,
0,
0,
0,
0,
0,
0,
0,
0,
0,
0,
0,
0,
0,
0,
0,
0,
0,
0,
0,
0,
0,
0,
0,
0,
0,
0,
0,
0,
0,
0,
0,
0,
0,
0,
0,
0,
0,
0,
0,
0,
0,
0,
0,
0,
0,
0,
0,
0,
0,
0,
0,
0,
0,
0,
0,
0,
0,
0,
0,
0,
0,
0,
0,
0,
0,
0,
0,
0,
0,
0,
0,
0,
0,
0,
0,
0,
0,
0,
0,
0,
0,
0,
0,
0,
0,
0,
0,
0,
0,
0,
0,
0,
0,
0,
0,
0,
0,
0,
0,
0,
0,
0,
0,
0,
0,
0,
0,
0,
0,
0,
0,
0,
0,
0,
0,
0,
0;;
{ MatTex_1_1 }
}

MeshTextureCoords {
206;
0.539448;0.144462;,
0.534228;0.144462;,
0.534228;0.001242;,
0.539448;0.001242;,
0.539448;0.001242;,
0.534228;0.001242;,
0.534228;0.144462;,
0.539448;0.144462;,
0.544669;0.144462;,
0.544669;0.001242;,
0.544669;0.001242;,
0.544669;0.144462;,
0.549889;0.144462;,
0.549889;0.001242;,
0.549889;0.001242;,
0.549889;0.144462;,
0.492464;0.144462;,
0.487243;0.144462;,
0.487243;0.001242;,
0.492464;0.001242;,
0.492464;0.001242;,
0.487243;0.001242;,
0.487243;0.144462;,
0.492464;0.144462;,
0.497684;0.144462;,
0.497684;0.001242;,
0.497684;0.001242;,
0.497684;0.144462;,
0.502905;0.144462;,
0.502905;0.001242;,
0.502905;0.001242;,
0.502905;0.144462;,
0.508125;0.144462;,
0.508125;0.001242;,
0.508125;0.001242;,
0.508125;0.144462;,
0.513346;0.144462;,
0.513346;0.001242;,
0.513346;0.001242;,
0.513346;0.144462;,
0.518566;0.144462;,
0.518566;0.001242;,
0.518566;0.001242;,
0.518566;0.144462;,
0.523787;0.144462;,
0.523787;0.001242;,
0.523787;0.001242;,
0.523787;0.144462;,
0.529007;0.144462;,
0.529007;0.001242;,
0.529007;0.001242;,
0.529007;0.144462;,
0.539448;0.279094;,
0.534228;0.279094;,
0.534228;0.279094;,
0.539448;0.279094;,
0.544669;0.279094;,
0.544669;0.279094;,
0.549889;0.279094;,
0.549889;0.279094;,
0.492463;0.279094;,
0.487243;0.279094;,
0.487243;0.279094;,
0.492463;0.279094;,
0.497684;0.279094;,
0.497684;0.279094;,
0.502905;0.279094;,
0.502905;0.279094;,
0.508125;0.279094;,
0.508125;0.279094;,
0.513346;0.279094;,
0.513346;0.279094;,
0.518566;0.279094;,
0.518566;0.279094;,
0.523787;0.279094;,
0.523787;0.279094;,
0.529007;0.279094;,
0.529007;0.279094;,
0.539448;0.420494;,
0.534227;0.420494;,
0.534227;0.420494;,
0.539448;0.420494;,
0.544668;0.420494;,
0.544668;0.420494;,
0.549889;0.420494;,
0.549889;0.420494;,
0.492463;0.420494;,
0.487243;0.420494;,
0.487243;0.420494;,
0.492463;0.420494;,
0.497684;0.420494;,
0.497684;0.420494;,
0.502905;0.420494;,
0.502905;0.420494;,
0.508126;0.420494;,
0.508126;0.420494;,
0.513346;0.420494;,
0.513346;0.420494;,
0.518566;0.420494;,
0.518566;0.420494;,
0.523787;0.420494;,
0.523787;0.420494;,
0.529007;0.420494;,
0.529007;0.420494;,
0.539447;0.57244;,
0.534227;0.57244;,
0.534227;0.57244;,
0.539447;0.57244;,
0.544667;0.57244;,
0.544667;0.57244;,
0.549889;0.57244;,
0.549889;0.57244;,
0.492463;0.57244;,
0.487243;0.57244;,
0.487243;0.57244;,
0.492463;0.57244;,
0.497684;0.57244;,
0.497684;0.57244;,
0.502906;0.57244;,
0.502906;0.57244;,
0.508127;0.57244;,
0.508127;0.57244;,
0.513347;0.57244;,
0.513347;0.57244;,
0.518566;0.57244;,
0.518566;0.57244;,
0.523787;0.57244;,
0.523787;0.57244;,
0.529007;0.57244;,
0.529007;0.57244;,
0.539445;0.678818;,
0.534226;0.678818;,
0.534226;0.678818;,
0.539445;0.678818;,
0.544666;0.678818;,
0.544666;0.678818;,
0.549886;0.678818;,
0.549886;0.678818;,
0.492463;0.678818;,
0.48724;0.678818;,
0.48724;0.678818;,
0.492463;0.678818;,
0.497685;0.678818;,
0.497685;0.678818;,
0.502907;0.678818;,
0.502907;0.678818;,
0.508128;0.678818;,
0.508128;0.678818;,
0.513349;0.678818;,
0.513349;0.678818;,
0.51857;0.678818;,
0.51857;0.678818;,
0.523788;0.678818;,
0.523788;0.678818;,
0.529006;0.678818;,
0.529006;0.678818;,
0.518727;1.02385;,
0.48728;0.678818;,
0.4925;0.678818;,
0.4925;0.678818;,
0.48728;0.678818;,
0.518727;1.02385;,
0.518727;1.02385;,
0.497721;0.678818;,
0.497721;0.678818;,
0.518727;1.02385;,
0.518727;1.02385;,
0.502941;0.678818;,
0.502941;0.678818;,
0.518727;1.02385;,
0.518727;1.02385;,
0.508164;0.678818;,
0.508164;0.678818;,
0.518727;1.02385;,
0.518727;1.02385;,
0.513386;0.678818;,
0.513386;0.678818;,
0.518727;1.02385;,
0.518727;1.02385;,
0.518608;0.678818;,
0.518608;0.678818;,
0.518727;1.02385;,
0.518727;1.02385;,
0.52383;0.678818;,
0.52383;0.678818;,
0.518727;1.02385;,
0.518727;1.02385;,
0.52905;0.678818;,
0.52905;0.678818;,
0.518727;1.02385;,
0.518727;1.02385;,
0.534271;0.678818;,
0.534271;0.678818;,
0.518727;1.02385;,
0.518727;1.02385;,
0.539489;0.678818;,
0.539489;0.678818;,
0.518727;1.02385;,
0.518727;1.02385;,
0.544708;0.678818;,
0.544708;0.678818;,
0.518727;1.02385;,
0.518727;1.02385;,
0.549927;0.678818;,
0.549927;0.678818;,
0.518727;1.02385;;
}

MeshNormals{
206;
0.058271;-0.997734;0.033643;,
0.067286;-0.997734;0.0;,
0.077246;-0.997012;0.0;,
0.066896;-0.997012;0.038622;,
-0.066896;0.997012;-0.038622;,
-0.077246;0.997012;0.0;,
-0.067286;0.997734;0.0;,
-0.058271;0.997734;-0.033643;,
0.033642;-0.997734;0.05827;,
0.038622;-0.997012;0.066894;,
-0.038622;0.997012;-0.066894;,
-0.033642;0.997734;-0.05827;,
0.0;-0.997734;0.067283;,
0.0;-0.997012;0.077241;,
0.0;0.997012;-0.077241;,
0.0;0.997734;-0.067283;,
-0.033641;-0.997734;0.058269;,
0.0;-0.997734;0.067283;,
0.0;-0.997012;0.077241;,
-0.03862;-0.997012;0.066892;,
0.03862;0.997012;-0.066892;,
0.0;0.997012;-0.077241;,
0.0;0.997734;-0.067283;,
0.033641;0.997734;-0.058269;,
-0.058269;-0.997734;0.033641;,
-0.066892;-0.997012;0.03862;,
0.066892;0.997012;-0.03862;,
0.058269;0.997734;-0.033641;,
-0.067283;-0.997734;0.0;,
-0.077241;-0.997012;0.0;,
0.077241;0.997012;0.0;,
0.067283;0.997734;0.0;,
-0.05827;-0.997734;-0.033642;,
-0.066894;-0.997012;-0.038622;,
0.066894;0.997012;0.038622;,
0.05827;0.997734;0.033642;,
-0.033643;-0.997734;-0.058271;,
-0.038622;-0.997012;-0.066896;,
0.038622;0.997012;0.066896;,
0.033643;0.997734;0.058271;,
0.0;-0.997734;-0.067286;,
0.0;-0.997012;-0.077245;,
0.0;0.997012;0.077245;,
0.0;0.997734;0.067286;,
0.033644;-0.997734;-0.058272;,
0.038623;-0.997012;-0.066897;,
-0.038623;0.997012;0.066897;,
-0.033644;0.997734;0.058272;,
0.058272;-0.997734;-0.033644;,
0.066897;-0.997012;-0.038623;,
-0.066897;0.997012;0.038623;,
-0.058272;0.997734;0.033644;,
0.067003;-0.997003;0.038684;,
0.07737;-0.997002;0.0;,
-0.07737;0.997002;0.0;,
-0.067003;0.997003;-0.038684;,
0.038684;-0.997003;0.067003;,
-0.038684;0.997003;-0.067003;,
0.0;-0.997003;0.077367;,
0.0;0.997003;-0.077367;,
-0.038683;-0.997003;0.067001;,
0.0;-0.997003;0.077367;,
0.0;0.997003;-0.077367;,
0.038683;0.997003;-0.067001;,
-0.067001;-0.997003;0.038683;,
0.067001;0.997003;-0.038683;,
-0.077367;-0.997003;0.0;,
0.077367;0.997003;0.0;,
-0.067002;-0.997003;-0.038684;,
0.067002;0.997003;0.038684;,
-0.038684;-0.997003;-0.067004;,
0.038684;0.997003;0.067004;,
0.0;-0.997002;-0.07737;,
0.0;0.997002;0.07737;,
0.038685;-0.997002;-0.067005;,
-0.038685;0.997002;0.067005;,
0.067005;-0.997002;-0.038685;,
-0.067005;0.997002;0.038685;,
0.183275;-0.977351;0.105812;,
0.211633;-0.977349;-0.000001;,
-0.211633;0.977349;0.000001;,
-0.183275;0.977351;-0.105812;,
0.105811;-0.977352;0.183268;,
-0.105811;0.977352;-0.183268;,
0.0;-0.977353;0.211616;,
0.0;0.977353;-0.211616;,
-0.105806;-0.977354;0.183262;,
0.0;-0.977353;0.211616;,
0.0;0.977353;-0.211616;,
0.105806;0.977354;-0.183262;,
-0.183261;-0.977354;0.105805;,
0.183261;0.977354;-0.105805;,
-0.211616;-0.977353;-0.000001;,
0.211616;0.977353;0.000001;,
-0.183269;-0.977352;-0.105811;,
0.183269;0.977352;0.105811;,
-0.105812;-0.977351;-0.183275;,
0.105812;0.977351;0.183275;,
0.000001;-0.977349;-0.211633;,
-0.000001;0.977349;0.211633;,
0.105818;-0.977349;-0.183282;,
-0.105818;0.977349;0.183282;,
0.183282;-0.977349;-0.105817;,
-0.183282;0.977349;0.105817;,
0.412345;-0.879373;0.238064;,
0.476149;-0.879364;-0.000002;,
-0.476149;0.879364;0.000002;,
-0.412345;0.879373;-0.238064;,
0.23806;-0.879383;0.412327;,
-0.23806;0.879383;-0.412327;,
0.000001;-0.879391;0.476101;,
-0.000001;0.879391;-0.476101;,
-0.238046;-0.879395;0.412308;,
0.000001;-0.879391;0.476101;,
-0.000001;0.879391;-0.476101;,
0.238046;0.879395;-0.412308;,
-0.412307;-0.879396;0.238045;,
0.412307;0.879396;-0.238045;,
-0.476101;-0.879391;-0.000002;,
0.476101;0.879391;0.000002;,
-0.412328;-0.879382;-0.238061;,
0.412328;0.879382;0.238061;,
-0.238064;-0.879373;-0.412345;,
0.238064;0.879373;0.412345;,
0.000002;-0.879364;-0.476149;,
-0.000002;0.879364;0.476149;,
0.238079;-0.87936;-0.412365;,
-0.238079;0.87936;0.412365;,
0.412364;-0.87936;-0.238079;,
-0.412364;0.87936;0.238079;,
0.519004;-0.800475;0.299792;,
0.598893;-0.800829;-0.000002;,
-0.598893;0.800829;0.000002;,
-0.519004;0.800475;-0.299792;,
0.300151;-0.799485;0.52032;,
-0.300151;0.799485;-0.52032;,
-0.00026;-0.798113;0.602507;,
0.00026;0.798113;-0.602507;,
-0.302375;-0.796717;0.52327;,
-0.00026;-0.798113;0.602507;,
0.00026;0.798113;-0.602507;,
0.302375;0.796717;-0.52327;,
-0.524634;-0.795678;0.302745;,
0.524634;0.795678;-0.302745;,
-0.606227;-0.795292;-0.000001;,
0.606227;0.795292;0.000001;,
-0.524647;-0.795666;-0.302755;,
0.524647;0.795666;0.302755;,
-0.302386;-0.796696;-0.523296;,
0.302386;0.796696;0.523296;,
-0.00026;-0.798089;-0.60254;,
0.00026;0.798089;0.60254;,
0.300162;-0.799465;-0.520345;,
-0.300162;0.799465;0.520345;,
0.519016;-0.800463;-0.299803;,
-0.519016;0.800463;0.299803;,
0.4674;-0.875002;0.126128;,
0.598893;-0.800829;-0.000002;,
0.519004;-0.800475;0.299792;,
-0.519004;0.800475;-0.299792;,
-0.598893;0.800829;0.000002;,
-0.4674;0.875002;-0.126128;,
0.341719;-0.874167;0.345051;,
0.300151;-0.799485;0.52032;,
-0.300151;0.799485;-0.52032;,
-0.341719;0.874167;-0.345051;,
0.123237;-0.872709;0.472432;,
-0.00026;-0.798113;0.602507;,
0.00026;0.798113;-0.602507;,
-0.123237;0.872709;-0.472432;,
-0.130294;-0.871007;0.473676;,
-0.302375;-0.796717;0.52327;,
0.302375;0.796717;-0.52327;,
0.130294;0.871007;-0.473676;,
-0.350931;-0.869519;0.347539;,
-0.524634;-0.795678;0.302745;,
0.524634;0.795678;-0.302745;,
0.350931;0.869519;-0.347539;,
-0.478767;-0.868653;0.127373;,
-0.606227;-0.795292;-0.000001;,
0.606227;0.795292;0.000001;,
0.478767;0.868653;-0.127373;,
-0.478766;-0.868653;-0.127374;,
-0.524647;-0.795666;-0.302755;,
0.524647;0.795666;0.302755;,
0.478766;0.868653;0.127374;,
-0.350931;-0.869519;-0.34754;,
-0.302386;-0.796696;-0.523296;,
0.302386;0.796696;0.523296;,
0.350931;0.869519;0.34754;,
-0.130294;-0.871007;-0.473678;,
-0.00026;-0.798089;-0.60254;,
0.00026;0.798089;0.60254;,
0.130294;0.871007;0.473678;,
0.123237;-0.872708;-0.472433;,
0.300162;-0.799465;-0.520345;,
-0.300162;0.799465;0.520345;,
-0.123237;0.872708;0.472433;,
0.341719;-0.874166;-0.345053;,
0.519016;-0.800463;-0.299803;,
-0.519016;0.800463;0.299803;,
-0.341719;0.874166;0.345053;,
0.4674;-0.875002;-0.12613;,
0.598893;-0.800829;-0.000002;,
-0.598893;0.800829;0.000002;,
-0.4674;0.875002;0.12613;;

144;
4;0,1,2,3;,
4;4,5,6,7;,
4;8,0,3,9;,
4;10,4,7,11;,
4;12,8,9,13;,
4;14,10,11,15;,
4;16,17,18,19;,
4;20,21,22,23;,
4;24,16,19,25;,
4;26,20,23,27;,
4;28,24,25,29;,
4;30,26,27,31;,
4;32,28,29,33;,
4;34,30,31,35;,
4;36,32,33,37;,
4;38,34,35,39;,
4;40,36,37,41;,
4;42,38,39,43;,
4;44,40,41,45;,
4;46,42,43,47;,
4;48,44,45,49;,
4;50,46,47,51;,
4;1,48,49,2;,
4;5,50,51,6;,
4;52,53,1,0;,
4;7,6,54,55;,
4;56,52,0,8;,
4;11,7,55,57;,
4;58,56,8,12;,
4;15,11,57,59;,
4;60,61,17,16;,
4;23,22,62,63;,
4;64,60,16,24;,
4;27,23,63,65;,
4;66,64,24,28;,
4;31,27,65,67;,
4;68,66,28,32;,
4;35,31,67,69;,
4;70,68,32,36;,
4;39,35,69,71;,
4;72,70,36,40;,
4;43,39,71,73;,
4;74,72,40,44;,
4;47,43,73,75;,
4;76,74,44,48;,
4;51,47,75,77;,
4;53,76,48,1;,
4;6,51,77,54;,
4;78,79,53,52;,
4;55,54,80,81;,
4;82,78,52,56;,
4;57,55,81,83;,
4;84,82,56,58;,
4;59,57,83,85;,
4;86,87,61,60;,
4;63,62,88,89;,
4;90,86,60,64;,
4;65,63,89,91;,
4;92,90,64,66;,
4;67,65,91,93;,
4;94,92,66,68;,
4;69,67,93,95;,
4;96,94,68,70;,
4;71,69,95,97;,
4;98,96,70,72;,
4;73,71,97,99;,
4;100,98,72,74;,
4;75,73,99,101;,
4;102,100,74,76;,
4;77,75,101,103;,
4;79,102,76,53;,
4;54,77,103,80;,
4;104,105,79,78;,
4;81,80,106,107;,
4;108,104,78,82;,
4;83,81,107,109;,
4;110,108,82,84;,
4;85,83,109,111;,
4;112,113,87,86;,
4;89,88,114,115;,
4;116,112,86,90;,
4;91,89,115,117;,
4;118,116,90,92;,
4;93,91,117,119;,
4;120,118,92,94;,
4;95,93,119,121;,
4;122,120,94,96;,
4;97,95,121,123;,
4;124,122,96,98;,
4;99,97,123,125;,
4;126,124,98,100;,
4;101,99,125,127;,
4;128,126,100,102;,
4;103,101,127,129;,
4;105,128,102,79;,
4;80,103,129,106;,
4;130,131,105,104;,
4;107,106,132,133;,
4;134,130,104,108;,
4;109,107,133,135;,
4;136,134,108,110;,
4;111,109,135,137;,
4;138,139,113,112;,
4;115,114,140,141;,
4;142,138,112,116;,
4;117,115,141,143;,
4;144,142,116,118;,
4;119,117,143,145;,
4;146,144,118,120;,
4;121,119,145,147;,
4;148,146,120,122;,
4;123,121,147,149;,
4;150,148,122,124;,
4;125,123,149,151;,
4;152,150,124,126;,
4;127,125,151,153;,
4;154,152,126,128;,
4;129,127,153,155;,
4;131,154,128,105;,
4;106,129,155,132;,
3;156,157,158;,
3;159,160,161;,
3;162,158,163;,
3;164,159,165;,
3;166,163,167;,
3;168,164,169;,
3;170,167,171;,
3;172,168,173;,
3;174,171,175;,
3;176,172,177;,
3;178,175,179;,
3;180,176,181;,
3;182,179,183;,
3;184,180,185;,
3;186,183,187;,
3;188,184,189;,
3;190,187,191;,
3;192,188,193;,
3;194,191,195;,
3;196,192,197;,
3;198,195,199;,
3;200,196,201;,
3;202,199,203;,
3;204,200,205;;
}


}

}

}
