xof 0302txt 0064

// Created by AC3D 6.4.30 <TRIAL> ( www.inivis.com )
// Export Plugin : 'DirectX.p' v1.9 by Frank Meinert


Material MatTex_1_1 {
  1.0; 1.0; 1.0; 1.0;;
  128.0;
  0.2; 0.2; 0.2;;
  0.0; 0.0; 0.0;;
  TextureFileName { "black hole rings.png"; }
}


Frame WORLD {

FrameTransformMatrix {
  1.0, 0.0, 0.0, 0.0,
  0.0, 1.0, 0.0, 0.0,
  0.0, 0.0, 1.0, 0.0,
  0.0, 0.0, 0.0, 1.0;;
}

Frame disk {

FrameTransformMatrix {
  1.0, 0.0, 0.0, 0.0,
  0.0, 1.0, 0.0, 0.0,
  0.0, 0.0, 1.0, 0.0,
  0.0, 3.85419, 0.0, 1.0;;
}

Mesh disk {
172;
38.7982;-0.86772;22.3997;,
44.8003;-0.86772;-0.000279;,
56.0;0.0;0.0;,
48.4974;0.0;28.0;,
48.4974;0.0;28.0;,
56.0;0.0;0.0;,
44.8003;-0.86772;-0.000279;,
38.7982;-0.86772;22.3997;,
22.4003;-0.86772;38.7976;,
28.0;0.0;48.4974;,
28.0;0.0;48.4974;,
22.4003;-0.86772;38.7976;,
0.00029;-0.86772;44.7997;,
0.000013;0.0;56.0;,
0.000013;0.0;56.0;,
0.00029;-0.86772;44.7997;,
-22.3997;-0.86772;38.7976;,
-28.0;0.0;48.4974;,
-28.0;0.0;48.4974;,
-22.3997;-0.86772;38.7976;,
-38.7976;-0.86772;22.3997;,
-48.4974;0.0;28.0;,
-48.4974;0.0;28.0;,
-38.7976;-0.86772;22.3997;,
-44.7997;-0.86772;-0.000272;,
-56.0;0.0;0.000009;,
-56.0;0.0;0.000009;,
-44.7997;-0.86772;-0.000272;,
-38.7976;-0.86772;-22.4003;,
-48.4974;0.0;-28.0;,
-48.4974;0.0;-28.0;,
-38.7976;-0.86772;-22.4003;,
-22.3997;-0.86772;-38.7982;,
-28.0;0.0;-48.4974;,
-28.0;0.0;-48.4974;,
-22.3997;-0.86772;-38.7982;,
0.000275;-0.86772;-44.8003;,
-0.000004;0.0;-56.0;,
-0.000004;0.0;-56.0;,
0.000275;-0.86772;-44.8003;,
22.4003;-0.86772;-38.7982;,
28.0;0.0;-48.4974;,
28.0;0.0;-48.4974;,
22.4003;-0.86772;-38.7982;,
38.7982;-0.86772;-22.4003;,
48.4974;0.0;-28.0;,
48.4974;0.0;-28.0;,
38.7982;-0.86772;-22.4003;,
24.8312;-1.79371;14.3354;,
28.6726;-1.79371;-0.000558;,
28.6726;-1.79371;-0.000558;,
24.8312;-1.79371;14.3354;,
14.3366;-1.79371;24.8301;,
14.3366;-1.79371;24.8301;,
0.000565;-1.79371;28.6714;,
0.000565;-1.79371;28.6714;,
-14.3354;-1.79371;24.8301;,
-14.3354;-1.79371;24.8301;,
-24.8301;-1.79371;14.3354;,
-24.8301;-1.79371;14.3354;,
-28.6714;-1.79371;-0.000554;,
-28.6714;-1.79371;-0.000554;,
-24.8301;-1.79371;-14.3366;,
-24.8301;-1.79371;-14.3366;,
-14.3354;-1.79371;-24.8312;,
-14.3354;-1.79371;-24.8312;,
0.000555;-1.79371;-28.6726;,
0.000555;-1.79371;-28.6726;,
14.3366;-1.79371;-24.8312;,
14.3366;-1.79371;-24.8312;,
24.8312;-1.79371;-14.3366;,
24.8312;-1.79371;-14.3366;,
12.7142;-3.16288;7.33919;,
14.6809;-3.16288;-0.000837;,
14.6809;-3.16288;-0.000837;,
12.7142;-3.16288;7.33919;,
7.34087;-3.16288;12.7125;,
7.34087;-3.16288;12.7125;,
0.00084;-3.16288;14.6792;,
0.00084;-3.16288;14.6792;,
-7.33919;-3.16288;12.7125;,
-7.33919;-3.16288;12.7125;,
-12.7125;-3.16288;7.33919;,
-12.7125;-3.16288;7.33919;,
-14.6792;-3.16288;-0.000834;,
-14.6792;-3.16288;-0.000834;,
-12.7125;-3.16288;-7.34087;,
-12.7125;-3.16288;-7.34087;,
-7.33919;-3.16288;-12.7142;,
-7.33919;-3.16288;-12.7142;,
0.000836;-3.16288;-14.6809;,
0.000836;-3.16288;-14.6809;,
7.34087;-3.16288;-12.7142;,
7.34087;-3.16288;-12.7142;,
12.7142;-3.16288;-7.34087;,
12.7142;-3.16288;-7.34087;,
8.13764;-4.96908;4.6965;,
9.39635;-4.96908;-0.001116;,
9.39635;-4.96908;-0.001116;,
8.13764;-4.96908;4.6965;,
4.69874;-4.96908;8.1354;,
4.69874;-4.96908;8.1354;,
0.001119;-4.96908;9.39414;,
0.001119;-4.96908;9.39414;,
-4.6965;-4.96908;8.1354;,
-4.6965;-4.96908;8.1354;,
-8.1354;-4.96908;4.6965;,
-8.1354;-4.96908;4.6965;,
-9.39414;-4.96908;-0.001115;,
-9.39414;-4.96908;-0.001115;,
-8.1354;-4.96908;-4.69874;,
-8.1354;-4.96908;-4.69874;,
-4.6965;-4.96908;-8.13764;,
-8.1354;-4.96908;-4.69874;,
-8.1354;-4.96908;-4.69874;,
-4.6965;-4.96908;-8.13764;,
0.001116;-4.96908;-9.39635;,
0.001116;-4.96908;-9.39635;,
4.69874;-4.96908;-8.13764;,
4.69874;-4.96908;-8.13764;,
8.13764;-4.96908;-4.69874;,
8.13764;-4.96908;-4.69874;,
5.20878;-7.62026;3.00507;,
6.01434;-7.62026;-0.001396;,
6.01434;-7.62026;-0.001396;,
5.20878;-7.62026;3.00507;,
3.00787;-7.62026;5.20598;,
3.00787;-7.62026;5.20598;,
0.001398;-7.62026;6.01157;,
0.001398;-7.62026;6.01157;,
-3.00507;-7.62026;5.20598;,
-3.00507;-7.62026;5.20598;,
-5.20598;-7.62026;3.00507;,
-5.20598;-7.62026;3.00507;,
-6.01157;-7.62026;-0.001395;,
-6.01157;-7.62026;-0.001395;,
-5.20598;-7.62026;-3.00787;,
-5.20598;-7.62026;-3.00787;,
-3.00507;-7.62026;-5.20876;,
-5.20598;-7.62026;-3.00787;,
-5.20598;-7.62026;-3.00787;,
-3.00507;-7.62026;-5.20876;,
0.001396;-7.62026;-6.01434;,
0.001396;-7.62026;-6.01434;,
3.00787;-7.62026;-5.20876;,
3.00787;-7.62026;-5.20876;,
5.20876;-7.62026;-3.00787;,
5.20876;-7.62026;-3.00787;,
-0.115151;-11.9908;-0.001396;,
-0.115151;-11.9908;-0.001396;,
-0.115151;-11.9908;-0.001396;,
-0.115151;-11.9908;-0.001396;,
-0.115151;-11.9908;-0.001396;,
-0.115151;-11.9908;-0.001396;,
-0.115151;-11.9908;-0.001396;,
-0.115151;-11.9908;-0.001396;,
-0.115151;-11.9908;-0.001396;,
-0.115151;-11.9908;-0.001396;,
-0.115151;-11.9908;-0.001396;,
-0.115151;-11.9908;-0.001396;,
-0.115151;-11.9908;-0.001396;,
-0.115151;-11.9908;-0.001396;,
-0.115151;-11.9908;-0.001396;,
-0.115151;-11.9908;-0.001396;,
-0.115151;-11.9908;-0.001396;,
-0.115151;-11.9908;-0.001396;,
-0.115151;-11.9908;-0.001396;,
-0.115151;-11.9908;-0.001396;,
-0.115151;-11.9908;-0.001396;,
-0.115151;-11.9908;-0.001396;,
-0.115151;-11.9908;-0.001396;,
-0.115151;-11.9908;-0.001396;;

144;
4;0,1,2,3;,
4;4,5,6,7;,
4;8,0,3,9;,
4;10,4,7,11;,
4;12,8,9,13;,
4;14,10,11,15;,
4;16,12,13,17;,
4;18,14,15,19;,
4;20,16,17,21;,
4;22,18,19,23;,
4;24,20,21,25;,
4;26,22,23,27;,
4;28,24,25,29;,
4;30,26,27,31;,
4;32,28,29,33;,
4;34,30,31,35;,
4;36,32,33,37;,
4;38,34,35,39;,
4;40,36,37,41;,
4;42,38,39,43;,
4;44,40,41,45;,
4;46,42,43,47;,
4;1,44,45,2;,
4;5,46,47,6;,
4;48,49,1,0;,
4;7,6,50,51;,
4;52,48,0,8;,
4;11,7,51,53;,
4;54,52,8,12;,
4;15,11,53,55;,
4;56,54,12,16;,
4;19,15,55,57;,
4;58,56,16,20;,
4;23,19,57,59;,
4;60,58,20,24;,
4;27,23,59,61;,
4;62,60,24,28;,
4;31,27,61,63;,
4;64,62,28,32;,
4;35,31,63,65;,
4;66,64,32,36;,
4;39,35,65,67;,
4;68,66,36,40;,
4;43,39,67,69;,
4;70,68,40,44;,
4;47,43,69,71;,
4;49,70,44,1;,
4;6,47,71,50;,
4;72,73,49,48;,
4;51,50,74,75;,
4;76,72,48,52;,
4;53,51,75,77;,
4;78,76,52,54;,
4;55,53,77,79;,
4;80,78,54,56;,
4;57,55,79,81;,
4;82,80,56,58;,
4;59,57,81,83;,
4;84,82,58,60;,
4;61,59,83,85;,
4;86,84,60,62;,
4;63,61,85,87;,
4;88,86,62,64;,
4;65,63,87,89;,
4;90,88,64,66;,
4;67,65,89,91;,
4;92,90,66,68;,
4;69,67,91,93;,
4;94,92,68,70;,
4;71,69,93,95;,
4;73,94,70,49;,
4;50,71,95,74;,
4;96,97,73,72;,
4;75,74,98,99;,
4;100,96,72,76;,
4;77,75,99,101;,
4;102,100,76,78;,
4;79,77,101,103;,
4;104,102,78,80;,
4;81,79,103,105;,
4;106,104,80,82;,
4;83,81,105,107;,
4;108,106,82,84;,
4;85,83,107,109;,
4;110,108,84,86;,
4;87,85,109,111;,
4;112,113,86,88;,
4;89,87,114,115;,
4;116,112,88,90;,
4;91,89,115,117;,
4;118,116,90,92;,
4;93,91,117,119;,
4;120,118,92,94;,
4;95,93,119,121;,
4;97,120,94,73;,
4;74,95,121,98;,
4;122,123,97,96;,
4;99,98,124,125;,
4;126,122,96,100;,
4;101,99,125,127;,
4;128,126,100,102;,
4;103,101,127,129;,
4;130,128,102,104;,
4;105,103,129,131;,
4;132,130,104,106;,
4;107,105,131,133;,
4;134,132,106,108;,
4;109,107,133,135;,
4;136,134,108,113;,
4;114,109,135,137;,
4;138,139,113,112;,
4;115,114,140,141;,
4;142,138,112,116;,
4;117,115,141,143;,
4;144,142,116,118;,
4;119,117,143,145;,
4;146,144,118,120;,
4;121,119,145,147;,
4;123,146,120,97;,
4;98,121,147,124;,
3;148,123,122;,
3;125,124,149;,
3;150,122,126;,
3;127,125,151;,
3;152,126,128;,
3;129,127,153;,
3;154,128,130;,
3;131,129,155;,
3;156,130,132;,
3;133,131,157;,
3;158,132,134;,
3;135,133,159;,
3;160,134,139;,
3;140,135,161;,
3;162,139,138;,
3;141,140,163;,
3;164,138,142;,
3;143,141,165;,
3;166,142,144;,
3;145,143,167;,
3;168,144,146;,
3;147,145,169;,
3;170,146,123;,
3;124,147,171;;

MeshMaterialList {
1;
144;
0,
0,
0,
0,
0,
0,
0,
0,
0,
0,
0,
0,
0,
0,
0,
0,
0,
0,
0,
0,
0,
0,
0,
0,
0,
0,
0,
0,
0,
0,
0,
0,
0,
0,
0,
0,
0,
0,
0,
0,
0,
0,
0,
0,
0,
0,
0,
0,
0,
0,
0,
0,
0,
0,
0,
0,
0,
0,
0,
0,
0,
0,
0,
0,
0,
0,
0,
0,
0,
0,
0,
0,
0,
0,
0,
0,
0,
0,
0,
0,
0,
0,
0,
0,
0,
0,
0,
0,
0,
0,
0,
0,
0,
0,
0,
0,
0,
0,
0,
0,
0,
0,
0,
0,
0,
0,
0,
0,
0,
0,
0,
0,
0,
0,
0,
0,
0,
0,
0,
0,
0,
0,
0,
0,
0,
0,
0,
0,
0,
0,
0,
0,
0,
0,
0,
0,
0,
0,
0,
0,
0,
0,
0,
0;;
{ MatTex_1_1 }
}

MeshTextureCoords {
172;
0.846412;0.300003;,
0.900002;0.500003;,
1.0;0.5;,
0.933012;0.25;,
0.933012;0.25;,
1.0;0.5;,
0.900002;0.500003;,
0.846412;0.300003;,
0.700002;0.153592;,
0.75;0.066988;,
0.75;0.066988;,
0.700002;0.153592;,
0.500003;0.100002;,
0.5;0.0;,
0.5;0.0;,
0.500003;0.100002;,
0.300003;0.153592;,
0.25;0.066988;,
0.25;0.066988;,
0.300003;0.153592;,
0.153592;0.300003;,
0.066987;0.25;,
0.066987;0.25;,
0.153592;0.300003;,
0.100002;0.500002;,
0.0;0.5;,
0.0;0.5;,
0.100002;0.500002;,
0.153592;0.700002;,
0.066987;0.75;,
0.066987;0.75;,
0.153592;0.700002;,
0.300003;0.846412;,
0.25;0.933012;,
0.25;0.933012;,
0.300003;0.846412;,
0.500002;0.900002;,
0.5;1.0;,
0.5;1.0;,
0.500002;0.900002;,
0.700002;0.846412;,
0.75;0.933012;,
0.75;0.933012;,
0.700002;0.846412;,
0.846412;0.700002;,
0.933012;0.75;,
0.933012;0.75;,
0.846412;0.700002;,
0.721708;0.372005;,
0.756005;0.500005;,
0.756005;0.500005;,
0.721708;0.372005;,
0.628005;0.278302;,
0.628005;0.278302;,
0.500005;0.244005;,
0.500005;0.244005;,
0.372005;0.278302;,
0.372005;0.278302;,
0.278302;0.372005;,
0.278302;0.372005;,
0.244005;0.500005;,
0.244005;0.500005;,
0.278302;0.628005;,
0.278302;0.628005;,
0.372005;0.721708;,
0.372005;0.721708;,
0.500005;0.756005;,
0.500005;0.756005;,
0.628005;0.721708;,
0.628005;0.721708;,
0.721708;0.628005;,
0.721708;0.628005;,
0.613519;0.434471;,
0.631079;0.500007;,
0.631079;0.500007;,
0.613519;0.434471;,
0.565544;0.386496;,
0.565544;0.386496;,
0.500008;0.368935;,
0.500008;0.368935;,
0.434471;0.386496;,
0.434471;0.386496;,
0.386496;0.434471;,
0.386496;0.434471;,
0.368935;0.500007;,
0.368935;0.500007;,
0.386496;0.565544;,
0.386496;0.565544;,
0.434471;0.613519;,
0.434471;0.613519;,
0.500007;0.631079;,
0.500007;0.631079;,
0.565544;0.613519;,
0.565544;0.613519;,
0.613519;0.565544;,
0.613519;0.565544;,
0.572658;0.458067;,
0.583896;0.50001;,
0.583896;0.50001;,
0.572658;0.458067;,
0.541953;0.427363;,
0.541953;0.427363;,
0.50001;0.416124;,
0.50001;0.416124;,
0.458067;0.427363;,
0.458067;0.427363;,
0.427363;0.458067;,
0.427363;0.458067;,
0.416124;0.50001;,
0.416124;0.50001;,
0.427363;0.541953;,
0.427363;0.541953;,
0.458067;0.572658;,
0.427363;0.541953;,
0.427363;0.541953;,
0.458067;0.572658;,
0.50001;0.583896;,
0.50001;0.583896;,
0.541953;0.572658;,
0.541953;0.572658;,
0.572658;0.541953;,
0.572658;0.541953;,
0.546507;0.473169;,
0.553699;0.500012;,
0.553699;0.500012;,
0.546507;0.473169;,
0.526856;0.453518;,
0.526856;0.453518;,
0.500012;0.446325;,
0.500012;0.446325;,
0.473169;0.453518;,
0.473169;0.453518;,
0.453518;0.473169;,
0.453518;0.473169;,
0.446325;0.500012;,
0.446325;0.500012;,
0.453518;0.526856;,
0.453518;0.526856;,
0.473169;0.546507;,
0.453518;0.526856;,
0.453518;0.526856;,
0.473169;0.546507;,
0.500012;0.553699;,
0.500012;0.553699;,
0.526856;0.546507;,
0.526856;0.546507;,
0.546507;0.526856;,
0.546507;0.526856;,
0.498972;0.500012;,
0.498972;0.500012;,
0.498972;0.500012;,
0.498972;0.500012;,
0.498972;0.500012;,
0.498972;0.500012;,
0.498972;0.500012;,
0.498972;0.500012;,
0.498972;0.500012;,
0.498972;0.500012;,
0.498972;0.500012;,
0.498972;0.500012;,
0.498972;0.500012;,
0.498972;0.500012;,
0.498972;0.500012;,
0.498972;0.500012;,
0.498972;0.500012;,
0.498972;0.500012;,
0.498972;0.500012;,
0.498972;0.500012;,
0.498972;0.500012;,
0.498972;0.500012;,
0.498972;0.500012;,
0.498972;0.500012;;
}

MeshNormals{
172;
0.058271;-0.997734;0.033643;,
0.067286;-0.997734;0.0;,
0.077246;-0.997012;0.0;,
0.066896;-0.997012;0.038622;,
-0.066896;0.997012;-0.038622;,
-0.077246;0.997012;0.0;,
-0.067286;0.997734;0.0;,
-0.058271;0.997734;-0.033643;,
0.033642;-0.997734;0.05827;,
0.038622;-0.997012;0.066894;,
-0.038622;0.997012;-0.066894;,
-0.033642;0.997734;-0.05827;,
0.0;-0.997734;0.067283;,
0.0;-0.997012;0.077241;,
0.0;0.997012;-0.077241;,
0.0;0.997734;-0.067283;,
-0.033641;-0.997734;0.058269;,
-0.03862;-0.997012;0.066892;,
0.03862;0.997012;-0.066892;,
0.033641;0.997734;-0.058269;,
-0.058269;-0.997734;0.033641;,
-0.066892;-0.997012;0.03862;,
0.066892;0.997012;-0.03862;,
0.058269;0.997734;-0.033641;,
-0.067283;-0.997734;0.0;,
-0.077241;-0.997012;0.0;,
0.077241;0.997012;0.0;,
0.067283;0.997734;0.0;,
-0.05827;-0.997734;-0.033642;,
-0.066894;-0.997012;-0.038622;,
0.066894;0.997012;0.038622;,
0.05827;0.997734;0.033642;,
-0.033643;-0.997734;-0.058271;,
-0.038622;-0.997012;-0.066896;,
0.038622;0.997012;0.066896;,
0.033643;0.997734;0.058271;,
0.0;-0.997734;-0.067286;,
0.0;-0.997012;-0.077246;,
0.0;0.997012;0.077246;,
0.0;0.997734;0.067286;,
0.033644;-0.997734;-0.058272;,
0.038623;-0.997012;-0.066897;,
-0.038623;0.997012;0.066897;,
-0.033644;0.997734;0.058272;,
0.058272;-0.997734;-0.033644;,
0.066897;-0.997012;-0.038623;,
-0.066897;0.997012;0.038623;,
-0.058272;0.997734;0.033644;,
0.067004;-0.997003;0.038684;,
0.07737;-0.997002;0.0;,
-0.07737;0.997002;0.0;,
-0.067004;0.997003;-0.038684;,
0.038684;-0.997003;0.067003;,
-0.038684;0.997003;-0.067003;,
0.0;-0.997003;0.077367;,
0.0;0.997003;-0.077367;,
-0.038683;-0.997003;0.067001;,
0.038683;0.997003;-0.067001;,
-0.067001;-0.997003;0.038683;,
0.067001;0.997003;-0.038683;,
-0.077367;-0.997003;0.0;,
0.077367;0.997003;0.0;,
-0.067002;-0.997003;-0.038684;,
0.067002;0.997003;0.038684;,
-0.038684;-0.997003;-0.067004;,
0.038684;0.997003;0.067004;,
0.0;-0.997002;-0.07737;,
0.0;0.997002;0.07737;,
0.038685;-0.997002;-0.067005;,
-0.038685;0.997002;0.067005;,
0.067005;-0.997002;-0.038685;,
-0.067005;0.997002;0.038685;,
0.183275;-0.977351;0.105812;,
0.211633;-0.977349;-0.000001;,
-0.211633;0.977349;0.000001;,
-0.183275;0.977351;-0.105812;,
0.105811;-0.977352;0.183268;,
-0.105811;0.977352;-0.183268;,
0.0;-0.977353;0.211616;,
0.0;0.977353;-0.211616;,
-0.105806;-0.977354;0.183262;,
0.105806;0.977354;-0.183262;,
-0.183261;-0.977354;0.105805;,
0.183261;0.977354;-0.105805;,
-0.211616;-0.977353;-0.000001;,
0.211616;0.977353;0.000001;,
-0.183269;-0.977352;-0.105811;,
0.183269;0.977352;0.105811;,
-0.105812;-0.977351;-0.183275;,
0.105812;0.977351;0.183275;,
0.000001;-0.977349;-0.211633;,
-0.000001;0.977349;0.211633;,
0.105818;-0.977349;-0.183282;,
-0.105818;0.977349;0.183282;,
0.183282;-0.977349;-0.105817;,
-0.183282;0.977349;0.105817;,
0.412345;-0.879373;0.238064;,
0.476149;-0.879364;-0.000002;,
-0.476149;0.879364;0.000002;,
-0.412345;0.879373;-0.238064;,
0.23806;-0.879383;0.412327;,
-0.23806;0.879383;-0.412327;,
0.000001;-0.879391;0.476101;,
-0.000001;0.879391;-0.476101;,
-0.238046;-0.879395;0.412308;,
0.238046;0.879395;-0.412308;,
-0.412307;-0.879396;0.238045;,
0.412307;0.879396;-0.238045;,
-0.476101;-0.879391;-0.000002;,
0.476101;0.879391;0.000002;,
-0.412328;-0.879382;-0.23806;,
0.412328;0.879382;0.23806;,
-0.238064;-0.879373;-0.412345;,
-0.412328;-0.879382;-0.238061;,
0.412328;0.879382;0.238061;,
0.238064;0.879373;0.412345;,
0.000002;-0.879364;-0.476149;,
-0.000002;0.879364;0.476149;,
0.238079;-0.87936;-0.412365;,
-0.238079;0.87936;0.412365;,
0.412364;-0.87936;-0.238079;,
-0.412364;0.87936;0.238079;,
0.519004;-0.800475;0.299792;,
0.598893;-0.800829;-0.000002;,
-0.598893;0.800829;0.000002;,
-0.519004;0.800475;-0.299792;,
0.300151;-0.799485;0.52032;,
-0.300151;0.799485;-0.52032;,
-0.00026;-0.798113;0.602507;,
0.00026;0.798113;-0.602507;,
-0.302375;-0.796717;0.52327;,
0.302375;0.796717;-0.52327;,
-0.524634;-0.795678;0.302745;,
0.524634;0.795678;-0.302745;,
-0.606227;-0.795292;-0.000001;,
0.606227;0.795292;0.000001;,
-0.524647;-0.795666;-0.302756;,
0.524647;0.795666;0.302756;,
-0.302386;-0.796696;-0.523296;,
-0.524647;-0.795666;-0.302755;,
0.524647;0.795666;0.302755;,
0.302386;0.796696;0.523296;,
-0.00026;-0.798089;-0.60254;,
0.00026;0.798089;0.60254;,
0.300162;-0.799465;-0.520345;,
-0.300162;0.799465;0.520345;,
0.519016;-0.800463;-0.299803;,
-0.519016;0.800463;0.299803;,
0.4674;-0.875002;0.126128;,
-0.4674;0.875002;-0.126128;,
0.341719;-0.874167;0.345051;,
-0.341719;0.874167;-0.345051;,
0.123237;-0.872709;0.472432;,
-0.123237;0.872709;-0.472432;,
-0.130294;-0.871007;0.473676;,
0.130294;0.871007;-0.473676;,
-0.350931;-0.869519;0.347539;,
0.350931;0.869519;-0.347539;,
-0.478766;-0.868653;0.127373;,
0.478766;0.868653;-0.127373;,
-0.478766;-0.868653;-0.127374;,
0.478766;0.868653;0.127374;,
-0.350931;-0.869519;-0.34754;,
0.350931;0.869519;0.34754;,
-0.130294;-0.871007;-0.473678;,
0.130294;0.871007;0.473678;,
0.123237;-0.872708;-0.472433;,
-0.123237;0.872708;0.472433;,
0.341719;-0.874166;-0.345053;,
-0.341719;0.874166;0.345053;,
0.4674;-0.875002;-0.12613;,
-0.4674;0.875002;0.12613;;

144;
4;0,1,2,3;,
4;4,5,6,7;,
4;8,0,3,9;,
4;10,4,7,11;,
4;12,8,9,13;,
4;14,10,11,15;,
4;16,12,13,17;,
4;18,14,15,19;,
4;20,16,17,21;,
4;22,18,19,23;,
4;24,20,21,25;,
4;26,22,23,27;,
4;28,24,25,29;,
4;30,26,27,31;,
4;32,28,29,33;,
4;34,30,31,35;,
4;36,32,33,37;,
4;38,34,35,39;,
4;40,36,37,41;,
4;42,38,39,43;,
4;44,40,41,45;,
4;46,42,43,47;,
4;1,44,45,2;,
4;5,46,47,6;,
4;48,49,1,0;,
4;7,6,50,51;,
4;52,48,0,8;,
4;11,7,51,53;,
4;54,52,8,12;,
4;15,11,53,55;,
4;56,54,12,16;,
4;19,15,55,57;,
4;58,56,16,20;,
4;23,19,57,59;,
4;60,58,20,24;,
4;27,23,59,61;,
4;62,60,24,28;,
4;31,27,61,63;,
4;64,62,28,32;,
4;35,31,63,65;,
4;66,64,32,36;,
4;39,35,65,67;,
4;68,66,36,40;,
4;43,39,67,69;,
4;70,68,40,44;,
4;47,43,69,71;,
4;49,70,44,1;,
4;6,47,71,50;,
4;72,73,49,48;,
4;51,50,74,75;,
4;76,72,48,52;,
4;53,51,75,77;,
4;78,76,52,54;,
4;55,53,77,79;,
4;80,78,54,56;,
4;57,55,79,81;,
4;82,80,56,58;,
4;59,57,81,83;,
4;84,82,58,60;,
4;61,59,83,85;,
4;86,84,60,62;,
4;63,61,85,87;,
4;88,86,62,64;,
4;65,63,87,89;,
4;90,88,64,66;,
4;67,65,89,91;,
4;92,90,66,68;,
4;69,67,91,93;,
4;94,92,68,70;,
4;71,69,93,95;,
4;73,94,70,49;,
4;50,71,95,74;,
4;96,97,73,72;,
4;75,74,98,99;,
4;100,96,72,76;,
4;77,75,99,101;,
4;102,100,76,78;,
4;79,77,101,103;,
4;104,102,78,80;,
4;81,79,103,105;,
4;106,104,80,82;,
4;83,81,105,107;,
4;108,106,82,84;,
4;85,83,107,109;,
4;110,108,84,86;,
4;87,85,109,111;,
4;112,113,86,88;,
4;89,87,114,115;,
4;116,112,88,90;,
4;91,89,115,117;,
4;118,116,90,92;,
4;93,91,117,119;,
4;120,118,92,94;,
4;95,93,119,121;,
4;97,120,94,73;,
4;74,95,121,98;,
4;122,123,97,96;,
4;99,98,124,125;,
4;126,122,96,100;,
4;101,99,125,127;,
4;128,126,100,102;,
4;103,101,127,129;,
4;130,128,102,104;,
4;105,103,129,131;,
4;132,130,104,106;,
4;107,105,131,133;,
4;134,132,106,108;,
4;109,107,133,135;,
4;136,134,108,113;,
4;114,109,135,137;,
4;138,139,113,112;,
4;115,114,140,141;,
4;142,138,112,116;,
4;117,115,141,143;,
4;144,142,116,118;,
4;119,117,143,145;,
4;146,144,118,120;,
4;121,119,145,147;,
4;123,146,120,97;,
4;98,121,147,124;,
3;148,123,122;,
3;125,124,149;,
3;150,122,126;,
3;127,125,151;,
3;152,126,128;,
3;129,127,153;,
3;154,128,130;,
3;131,129,155;,
3;156,130,132;,
3;133,131,157;,
3;158,132,134;,
3;135,133,159;,
3;160,134,139;,
3;140,135,161;,
3;162,139,138;,
3;141,140,163;,
3;164,138,142;,
3;143,141,165;,
3;166,142,144;,
3;145,143,167;,
3;168,144,146;,
3;147,145,169;,
3;170,146,123;,
3;124,147,171;;
}


}

}

}
