xof 0303txt 0032

// DirectX - from CharacterFX

template XSkinMeshHeader
{
    <3CF169CE-FF7C-44AB-93C0-F78F62D172E2>
    WORD nMaxSkinWeightsPerVertex;
    WORD nMaxSkinWeightsPerFace;
    WORD nBones;
}

template VertexDuplicationIndices
{
    <B8D65549-D7C9-4995-89CF-53A9A8B031E3>
    DWORD nIndices;
    DWORD nOriginalVertices;
    array DWORD indices[nIndices];
}

template SkinWeights
{
    <6F0D123B-BAD2-4167-A0D0-80224F25FABB>
    CSTRING transformNodeName;
    DWORD nWeights;
    array DWORD vertexIndices[nWeights];
    array FLOAT weights[nWeights];
    Matrix4x4 matrixOffset;
}

Frame Joint1
{
    FrameTransformMatrix
    {
        1.000000,0.000000,0.000000,0.000000,
        0.000000,1.000000,0.000000,0.000000,
        0.000000,0.000000,1.000000,0.000000,
        -0.075535,-0.194048,0.000000,1.000000;;
    }

    Frame Joint2
    {
        FrameTransformMatrix
        {
            1.000000,0.000000,0.000000,0.000000,
            0.000000,1.000000,0.000000,0.000000,
            0.000000,0.000000,1.000000,0.000000,
            0.076405,8.612542,-0.028651,1.000000;;
        }
    }

    Frame Body
    {
        FrameTransformMatrix
        {
            1.000000,0.000000,0.000000,0.000000,
            0.000000,1.000000,0.000000,0.000000,
            0.000000,0.000000,1.000000,0.000000,
            0.000000,0.000000,0.000000,1.000000;;
        }

        Mesh teleporterMesh
        {
            271;
            3.520999;0.873664;-1.001214;,
            3.247994;0.873764;-0.057916;,
            3.137332;0.873764;-0.898484;,
            3.645200;0.873664;-0.057816;,
            3.137331;0.873764;0.782649;,
            3.520998;0.873664;0.885579;,
            2.812885;0.873764;1.565931;,
            3.156861;0.873664;1.764683;,
            2.296765;0.873764;2.238550;,
            2.577602;0.873664;2.519587;,
            1.624146;0.873764;2.754669;,
            1.822698;0.873664;3.098845;,
            0.840864;0.873764;3.079114;,
            0.943594;0.873664;3.462981;,
            0.000299;0.873764;3.189776;,
            0.000199;0.873664;3.587181;,
            -0.943196;0.873664;3.462980;,
            -0.840266;0.873764;3.079113;,
            -1.822301;0.873664;3.098843;,
            -1.623549;0.873764;2.754667;,
            -2.577205;0.873664;2.519584;,
            -2.296168;0.873764;2.238547;,
            -3.156463;0.873664;1.764680;,
            -2.812287;0.873764;1.565927;,
            -3.520600;0.873664;0.885575;,
            -3.136733;0.873764;0.782645;,
            -3.644799;0.873664;-0.057820;,
            -3.247394;0.873764;-0.057920;,
            -3.520599;0.873664;-1.001215;,
            -3.136732;0.873764;-0.898485;,
            -2.812285;0.873764;-1.681767;,
            -3.156461;0.873664;-1.880319;,
            -2.296166;0.873764;-2.354386;,
            -2.577203;0.873664;-2.635223;,
            -1.623547;0.873764;-2.870505;,
            -1.822299;0.873664;-3.214481;,
            -0.840265;0.873764;-3.194951;,
            -0.943195;0.873664;-3.578618;,
            0.000300;0.873764;-3.305613;,
            0.000200;0.873664;-3.702818;,
            0.943595;0.873664;-3.578618;,
            0.840865;0.873764;-3.194950;,
            1.822699;0.873664;-3.214481;,
            1.624147;0.873764;-2.870505;,
            2.577604;0.873664;-2.635222;,
            2.296767;0.873764;-2.354385;,
            3.156862;0.873664;-1.880318;,
            2.812886;0.873764;-1.681766;,
            2.898614;0.580220;-1.697868;,
            5.671198;21.997272;-1.561772;,
            5.090616;21.997272;-2.963420;,
            3.226337;0.580220;-0.906674;,
            2.377281;0.580220;-2.377282;,
            4.167043;21.997272;-4.167043;,
            2.963421;21.997272;-5.090616;,
            1.697868;0.580220;-2.898614;,
            1.561773;21.997272;-5.671197;,
            0.906674;0.580220;-3.226337;,
            0.057619;21.997272;-5.869223;,
            0.057618;0.580220;-3.338118;,
            -0.791437;0.580220;-3.226338;,
            -1.446535;21.997272;-5.671199;,
            -1.582631;0.580220;-2.898614;,
            -2.848184;21.997272;-5.090616;,
            -2.262045;0.580220;-2.377283;,
            -4.051806;21.997272;-4.167045;,
            -2.783377;0.580220;-1.697869;,
            -4.975379;21.997272;-2.963422;,
            -3.111101;0.580220;-0.906675;,
            -5.555962;21.997272;-1.561774;,
            -3.222881;0.580220;-0.057620;,
            -5.753987;21.997272;-0.057620;,
            -3.111101;0.580220;0.791436;,
            -5.555963;21.997272;1.446534;,
            -2.783378;0.580220;1.582630;,
            -4.975380;21.997272;2.848183;,
            -2.262046;0.580220;2.262044;,
            -4.051809;21.997272;4.051806;,
            -2.848187;21.997272;4.975380;,
            -1.582633;0.580220;2.783377;,
            -1.446537;21.997272;5.555962;,
            -0.791438;0.580220;3.111100;,
            0.057616;21.997272;5.753989;,
            0.057617;0.580220;3.222882;,
            1.561770;21.997272;5.555964;,
            0.906673;0.580220;3.111102;,
            1.697867;0.580220;2.783379;,
            2.963419;21.997272;4.975384;,
            2.377280;0.580220;2.262047;,
            4.167042;21.997272;4.051811;,
            2.898613;0.580220;1.582633;,
            5.090615;21.997272;2.848189;,
            3.226337;0.580220;0.791440;,
            5.671198;21.997272;1.446541;,
            3.338118;0.580220;-0.057616;,
            5.869224;21.997272;-0.057613;,
            4.330126;-0.269373;-2.557618;,
            4.829628;0.489403;-1.351714;,
            4.330126;0.489403;-2.557618;,
            4.829628;-0.269373;-1.351714;,
            3.535534;-0.269373;-3.593152;,
            3.535534;0.489403;-3.593152;,
            2.500000;-0.269373;-4.387746;,
            2.499999;0.489403;-4.387746;,
            1.294095;0.489403;-4.887247;,
            1.294095;-0.269373;-4.887247;,
            -1.294095;0.489403;-4.887248;,
            0.000000;-0.269373;-5.057618;,
            0.000000;0.489403;-5.057618;,
            -1.294095;-0.269373;-4.887248;,
            -2.499999;0.489403;-4.387746;,
            -2.499999;-0.269373;-4.387746;,
            -3.535533;0.489403;-3.593153;,
            -3.535533;-0.269373;-3.593153;,
            -4.330126;-0.269373;-2.557620;,
            -4.330126;0.489403;-2.557620;,
            -4.829628;-0.269373;-1.351715;,
            -4.829628;0.489403;-1.351715;,
            -4.829629;-0.269373;1.236475;,
            -5.000000;0.489403;-0.057620;,
            -4.829629;0.489403;1.236475;,
            -5.000000;-0.269373;-0.057620;,
            -4.330128;-0.269373;2.442379;,
            -4.330128;0.489403;2.442379;,
            -3.535535;-0.269373;3.477914;,
            -3.535535;0.489403;3.477914;,
            -2.500002;0.489403;4.272508;,
            -2.500002;-0.269374;4.272508;,
            -1.294097;0.489403;4.772010;,
            -1.294097;-0.269374;4.772010;,
            -0.000002;-0.269374;4.942382;,
            1.294093;0.489403;4.772012;,
            1.294093;-0.269374;4.772012;,
            -0.000002;0.489403;4.942382;,
            2.499998;0.489403;4.272511;,
            2.499998;-0.269374;4.272511;,
            3.535532;0.489403;3.477918;,
            3.535532;-0.269373;3.477918;,
            4.330125;-0.269373;2.442384;,
            4.330125;0.489403;2.442384;,
            4.829628;-0.269373;1.236480;,
            4.829628;0.489403;1.236480;,
            5.000000;0.489403;-0.057615;,
            5.000000;-0.269373;-0.057615;,
            -5.748939;-0.269273;-0.172957;,
            -5.748939;0.489503;-0.172957;,
            -5.578568;0.489503;-1.467052;,
            -5.578568;-0.269273;-1.467052;,
            0.115337;-0.269273;-5.749139;,
            0.115337;0.489503;-5.749139;,
            1.409432;-0.269273;-5.578768;,
            1.409432;0.489503;-5.578768;,
            5.806757;-0.269273;0.057522;,
            5.806757;0.489503;0.057522;,
            5.636385;0.489503;1.351617;,
            5.636385;-0.269273;1.351617;,
            -0.115139;-0.269274;5.691321;,
            -0.115139;0.489503;5.691321;,
            -1.409233;-0.269274;5.520949;,
            -1.409233;0.489503;5.520949;,
            -4.258160;1.740456;0.005612;,
            -4.121863;1.740456;-0.659315;,
            -4.857312;1.593769;-0.053650;,
            -4.721015;1.593769;-0.718577;,
            0.010709;1.740456;-4.422048;,
            0.754996;1.740456;-4.285750;,
            0.077044;1.565239;-4.975264;,
            0.821331;1.565239;-4.838967;,
            4.293928;1.713708;0.005615;,
            4.157629;1.740456;0.670542;,
            4.939334;1.569765;0.064774;,
            4.803036;1.545761;0.729701;,
            -0.733579;1.740455;4.123365;,
            0.010708;1.740455;4.259663;,
            -0.055512;1.584716;4.858814;,
            -0.799799;1.584716;4.722517;,
            3.897214;0.489503;-2.307719;,
            4.346766;0.489503;-1.222404;,
            3.182081;0.489503;-3.239699;,
            2.250099;0.489503;-3.954833;,
            1.164785;0.489503;-4.404384;,
            0.000100;0.489503;-4.557718;,
            -1.164585;0.489503;-4.404385;,
            -2.249899;0.489503;-3.954833;,
            -3.181880;0.489503;-3.239700;,
            -3.897013;0.489503;-2.307719;,
            -4.346565;0.489503;-1.222406;,
            -4.499899;0.489503;-0.057720;,
            -4.346566;0.489503;1.106965;,
            -3.897015;0.489503;2.192280;,
            -3.181882;0.489503;3.124260;,
            -2.249902;0.489503;3.839395;,
            -1.164587;0.489503;4.288947;,
            0.000098;0.489503;4.442282;,
            1.164784;0.489503;4.288949;,
            2.250098;0.489503;3.839397;,
            3.182079;0.489503;3.124264;,
            3.897213;0.489503;2.192284;,
            4.346765;0.489503;1.106970;,
            4.500100;0.489503;-0.057715;,
            0.000299;0.873764;-0.057918;,
            3.226337;0.580220;-0.906674;,
            5.671198;21.997272;-1.561772;,
            -0.000002;0.489403;4.942382;,
            -0.000002;-0.269374;4.942382;,
            0.000098;0.489503;4.442282;,
            3.156862;0.873664;-1.880318;,
            3.520999;0.873664;-1.001214;,
            2.577604;0.873664;-2.635222;,
            1.822699;0.873664;-3.214481;,
            0.943595;0.873664;-3.578618;,
            0.000200;0.873664;-3.702818;,
            -0.943195;0.873664;-3.578618;,
            -1.822299;0.873664;-3.214481;,
            -2.577203;0.873664;-2.635223;,
            -3.156461;0.873664;-1.880319;,
            -3.520599;0.873664;-1.001215;,
            -3.644799;0.873664;-0.057820;,
            -3.520600;0.873664;0.885575;,
            -3.156463;0.873664;1.764680;,
            -2.577205;0.873664;2.519584;,
            -1.822301;0.873664;3.098843;,
            -0.943196;0.873664;3.462980;,
            0.000199;0.873664;3.587181;,
            0.000199;0.873664;3.587181;,
            0.943594;0.873664;3.462981;,
            1.822698;0.873664;3.098845;,
            2.577602;0.873664;2.519587;,
            3.156861;0.873664;1.764683;,
            3.520998;0.873664;0.885579;,
            3.645200;0.873664;-0.057816;,
            2.812886;0.873764;-1.681766;,
            3.137332;0.873764;-0.898484;,
            2.296767;0.873764;-2.354385;,
            1.624147;0.873764;-2.870505;,
            0.840865;0.873764;-3.194950;,
            0.000300;0.873764;-3.305613;,
            -0.840265;0.873764;-3.194951;,
            -1.623547;0.873764;-2.870505;,
            -2.296166;0.873764;-2.354386;,
            -2.812285;0.873764;-1.681767;,
            -3.136732;0.873764;-0.898485;,
            -3.247394;0.873764;-0.057920;,
            -3.136733;0.873764;0.782645;,
            -2.812287;0.873764;1.565927;,
            -2.296168;0.873764;2.238547;,
            -1.623549;0.873764;2.754667;,
            -0.840266;0.873764;3.079113;,
            0.000299;0.873764;3.189776;,
            0.840864;0.873764;3.079114;,
            1.624146;0.873764;2.754669;,
            2.296765;0.873764;2.238550;,
            2.812885;0.873764;1.565931;,
            3.137331;0.873764;0.782649;,
            3.247994;0.873764;-0.057916;,
            -4.121863;1.740456;-0.659315;,
            -4.857312;1.593769;-0.053650;,
            -4.721015;1.593769;-0.718577;,
            -4.258160;1.740456;0.005612;,
            0.821331;1.565239;-4.838967;,
            0.010709;1.740456;-4.422048;,
            0.077044;1.565239;-4.975264;,
            0.754996;1.740456;-4.285750;,
            4.939334;1.569765;0.064774;,
            4.157629;1.740456;0.670542;,
            4.293928;1.713708;0.005615;,
            4.803036;1.545761;0.729701;,
            0.010708;1.740455;4.259663;,
            -0.799799;1.584716;4.722517;,
            -0.733579;1.740455;4.123365;,
            -0.055512;1.584716;4.858814;;
            320;
            3;0,2,1;,
            3;1,3,0;,
            3;3,1,4;,
            3;4,5,3;,
            3;5,4,6;,
            3;6,7,5;,
            3;7,6,8;,
            3;8,9,7;,
            3;9,8,10;,
            3;10,11,9;,
            3;11,10,12;,
            3;12,13,11;,
            3;13,12,14;,
            3;14,15,13;,
            3;14,17,16;,
            3;16,15,14;,
            3;17,19,18;,
            3;18,16,17;,
            3;19,21,20;,
            3;20,18,19;,
            3;21,23,22;,
            3;22,20,21;,
            3;23,25,24;,
            3;24,22,23;,
            3;25,27,26;,
            3;26,24,25;,
            3;27,29,28;,
            3;28,26,27;,
            3;30,31,28;,
            3;28,29,30;,
            3;32,33,31;,
            3;31,30,32;,
            3;34,35,33;,
            3;33,32,34;,
            3;36,37,35;,
            3;35,34,36;,
            3;38,39,37;,
            3;37,36,38;,
            3;40,39,38;,
            3;38,41,40;,
            3;42,40,41;,
            3;41,43,42;,
            3;44,42,43;,
            3;43,45,44;,
            3;46,44,45;,
            3;45,47,46;,
            3;0,46,47;,
            3;47,2,0;,
            3;48,50,49;,
            3;49,51,48;,
            3;52,53,50;,
            3;50,48,52;,
            3;54,53,52;,
            3;52,55,54;,
            3;56,54,55;,
            3;55,57,56;,
            3;58,56,57;,
            3;57,59,58;,
            3;58,59,60;,
            3;60,61,58;,
            3;61,60,62;,
            3;62,63,61;,
            3;63,62,64;,
            3;64,65,63;,
            3;66,67,65;,
            3;65,64,66;,
            3;68,69,67;,
            3;67,66,68;,
            3;70,71,69;,
            3;69,68,70;,
            3;72,73,71;,
            3;71,70,72;,
            3;74,75,73;,
            3;73,72,74;,
            3;76,77,75;,
            3;75,74,76;,
            3;76,79,78;,
            3;78,77,76;,
            3;79,81,80;,
            3;80,78,79;,
            3;81,83,82;,
            3;82,80,81;,
            3;83,85,84;,
            3;84,82,83;,
            3;86,87,84;,
            3;84,85,86;,
            3;88,89,87;,
            3;87,86,88;,
            3;90,91,89;,
            3;89,88,90;,
            3;92,93,91;,
            3;91,90,92;,
            3;94,95,93;,
            3;93,92,94;,
            3;201,202,95;,
            3;95,94,201;,
            3;96,98,97;,
            3;97,99,96;,
            3;100,101,98;,
            3;98,96,100;,
            3;101,100,102;,
            3;102,103,101;,
            3;104,103,102;,
            3;102,105,104;,
            3;106,108,107;,
            3;107,109,106;,
            3;110,106,109;,
            3;109,111,110;,
            3;112,110,111;,
            3;111,113,112;,
            3;114,115,112;,
            3;112,113,114;,
            3;116,117,115;,
            3;115,114,116;,
            3;118,120,119;,
            3;119,121,118;,
            3;122,123,120;,
            3;120,118,122;,
            3;124,125,123;,
            3;123,122,124;,
            3;124,127,126;,
            3;126,125,124;,
            3;127,129,128;,
            3;128,126,127;,
            3;130,132,131;,
            3;131,133,130;,
            3;132,135,134;,
            3;134,131,132;,
            3;135,137,136;,
            3;136,134,135;,
            3;138,139,136;,
            3;136,137,138;,
            3;140,141,139;,
            3;139,138,140;,
            3;99,97,142;,
            3;142,143,99;,
            3;144,121,119;,
            3;119,145,144;,
            3;146,117,116;,
            3;116,147,146;,
            3;144,145,146;,
            3;146,147,144;,
            3;108,149,148;,
            3;148,107,108;,
            3;150,151,104;,
            3;104,105,150;,
            3;149,151,150;,
            3;150,148,149;,
            3;142,153,152;,
            3;152,143,142;,
            3;140,155,154;,
            3;154,141,140;,
            3;152,153,154;,
            3;154,155,152;,
            3;203,157,156;,
            3;156,204,203;,
            3;158,159,128;,
            3;128,129,158;,
            3;158,156,157;,
            3;157,159,158;,
            3;117,161,160;,
            3;160,119,117;,
            3;119,160,162;,
            3;162,145,119;,
            3;145,162,163;,
            3;163,146,145;,
            3;163,161,117;,
            3;117,146,163;,
            3;104,165,164;,
            3;164,108,104;,
            3;164,166,149;,
            3;149,108,164;,
            3;167,151,149;,
            3;149,166,167;,
            3;151,167,165;,
            3;165,104,151;,
            3;141,169,168;,
            3;168,142,141;,
            3;170,153,142;,
            3;142,168,170;,
            3;153,170,171;,
            3;171,154,153;,
            3;141,154,171;,
            3;171,169,141;,
            3;172,173,203;,
            3;203,128,172;,
            3;173,174,157;,
            3;157,203,173;,
            3;157,174,175;,
            3;175,159,157;,
            3;159,175,172;,
            3;172,128,159;,
            3;97,98,176;,
            3;176,177,97;,
            3;98,101,178;,
            3;178,176,98;,
            3;101,103,179;,
            3;179,178,101;,
            3;103,104,180;,
            3;180,179,103;,
            3;104,108,181;,
            3;181,180,104;,
            3;181,108,106;,
            3;106,182,181;,
            3;182,106,110;,
            3;110,183,182;,
            3;183,110,112;,
            3;112,184,183;,
            3;184,112,115;,
            3;115,185,184;,
            3;185,115,117;,
            3;117,186,185;,
            3;187,186,117;,
            3;117,119,187;,
            3;188,187,119;,
            3;119,120,188;,
            3;189,188,120;,
            3;120,123,189;,
            3;190,189,123;,
            3;123,125,190;,
            3;191,190,125;,
            3;125,126,191;,
            3;192,191,126;,
            3;126,128,192;,
            3;193,192,128;,
            3;128,203,193;,
            3;131,194,205;,
            3;205,133,131;,
            3;134,195,194;,
            3;194,131,134;,
            3;136,196,195;,
            3;195,134,136;,
            3;139,197,196;,
            3;196,136,139;,
            3;141,198,197;,
            3;197,139,141;,
            3;142,199,198;,
            3;198,141,142;,
            3;97,177,199;,
            3;199,142,97;,
            3;177,176,206;,
            3;206,207,177;,
            3;176,178,208;,
            3;208,206,176;,
            3;178,179,209;,
            3;209,208,178;,
            3;179,180,210;,
            3;210,209,179;,
            3;180,181,211;,
            3;211,210,180;,
            3;211,181,182;,
            3;182,212,211;,
            3;212,182,183;,
            3;183,213,212;,
            3;213,183,184;,
            3;184,214,213;,
            3;214,184,185;,
            3;185,215,214;,
            3;215,185,186;,
            3;186,216,215;,
            3;217,216,186;,
            3;186,187,217;,
            3;218,217,187;,
            3;187,188,218;,
            3;219,218,188;,
            3;188,189,219;,
            3;220,219,189;,
            3;189,190,220;,
            3;221,220,190;,
            3;190,191,221;,
            3;222,221,191;,
            3;191,192,222;,
            3;223,222,192;,
            3;192,193,223;,
            3;194,225,224;,
            3;224,205,194;,
            3;195,226,225;,
            3;225,194,195;,
            3;196,227,226;,
            3;226,195,196;,
            3;197,228,227;,
            3;227,196,197;,
            3;198,229,228;,
            3;228,197,198;,
            3;199,230,229;,
            3;229,198,199;,
            3;177,207,230;,
            3;230,199,177;,
            3;200,232,231;,
            3;200,231,233;,
            3;200,233,234;,
            3;200,234,235;,
            3;200,235,236;,
            3;200,236,237;,
            3;200,237,238;,
            3;200,238,239;,
            3;200,239,240;,
            3;200,240,241;,
            3;200,241,242;,
            3;200,242,243;,
            3;200,243,244;,
            3;200,244,245;,
            3;200,245,246;,
            3;200,246,247;,
            3;200,247,248;,
            3;200,248,249;,
            3;200,249,250;,
            3;200,250,251;,
            3;200,251,252;,
            3;200,252,253;,
            3;200,253,254;,
            3;200,254,232;,
            3;255,257,256;,
            3;256,258,255;,
            3;259,261,260;,
            3;260,262,259;,
            3;263,265,264;,
            3;264,266,263;,
            3;267,269,268;,
            3;268,270,267;;

            MeshNormals
            {
                271;
                0.000243;1.000000;-0.000065;,
                0.000252;1.000000;-0.000012;,
                0.000243;1.000000;-0.000065;,
                0.000252;1.000000;0.000010;,
                0.000246;1.000000;0.000054;,
                0.000241;1.000000;0.000075;,
                0.000224;1.000000;0.000116;,
                0.000213;1.000000;0.000135;,
                0.000186;1.000000;0.000170;,
                0.000171;1.000000;0.000185;,
                0.000136;1.000000;0.000212;,
                0.000117;1.000000;0.000223;,
                0.000077;1.000000;0.000240;,
                0.000055;1.000000;0.000246;,
                -0.000000;1.000000;0.000252;,
                -0.000000;1.000000;0.000252;,
                -0.000055;1.000000;0.000246;,
                -0.000077;1.000000;0.000240;,
                -0.000117;1.000000;0.000223;,
                -0.000136;1.000000;0.000212;,
                -0.000171;1.000000;0.000185;,
                -0.000186;1.000000;0.000170;,
                -0.000213;1.000000;0.000135;,
                -0.000224;1.000000;0.000116;,
                -0.000240;1.000000;0.000075;,
                -0.000246;1.000000;0.000054;,
                -0.000252;1.000000;0.000010;,
                -0.000252;1.000000;-0.000012;,
                -0.000243;1.000000;-0.000065;,
                -0.000243;1.000000;-0.000065;,
                -0.000224;1.000000;-0.000115;,
                -0.000213;1.000000;-0.000135;,
                -0.000186;1.000000;-0.000170;,
                -0.000171;1.000000;-0.000185;,
                -0.000136;1.000000;-0.000212;,
                -0.000117;1.000000;-0.000223;,
                -0.000077;1.000000;-0.000240;,
                -0.000055;1.000000;-0.000246;,
                0.000000;1.000000;-0.000252;,
                0.000000;1.000000;-0.000252;,
                0.000055;1.000000;-0.000246;,
                0.000077;1.000000;-0.000240;,
                0.000117;1.000000;-0.000223;,
                0.000136;1.000000;-0.000212;,
                0.000171;1.000000;-0.000185;,
                0.000186;1.000000;-0.000170;,
                0.000213;1.000000;-0.000135;,
                0.000224;1.000000;-0.000116;,
                0.889071;-0.117144;-0.442527;,
                0.951408;-0.117316;-0.284710;,
                0.845301;-0.117316;-0.521251;,
                0.973311;-0.117144;-0.197339;,
                0.702220;-0.117365;-0.702220;,
                0.702220;-0.117365;-0.702220;,
                0.521251;-0.117316;-0.845301;,
                0.442526;-0.117144;-0.889071;,
                0.284710;-0.117316;-0.951408;,
                0.197339;-0.117144;-0.973311;,
                0.000000;-0.117365;-0.993089;,
                0.000000;-0.117365;-0.993089;,
                -0.197339;-0.117144;-0.973311;,
                -0.284710;-0.117316;-0.951408;,
                -0.442527;-0.117144;-0.889071;,
                -0.521251;-0.117316;-0.845301;,
                -0.657556;-0.117144;-0.744243;,
                -0.722270;-0.117316;-0.681589;,
                -0.827775;-0.117144;-0.548695;,
                -0.874067;-0.117316;-0.471427;,
                -0.941581;-0.117144;-0.315755;,
                -0.966298;-0.117316;-0.229138;,
                -0.991221;-0.117144;-0.061297;,
                -0.992678;-0.117316;0.028766;,
                -0.973311;-0.117144;0.197339;,
                -0.951408;-0.117316;0.284710;,
                -0.889071;-0.117144;0.442527;,
                -0.845301;-0.117316;0.521251;,
                -0.702221;-0.117365;0.702219;,
                -0.702220;-0.117365;0.702219;,
                -0.521251;-0.117317;0.845301;,
                -0.442526;-0.117144;0.889071;,
                -0.284710;-0.117316;0.951408;,
                -0.197340;-0.117144;0.973311;,
                -0.028767;-0.117317;0.992678;,
                0.061296;-0.117144;0.991221;,
                0.257030;-0.117365;0.959250;,
                0.257030;-0.117365;0.959250;,
                0.442526;-0.117144;0.889071;,
                0.521251;-0.117317;0.845301;,
                0.657556;-0.117144;0.744243;,
                0.722270;-0.117317;0.681589;,
                0.827775;-0.117144;0.548695;,
                0.874067;-0.117317;0.471427;,
                0.941581;-0.117144;0.315755;,
                0.966298;-0.117316;0.229138;,
                0.991221;-0.117144;0.061296;,
                0.992678;-0.117316;-0.028766;,
                0.973311;-0.117144;-0.197339;,
                0.951408;-0.117316;-0.284710;,
                0.887114;0.000000;-0.461551;,
                0.732544;0.640274;-0.231144;,
                0.711514;0.536730;-0.453507;,
                0.976344;0.000000;-0.216222;,
                0.737428;0.000000;-0.675426;,
                0.569895;0.536727;-0.622209;,
                0.500000;0.000000;-0.866026;,
                0.361582;0.690665;-0.626291;,
                0.863882;0.316102;0.392157;,
                0.737525;0.000000;-0.675320;,
                -0.182432;0.536778;-0.823765;,
                -0.356703;0.000000;-0.934218;,
                -0.962247;0.236139;0.135349;,
                -0.300918;0.000000;-0.953650;,
                -0.389414;0.536803;-0.748464;,
                -0.537487;0.000000;-0.843272;,
                -0.638044;0.431038;-0.638049;,
                -0.707107;0.000000;-0.707107;,
                -0.843271;0.000000;-0.537488;,
                -0.748428;0.536860;-0.389406;,
                -0.657883;0.000000;-0.753120;,
                0.539284;0.550254;-0.637490;,
                -0.976344;-0.000000;0.216222;,
                -0.216542;0.281301;0.934868;,
                -0.804524;0.536932;0.253862;,
                -0.837579;-0.000000;0.546315;,
                -0.887114;-0.000000;0.461551;,
                -0.711401;0.536941;0.453434;,
                -0.707107;-0.000000;0.707106;,
                -0.511223;0.690865;0.511231;,
                -0.453428;0.536939;0.711406;,
                -0.461551;-0.000000;0.887114;,
                -0.896839;0.440825;-0.036789;,
                -0.753060;-0.000000;0.657952;,
                0.373859;-0.000000;0.927486;,
                0.182416;0.536893;0.823693;,
                0.300918;-0.000000;0.953650;,
                0.900138;-0.027689;-0.434724;,
                0.389395;0.536868;0.748428;,
                0.537487;-0.000000;0.843272;,
                0.638041;0.431046;0.638046;,
                0.707106;-0.000000;0.707107;,
                0.843271;-0.000000;0.537488;,
                0.748455;0.536812;0.389420;,
                0.640953;-0.000000;0.767580;,
                -0.565879;0.395568;0.723399;,
                0.215104;0.328504;-0.919682;,
                0.821781;0.000000;-0.569803;,
                -0.925090;-0.000000;0.379747;,
                -0.850463;0.470749;0.234751;,
                -0.723475;0.397724;-0.564270;,
                -0.788542;0.000000;-0.614981;,
                -0.622456;0.000000;-0.782655;,
                -0.254854;0.353615;-0.900003;,
                0.590236;-0.000000;-0.807231;,
                0.623077;0.470559;-0.624779;,
                0.911381;0.000000;-0.411565;,
                0.839768;0.477861;-0.257756;,
                0.713988;0.374171;0.591791;,
                0.769932;-0.000000;0.638126;,
                0.900138;-0.027689;-0.434724;,
                0.656733;-0.000000;0.754123;,
                0.283681;0.366052;0.886302;,
                0.373859;-0.000000;0.927486;,
                -0.614917;-0.000000;0.788592;,
                -0.639143;0.487423;0.594907;,
                0.791716;-0.507583;0.339920;,
                0.843342;-0.201366;-0.498223;,
                -0.535888;0.363636;0.761967;,
                -0.537663;0.698627;-0.472057;,
                -0.542546;-0.390932;0.743516;,
                0.742882;0.037479;0.668373;,
                -0.283238;0.553401;-0.783278;,
                0.261546;0.629724;-0.731465;,
                -0.809289;-0.462994;-0.361509;,
                -0.822646;-0.201355;0.531704;,
                0.503079;0.415844;-0.757618;,
                0.539728;0.672402;0.506527;,
                -0.363034;-0.263312;-0.893797;,
                0.890106;-0.228567;-0.394295;,
                0.326801;0.560582;0.760887;,
                -0.272340;0.651913;0.707701;,
                0.222970;0.964682;-0.140259;,
                0.310686;0.946860;-0.083248;,
                0.179072;0.964682;-0.193190;,
                0.122968;0.964682;-0.232953;,
                0.058484;0.964684;-0.256837;,
                0.000000;0.980351;-0.197262;,
                -0.058480;0.964689;-0.256818;,
                -0.122951;0.964692;-0.232920;,
                -0.179036;0.964696;-0.193152;,
                -0.222916;0.964700;-0.140225;,
                -0.310613;0.946886;-0.083228;,
                -0.263141;0.964706;0.009980;,
                -0.251583;0.964708;0.077743;,
                -0.222885;0.964710;0.140206;,
                -0.179001;0.964710;0.193114;,
                -0.122921;0.964710;0.232864;,
                -0.058464;0.964708;0.256749;,
                -0.000000;0.980363;0.197201;,
                -0.000000;0.980363;0.197201;,
                0.058468;0.964703;0.256768;,
                0.122938;0.964700;0.232897;,
                0.179037;0.964696;0.193152;,
                0.222939;0.964692;0.140240;,
                0.251651;0.964689;0.077764;,
                0.263214;0.964686;0.009983;,
                0.365201;0.911939;-0.187071;,
                0.395924;0.912135;-0.106088;,
                0.304342;0.911938;-0.275219;,
                0.222739;0.911938;-0.344610;,
                0.125956;0.911940;-0.390512;,
                0.000000;0.912139;-0.409882;,
                -0.125949;0.911951;-0.390489;,
                -0.222715;0.911958;-0.344574;,
                -0.304298;0.911964;-0.275180;,
                -0.365138;0.911971;-0.187039;,
                -0.395850;0.912169;-0.106068;,
                -0.409717;0.911980;-0.020588;,
                -0.401076;0.911984;0.086154;,
                -0.365106;0.911987;0.187022;,
                -0.304258;0.911988;0.275144;,
                -0.222679;0.911988;0.344517;,
                -0.125925;0.911986;0.390416;,
                -0.000000;0.912174;0.409802;,
                -0.000000;0.912174;0.409802;,
                0.125933;0.911975;0.390440;,
                0.222702;0.911968;0.344554;,
                0.304302;0.911962;0.275184;,
                0.365169;0.911955;0.187054;,
                0.401152;0.911949;0.086171;,
                0.409797;0.911944;-0.020592;,
                0.000000;1.000000;0.000000;,
                0.000000;1.000000;0.000000;,
                0.000000;1.000000;0.000000;,
                0.000000;1.000000;0.000000;,
                0.000000;1.000000;0.000000;,
                0.000000;1.000000;0.000000;,
                0.000000;1.000000;0.000000;,
                0.000000;1.000000;0.000000;,
                0.000000;1.000000;0.000000;,
                0.000000;1.000000;0.000000;,
                0.000000;1.000000;0.000000;,
                0.000000;1.000000;0.000000;,
                0.000000;1.000000;0.000000;,
                0.000000;1.000000;0.000000;,
                0.000000;1.000000;0.000000;,
                0.000000;1.000000;0.000000;,
                0.000000;1.000000;0.000000;,
                0.000000;1.000000;0.000000;,
                0.000000;1.000000;0.000000;,
                0.000000;1.000000;0.000000;,
                0.000000;1.000000;0.000000;,
                0.000000;1.000000;0.000000;,
                0.000000;1.000000;0.000000;,
                0.000000;1.000000;0.000000;,
                0.000000;1.000000;0.000000;,
                -0.233069;0.971286;-0.047775;,
                -0.233069;0.971286;-0.047775;,
                -0.233069;0.971286;-0.047774;,
                -0.233069;0.971286;-0.047775;,
                0.054130;0.953779;-0.295594;,
                0.054130;0.953779;-0.295594;,
                0.054130;0.953779;-0.295594;,
                0.054130;0.953779;-0.295594;,
                0.249239;0.967197;0.049094;,
                0.249239;0.967197;0.049094;,
                0.217217;0.976109;0.005261;,
                0.279858;0.955636;0.091864;,
                -0.045166;0.968055;0.246638;,
                -0.045166;0.968055;0.246638;,
                -0.045165;0.968055;0.246638;,
                -0.045166;0.968055;0.246638;;
                320;
                3;0,2,1;,
                3;1,3,0;,
                3;3,1,4;,
                3;4,5,3;,
                3;5,4,6;,
                3;6,7,5;,
                3;7,6,8;,
                3;8,9,7;,
                3;9,8,10;,
                3;10,11,9;,
                3;11,10,12;,
                3;12,13,11;,
                3;13,12,14;,
                3;14,15,13;,
                3;14,17,16;,
                3;16,15,14;,
                3;17,19,18;,
                3;18,16,17;,
                3;19,21,20;,
                3;20,18,19;,
                3;21,23,22;,
                3;22,20,21;,
                3;23,25,24;,
                3;24,22,23;,
                3;25,27,26;,
                3;26,24,25;,
                3;27,29,28;,
                3;28,26,27;,
                3;30,31,28;,
                3;28,29,30;,
                3;32,33,31;,
                3;31,30,32;,
                3;34,35,33;,
                3;33,32,34;,
                3;36,37,35;,
                3;35,34,36;,
                3;38,39,37;,
                3;37,36,38;,
                3;40,39,38;,
                3;38,41,40;,
                3;42,40,41;,
                3;41,43,42;,
                3;44,42,43;,
                3;43,45,44;,
                3;46,44,45;,
                3;45,47,46;,
                3;0,46,47;,
                3;47,2,0;,
                3;48,50,49;,
                3;49,51,48;,
                3;52,53,50;,
                3;50,48,52;,
                3;54,53,52;,
                3;52,55,54;,
                3;56,54,55;,
                3;55,57,56;,
                3;58,56,57;,
                3;57,59,58;,
                3;58,59,60;,
                3;60,61,58;,
                3;61,60,62;,
                3;62,63,61;,
                3;63,62,64;,
                3;64,65,63;,
                3;66,67,65;,
                3;65,64,66;,
                3;68,69,67;,
                3;67,66,68;,
                3;70,71,69;,
                3;69,68,70;,
                3;72,73,71;,
                3;71,70,72;,
                3;74,75,73;,
                3;73,72,74;,
                3;76,77,75;,
                3;75,74,76;,
                3;76,79,78;,
                3;78,77,76;,
                3;79,81,80;,
                3;80,78,79;,
                3;81,83,82;,
                3;82,80,81;,
                3;83,85,84;,
                3;84,82,83;,
                3;86,87,84;,
                3;84,85,86;,
                3;88,89,87;,
                3;87,86,88;,
                3;90,91,89;,
                3;89,88,90;,
                3;92,93,91;,
                3;91,90,92;,
                3;94,95,93;,
                3;93,92,94;,
                3;96,97,95;,
                3;95,94,96;,
                3;98,100,99;,
                3;99,101,98;,
                3;102,103,100;,
                3;100,98,102;,
                3;103,102,104;,
                3;104,105,103;,
                3;106,105,104;,
                3;104,107,106;,
                3;108,110,109;,
                3;109,111,108;,
                3;112,108,111;,
                3;111,113,112;,
                3;114,112,113;,
                3;113,115,114;,
                3;116,117,114;,
                3;114,115,116;,
                3;118,119,117;,
                3;117,116,118;,
                3;120,122,121;,
                3;121,123,120;,
                3;124,125,122;,
                3;122,120,124;,
                3;126,127,125;,
                3;125,124,126;,
                3;126,129,128;,
                3;128,127,126;,
                3;129,131,130;,
                3;130,128,129;,
                3;132,134,133;,
                3;133,135,132;,
                3;134,137,136;,
                3;136,133,134;,
                3;137,139,138;,
                3;138,136,137;,
                3;140,141,138;,
                3;138,139,140;,
                3;142,143,141;,
                3;141,140,142;,
                3;101,99,144;,
                3;144,145,101;,
                3;146,123,121;,
                3;121,147,146;,
                3;148,119,118;,
                3;118,149,148;,
                3;146,147,148;,
                3;148,149,146;,
                3;110,151,150;,
                3;150,109,110;,
                3;152,153,106;,
                3;106,107,152;,
                3;151,153,152;,
                3;152,150,151;,
                3;144,155,154;,
                3;154,145,144;,
                3;142,157,156;,
                3;156,143,142;,
                3;154,155,156;,
                3;156,157,154;,
                3;158,160,159;,
                3;159,161,158;,
                3;162,163,130;,
                3;130,131,162;,
                3;162,159,160;,
                3;160,163,162;,
                3;119,165,164;,
                3;164,121,119;,
                3;121,164,166;,
                3;166,147,121;,
                3;147,166,167;,
                3;167,148,147;,
                3;167,165,119;,
                3;119,148,167;,
                3;106,169,168;,
                3;168,110,106;,
                3;168,170,151;,
                3;151,110,168;,
                3;171,153,151;,
                3;151,170,171;,
                3;153,171,169;,
                3;169,106,153;,
                3;143,173,172;,
                3;172,144,143;,
                3;174,155,144;,
                3;144,172,174;,
                3;155,174,175;,
                3;175,156,155;,
                3;143,156,175;,
                3;175,173,143;,
                3;176,177,158;,
                3;158,130,176;,
                3;177,178,160;,
                3;160,158,177;,
                3;160,178,179;,
                3;179,163,160;,
                3;163,179,176;,
                3;176,130,163;,
                3;99,100,180;,
                3;180,181,99;,
                3;100,103,182;,
                3;182,180,100;,
                3;103,105,183;,
                3;183,182,103;,
                3;105,106,184;,
                3;184,183,105;,
                3;106,110,185;,
                3;185,184,106;,
                3;185,110,108;,
                3;108,186,185;,
                3;186,108,112;,
                3;112,187,186;,
                3;187,112,114;,
                3;114,188,187;,
                3;188,114,117;,
                3;117,189,188;,
                3;189,117,119;,
                3;119,190,189;,
                3;191,190,119;,
                3;119,121,191;,
                3;192,191,121;,
                3;121,122,192;,
                3;193,192,122;,
                3;122,125,193;,
                3;194,193,125;,
                3;125,127,194;,
                3;195,194,127;,
                3;127,128,195;,
                3;196,195,128;,
                3;128,130,196;,
                3;197,196,130;,
                3;130,158,197;,
                3;133,199,198;,
                3;198,135,133;,
                3;136,200,199;,
                3;199,133,136;,
                3;138,201,200;,
                3;200,136,138;,
                3;141,202,201;,
                3;201,138,141;,
                3;143,203,202;,
                3;202,141,143;,
                3;144,204,203;,
                3;203,143,144;,
                3;99,181,204;,
                3;204,144,99;,
                3;181,180,205;,
                3;205,206,181;,
                3;180,182,207;,
                3;207,205,180;,
                3;182,183,208;,
                3;208,207,182;,
                3;183,184,209;,
                3;209,208,183;,
                3;184,185,210;,
                3;210,209,184;,
                3;210,185,186;,
                3;186,211,210;,
                3;211,186,187;,
                3;187,212,211;,
                3;212,187,188;,
                3;188,213,212;,
                3;213,188,189;,
                3;189,214,213;,
                3;214,189,190;,
                3;190,215,214;,
                3;216,215,190;,
                3;190,191,216;,
                3;217,216,191;,
                3;191,192,217;,
                3;218,217,192;,
                3;192,193,218;,
                3;219,218,193;,
                3;193,194,219;,
                3;220,219,194;,
                3;194,195,220;,
                3;221,220,195;,
                3;195,196,221;,
                3;222,221,196;,
                3;196,197,222;,
                3;199,224,223;,
                3;223,198,199;,
                3;200,225,224;,
                3;224,199,200;,
                3;201,226,225;,
                3;225,200,201;,
                3;202,227,226;,
                3;226,201,202;,
                3;203,228,227;,
                3;227,202,203;,
                3;204,229,228;,
                3;228,203,204;,
                3;181,206,229;,
                3;229,204,181;,
                3;230,232,231;,
                3;230,231,233;,
                3;230,233,234;,
                3;230,234,235;,
                3;230,235,236;,
                3;230,236,237;,
                3;230,237,238;,
                3;230,238,239;,
                3;230,239,240;,
                3;230,240,241;,
                3;230,241,242;,
                3;230,242,243;,
                3;230,243,244;,
                3;230,244,245;,
                3;230,245,246;,
                3;230,246,247;,
                3;230,247,248;,
                3;230,248,249;,
                3;230,249,250;,
                3;230,250,251;,
                3;230,251,252;,
                3;230,252,253;,
                3;230,253,254;,
                3;230,254,232;,
                3;255,257,256;,
                3;256,258,255;,
                3;259,261,260;,
                3;260,262,259;,
                3;263,265,264;,
                3;264,266,263;,
                3;267,269,268;,
                3;268,270,267;;
            }

            MeshTextureCoords
            {
                271;
                0.882915;0.606479;,
                0.852832;0.502697;,
                0.840637;0.595176;,
                0.896601;0.502686;,
                0.840637;0.410219;,
                0.882915;0.398894;,
                0.804885;0.324043;,
                0.842789;0.302176;,
                0.748012;0.250041;,
                0.778958;0.219122;,
                0.673893;0.193258;,
                0.695772;0.155392;,
                0.587580;0.157563;,
                0.598900;0.115330;,
                0.494955;0.145388;,
                0.494944;0.101665;,
                0.390987;0.115330;,
                0.402329;0.157563;,
                0.294115;0.155392;,
                0.316016;0.193258;,
                0.210929;0.219122;,
                0.241898;0.250041;,
                0.147098;0.302176;,
                0.185024;0.324043;,
                0.106972;0.398895;,
                0.149272;0.410219;,
                0.093286;0.502687;,
                0.137078;0.502698;,
                0.106972;0.606479;,
                0.149272;0.595176;,
                0.185024;0.681353;,
                0.147098;0.703198;,
                0.241898;0.755354;,
                0.210929;0.786252;,
                0.316016;0.812137;,
                0.294115;0.849981;,
                0.402330;0.847833;,
                0.390987;0.890044;,
                0.494955;0.860008;,
                0.494944;0.903708;,
                0.598900;0.890044;,
                0.587580;0.847833;,
                0.695773;0.849981;,
                0.673893;0.812137;,
                0.778959;0.786252;,
                0.748012;0.755354;,
                0.842789;0.703197;,
                0.804885;0.681353;,
                1.000000;-0.991536;,
                0.000000;-1.078125;,
                0.000000;-0.991536;,
                1.000000;-1.078125;,
                1.000000;-0.904948;,
                0.000000;-0.904948;,
                0.000000;-0.818359;,
                1.000000;-0.818359;,
                0.000000;-0.731771;,
                1.000000;-0.731771;,
                0.000000;-0.645182;,
                1.000000;-0.645182;,
                1.000000;-0.558594;,
                0.000000;-0.558594;,
                1.000000;-0.472005;,
                0.000000;-0.472005;,
                1.000000;-0.385417;,
                0.000000;-0.385417;,
                1.000000;-0.298828;,
                0.000000;-0.298828;,
                1.000000;-0.212240;,
                0.000000;-0.212240;,
                1.000000;-0.125651;,
                0.000000;-0.125651;,
                1.000000;-0.039062;,
                0.000000;-0.039063;,
                1.000000;0.047526;,
                0.000000;0.047526;,
                1.000000;0.134115;,
                0.000000;0.134114;,
                0.000000;0.220703;,
                1.000000;0.220703;,
                0.000000;0.307292;,
                1.000000;0.307292;,
                0.000000;0.393880;,
                1.000000;0.393880;,
                0.000000;0.480469;,
                1.000000;0.480469;,
                1.000000;0.567057;,
                0.000000;0.567057;,
                1.000000;0.653646;,
                0.000000;0.653646;,
                1.000000;0.740234;,
                -0.000000;0.740234;,
                1.000000;0.826823;,
                -0.000000;0.826823;,
                1.000000;0.913412;,
                -0.000000;0.913411;,
                0.070746;0.636965;,
                0.370219;0.676869;,
                0.370414;0.636965;,
                0.069980;0.676869;,
                0.071566;0.597143;,
                0.370622;0.597143;,
                0.072380;0.557405;,
                0.370830;0.557405;,
                0.371021;0.517748;,
                0.073136;0.517748;,
                0.371311;0.438637;,
                0.073782;0.478164;,
                0.371186;0.478164;,
                0.074276;0.438637;,
                0.371390;0.399152;,
                0.074587;0.399152;,
                0.371418;0.359688;,
                0.074695;0.359688;,
                0.074593;0.320225;,
                0.371392;0.320225;,
                0.074287;0.280741;,
                0.371314;0.280741;,
                0.073155;0.201633;,
                0.371190;0.241216;,
                0.371026;0.201633;,
                0.073797;0.241216;,
                0.072401;0.161978;,
                0.370835;0.161978;,
                0.071587;0.122243;,
                0.370628;0.122243;,
                0.370420;0.082423;,
                0.070768;0.082423;,
                0.370224;0.042520;,
                0.069999;0.042520;,
                0.069334;0.957299;,
                0.369924;0.917259;,
                0.068820;0.917259;,
                0.370055;0.957297;,
                0.369842;0.877178;,
                0.068496;0.877178;,
                0.369813;0.837073;,
                0.068383;0.837073;,
                0.068490;0.796969;,
                0.369840;0.796969;,
                0.068809;0.756887;,
                0.369921;0.756887;,
                0.370051;0.716847;,
                0.069318;0.716847;,
                0.124110;0.244136;,
                0.383943;0.244136;,
                0.384080;0.278498;,
                0.124654;0.278498;,
                0.120636;0.481333;,
                0.383068;0.481333;,
                0.120522;0.516083;,
                0.383040;0.516083;,
                0.124043;0.719998;,
                0.383926;0.719998;,
                0.383873;0.754405;,
                0.123833;0.754405;,
                0.120705;0.005486;,
                0.383086;0.005486;,
                0.121368;0.040189;,
                0.383253;0.040189;,
                0.930892;0.239125;,
                0.940308;0.263252;,
                0.817857;0.241118;,
                0.824015;0.262258;,
                0.920133;0.478407;,
                0.927681;0.504708;,
                0.802454;0.480516;,
                0.807262;0.503847;,
                0.921265;0.718955;,
                0.941482;0.743225;,
                0.806599;0.720624;,
                0.802213;0.741670;,
                0.937799;0.029256;,
                0.930746;0.002307;,
                0.814103;0.004285;,
                0.818678;0.027899;,
                0.359476;0.636830;,
                0.359235;0.676747;,
                0.359733;0.597005;,
                0.359988;0.557274;,
                0.360225;0.517632;,
                0.360426;0.478072;,
                0.360580;0.438573;,
                0.360677;0.399121;,
                0.360709;0.359693;,
                0.360677;0.320264;,
                0.360580;0.280813;,
                0.360426;0.241315;,
                0.360225;0.201753;,
                0.359988;0.162112;,
                0.359733;0.122380;,
                0.359476;0.082555;,
                0.359235;0.042639;,
                0.359027;0.002640;,
                0.358866;0.917325;,
                0.358765;0.877210;,
                0.358730;0.837069;,
                0.358765;0.796929;,
                0.358866;0.756813;,
                0.359027;0.716746;,
                0.500000;0.500000;,
                1.000000;1.000000;,
                -0.000000;1.000000;,
                0.370055;0.002544;,
                0.069334;0.002546;,
                0.359027;0.957393;,
                0.545402;0.636515;,
                0.545609;0.676462;,
                0.545181;0.596682;,
                0.544963;0.556965;,
                0.544761;0.517358;,
                0.544589;0.477850;,
                0.544459;0.438419;,
                0.544377;0.399045;,
                0.544350;0.359699;,
                0.544379;0.320352;,
                0.544462;0.280976;,
                0.544594;0.241544;,
                0.544766;0.202033;,
                0.544968;0.162423;,
                0.545187;0.122703;,
                0.545407;0.082867;,
                0.545614;0.042918;,
                0.545793;0.002867;,
                0.545793;0.957620;,
                0.545931;0.917484;,
                0.546017;0.877289;,
                0.546046;0.837063;,
                0.546016;0.796838;,
                0.545928;0.756644;,
                0.545789;0.716510;,
                0.933013;0.750000;,
                0.982963;0.629410;,
                0.853553;0.853553;,
                0.750000;0.933013;,
                0.629409;0.982963;,
                0.500000;1.000000;,
                0.370590;0.982963;,
                0.250000;0.933013;,
                0.146447;0.853554;,
                0.066987;0.750000;,
                0.017037;0.629410;,
                0.000000;0.500000;,
                0.017037;0.370591;,
                0.066987;0.250000;,
                0.146446;0.146447;,
                0.250000;0.066987;,
                0.370590;0.017037;,
                0.500000;0.000000;,
                0.629409;0.017037;,
                0.750000;0.066987;,
                0.853553;0.146446;,
                0.933012;0.250000;,
                0.982963;0.370590;,
                1.000000;0.500000;,
                0.040717;0.568863;,
                -0.040325;0.502228;,
                -0.025306;0.575383;,
                0.025697;0.495708;,
                0.585428;1.028707;,
                0.496102;0.982837;,
                0.503412;1.043702;,
                0.578118;0.967842;,
                1.039207;0.489199;,
                0.953068;0.422553;,
                0.968087;0.495708;,
                1.024188;0.416044;,
                0.496102;0.027679;,
                0.406789;-0.023244;,
                0.414086;0.042675;,
                0.488805;-0.038239;;
            }

            VertexDuplicationIndices
            {
                271;
                201;
                0,
                1,
                2,
                3,
                4,
                5,
                6,
                7,
                8,
                9,
                10,
                11,
                12,
                13,
                14,
                15,
                16,
                17,
                18,
                19,
                20,
                21,
                22,
                23,
                24,
                25,
                26,
                27,
                28,
                29,
                30,
                31,
                32,
                33,
                34,
                35,
                36,
                37,
                38,
                39,
                40,
                41,
                42,
                43,
                44,
                45,
                46,
                47,
                48,
                49,
                50,
                51,
                52,
                53,
                54,
                55,
                56,
                57,
                58,
                59,
                60,
                61,
                62,
                63,
                64,
                65,
                66,
                67,
                68,
                69,
                70,
                71,
                72,
                73,
                74,
                75,
                76,
                77,
                78,
                79,
                80,
                81,
                82,
                83,
                84,
                85,
                86,
                87,
                88,
                89,
                90,
                91,
                92,
                93,
                94,
                95,
                96,
                97,
                98,
                99,
                100,
                101,
                102,
                103,
                104,
                105,
                106,
                107,
                108,
                109,
                110,
                111,
                112,
                113,
                114,
                115,
                116,
                117,
                118,
                119,
                120,
                121,
                122,
                123,
                124,
                125,
                126,
                127,
                128,
                129,
                130,
                131,
                132,
                133,
                134,
                135,
                136,
                137,
                138,
                139,
                140,
                141,
                142,
                143,
                144,
                145,
                146,
                147,
                148,
                149,
                150,
                151,
                152,
                153,
                154,
                155,
                156,
                157,
                158,
                159,
                160,
                161,
                162,
                163,
                164,
                165,
                166,
                167,
                168,
                169,
                170,
                171,
                172,
                173,
                174,
                175,
                176,
                177,
                178,
                179,
                180,
                181,
                182,
                183,
                184,
                185,
                186,
                187,
                188,
                189,
                190,
                191,
                192,
                193,
                194,
                195,
                196,
                197,
                198,
                199,
                200;
                51,
                49,
                133,
                130,
                193,
                46,
                0,
                44,
                42,
                40,
                39,
                37,
                35,
                33,
                31,
                28,
                26,
                24,
                22,
                20,
                18,
                16,
                15,
                15,
                13,
                11,
                9,
                7,
                5,
                3,
                47,
                2,
                45,
                43,
                41,
                38,
                36,
                34,
                32,
                30,
                29,
                27,
                25,
                23,
                21,
                19,
                17,
                14,
                12,
                10,
                8,
                6,
                4,
                1,
                161,
                162,
                163,
                160,
                167,
                164,
                166,
                165,
                170,
                169,
                168,
                171,
                173,
                175,
                172,
                174;
            }

            MeshMaterialList
            {
                4;
                320;
                3,
                3,
                3,
                3,
                3,
                3,
                3,
                3,
                3,
                3,
                3,
                3,
                3,
                3,
                3,
                3,
                3,
                3,
                3,
                3,
                3,
                3,
                3,
                3,
                3,
                3,
                3,
                3,
                3,
                3,
                3,
                3,
                3,
                3,
                3,
                3,
                3,
                3,
                3,
                3,
                3,
                3,
                3,
                3,
                3,
                3,
                3,
                3,
                1,
                1,
                1,
                1,
                1,
                1,
                1,
                1,
                1,
                1,
                1,
                1,
                1,
                1,
                1,
                1,
                1,
                1,
                1,
                1,
                1,
                1,
                1,
                1,
                1,
                1,
                1,
                1,
                1,
                1,
                1,
                1,
                1,
                1,
                1,
                1,
                1,
                1,
                1,
                1,
                1,
                1,
                1,
                1,
                1,
                1,
                1,
                1,
                2,
                2,
                2,
                2,
                2,
                2,
                2,
                2,
                2,
                2,
                2,
                2,
                2,
                2,
                2,
                2,
                2,
                2,
                2,
                2,
                2,
                2,
                2,
                2,
                2,
                2,
                2,
                2,
                2,
                2,
                2,
                2,
                2,
                2,
                2,
                2,
                2,
                2,
                2,
                2,
                2,
                2,
                2,
                2,
                2,
                2,
                2,
                2,
                2,
                2,
                2,
                2,
                2,
                2,
                2,
                2,
                2,
                2,
                2,
                2,
                2,
                2,
                2,
                2,
                2,
                2,
                2,
                2,
                2,
                2,
                2,
                2,
                2,
                2,
                2,
                2,
                2,
                2,
                2,
                2,
                2,
                2,
                2,
                2,
                2,
                2,
                2,
                2,
                2,
                2,
                2,
                2,
                2,
                2,
                2,
                2,
                2,
                2,
                2,
                2,
                2,
                2,
                2,
                2,
                2,
                2,
                2,
                2,
                2,
                2,
                2,
                2,
                2,
                2,
                2,
                2,
                2,
                2,
                2,
                2,
                2,
                2,
                2,
                2,
                2,
                2,
                2,
                2,
                2,
                2,
                2,
                2,
                2,
                2,
                2,
                2,
                2,
                2,
                2,
                2,
                2,
                2,
                2,
                2,
                2,
                2,
                2,
                2,
                2,
                2,
                2,
                2,
                2,
                2,
                2,
                2,
                2,
                2,
                2,
                2,
                2,
                2,
                2,
                2,
                2,
                2,
                2,
                2,
                2,
                2,
                2,
                2,
                2,
                2,
                2,
                2,
                2,
                2,
                2,
                2,
                2,
                2,
                2,
                2,
                2,
                2,
                2,
                2,
                2,
                2,
                2,
                2,
                0,
                0,
                0,
                0,
                0,
                0,
                0,
                0,
                0,
                0,
                0,
                0,
                0,
                0,
                0,
                0,
                0,
                0,
                0,
                0,
                0,
                0,
                0,
                0,
                2,
                2,
                2,
                2,
                2,
                2,
                2,
                2;

                Material Material0
                {
                    0.800000;0.800000;0.800000;1.000000;;
                    0.000000;
                    0.000000;0.000000;0.000000;;
                    0.000000;0.000000;0.000000;;

                    TextureFileName
                    {
                        "C:/Program_Files_(x86)/The_Game_Creators/Dark_Basic_Professional_Online/Projects/Light_Ship/media/objects/teleporter/centre.png";
                    }
                }

                Material Material1
                {
                    0.800000;0.800000;0.800000;1.000000;;
                    0.000000;
                    0.000000;0.000000;0.000000;;
                    0.000000;0.000000;0.000000;;

                    TextureFileName
                    {
                        "C:/Program_Files_(x86)/The_Game_Creators/Dark_Basic_Professional_Online/Projects/Light_Ship/media/objects/teleporter/force.png";
                    }
                }

                Material Material2
                {
                    0.800000;0.800000;0.800000;1.000000;;
                    0.000000;
                    0.000000;0.000000;0.000000;;
                    0.000000;0.000000;0.000000;;

                    TextureFileName
                    {
                        "C:/Program_Files_(x86)/The_Game_Creators/Dark_Basic_Professional_Online/Projects/Light_Ship/media/objects/teleporter/metal.jpg";
                    }
                }

                Material Material3
                {
                    0.800000;0.800000;0.800000;1.000000;;
                    0.000000;
                    0.000000;0.000000;0.000000;;
                    0.000000;0.000000;0.000000;;

                    TextureFileName
                    {
                        "C:/Program_Files_(x86)/The_Game_Creators/Dark_Basic_Professional_Online/Projects/Light_Ship/media/objects/teleporter/ring.png";
                    }
                }
            }

            XSkinMeshHeader
            {
                4;
                12;
                2;
            }

            SkinWeights
            {
                "Joint1";
                221;
                0,
                1,
                2,
                3,
                4,
                5,
                6,
                7,
                8,
                9,
                10,
                11,
                12,
                13,
                14,
                15,
                16,
                17,
                18,
                19,
                20,
                21,
                22,
                23,
                24,
                25,
                26,
                27,
                28,
                29,
                30,
                31,
                32,
                33,
                34,
                35,
                36,
                37,
                38,
                39,
                40,
                41,
                42,
                43,
                44,
                45,
                46,
                47,
                96,
                97,
                98,
                99,
                100,
                101,
                102,
                103,
                104,
                105,
                106,
                107,
                108,
                109,
                110,
                111,
                112,
                113,
                114,
                115,
                116,
                117,
                118,
                119,
                120,
                121,
                122,
                123,
                124,
                125,
                126,
                127,
                128,
                129,
                130,
                131,
                132,
                133,
                134,
                135,
                136,
                137,
                138,
                139,
                140,
                141,
                142,
                143,
                144,
                145,
                146,
                147,
                148,
                149,
                150,
                151,
                152,
                153,
                154,
                155,
                156,
                157,
                158,
                159,
                160,
                161,
                162,
                163,
                164,
                165,
                166,
                167,
                168,
                169,
                170,
                171,
                172,
                173,
                174,
                175,
                176,
                177,
                178,
                179,
                180,
                181,
                182,
                183,
                184,
                185,
                186,
                187,
                188,
                189,
                190,
                191,
                192,
                193,
                194,
                195,
                196,
                197,
                198,
                199,
                200,
                203,
                204,
                205,
                206,
                207,
                208,
                209,
                210,
                211,
                212,
                213,
                214,
                215,
                216,
                217,
                218,
                219,
                220,
                221,
                222,
                223,
                224,
                225,
                226,
                227,
                228,
                229,
                230,
                231,
                232,
                233,
                234,
                235,
                236,
                237,
                238,
                239,
                240,
                241,
                242,
                243,
                244,
                245,
                246,
                247,
                248,
                249,
                250,
                251,
                252,
                253,
                254,
                255,
                256,
                257,
                258,
                259,
                260,
                261,
                262,
                263,
                264,
                265,
                266,
                267,
                268,
                269,
                270;
                1.000000,
                1.000000,
                1.000000,
                1.000000,
                1.000000,
                1.000000,
                1.000000,
                1.000000,
                1.000000,
                1.000000,
                1.000000,
                1.000000,
                1.000000,
                1.000000,
                1.000000,
                1.000000,
                1.000000,
                1.000000,
                1.000000,
                1.000000,
                1.000000,
                1.000000,
                1.000000,
                1.000000,
                1.000000,
                1.000000,
                1.000000,
                1.000000,
                1.000000,
                1.000000,
                1.000000,
                1.000000,
                1.000000,
                1.000000,
                1.000000,
                1.000000,
                1.000000,
                1.000000,
                1.000000,
                1.000000,
                1.000000,
                1.000000,
                1.000000,
                1.000000,
                1.000000,
                1.000000,
                1.000000,
                1.000000,
                1.000000,
                1.000000,
                1.000000,
                1.000000,
                1.000000,
                1.000000,
                1.000000,
                1.000000,
                1.000000,
                1.000000,
                1.000000,
                1.000000,
                1.000000,
                1.000000,
                1.000000,
                1.000000,
                1.000000,
                1.000000,
                1.000000,
                1.000000,
                1.000000,
                1.000000,
                1.000000,
                1.000000,
                1.000000,
                1.000000,
                1.000000,
                1.000000,
                1.000000,
                1.000000,
                1.000000,
                1.000000,
                1.000000,
                1.000000,
                1.000000,
                1.000000,
                1.000000,
                1.000000,
                1.000000,
                1.000000,
                1.000000,
                1.000000,
                1.000000,
                1.000000,
                1.000000,
                1.000000,
                1.000000,
                1.000000,
                1.000000,
                1.000000,
                1.000000,
                1.000000,
                1.000000,
                1.000000,
                1.000000,
                1.000000,
                1.000000,
                1.000000,
                1.000000,
                1.000000,
                1.000000,
                1.000000,
                1.000000,
                1.000000,
                1.000000,
                1.000000,
                1.000000,
                1.000000,
                1.000000,
                1.000000,
                1.000000,
                1.000000,
                1.000000,
                1.000000,
                1.000000,
                1.000000,
                1.000000,
                1.000000,
                1.000000,
                1.000000,
                1.000000,
                1.000000,
                1.000000,
                1.000000,
                1.000000,
                1.000000,
                1.000000,
                1.000000,
                1.000000,
                1.000000,
                1.000000,
                1.000000,
                1.000000,
                1.000000,
                1.000000,
                1.000000,
                1.000000,
                1.000000,
                1.000000,
                1.000000,
                1.000000,
                1.000000,
                1.000000,
                1.000000,
                1.000000,
                1.000000,
                1.000000,
                1.000000,
                1.000000,
                1.000000,
                1.000000,
                1.000000,
                1.000000,
                1.000000,
                1.000000,
                1.000000,
                1.000000,
                1.000000,
                1.000000,
                1.000000,
                1.000000,
                1.000000,
                1.000000,
                1.000000,
                1.000000,
                1.000000,
                1.000000,
                1.000000,
                1.000000,
                1.000000,
                1.000000,
                1.000000,
                1.000000,
                1.000000,
                1.000000,
                1.000000,
                1.000000,
                1.000000,
                1.000000,
                1.000000,
                1.000000,
                1.000000,
                1.000000,
                1.000000,
                1.000000,
                1.000000,
                1.000000,
                1.000000,
                1.000000,
                1.000000,
                1.000000,
                1.000000,
                1.000000,
                1.000000,
                1.000000,
                1.000000,
                1.000000,
                1.000000,
                1.000000,
                1.000000,
                1.000000,
                1.000000,
                1.000000,
                1.000000,
                1.000000,
                1.000000,
                1.000000,
                1.000000,
                1.000000,
                1.000000,
                1.000000,
                1.000000,
                1.000000;
                1.000000,0.000000,0.000000,0.000000,
                0.000000,1.000000,0.000000,0.000000,
                0.000000,-0.000000,1.000000,0.000000,
                0.075535,0.194048,-0.000000,1.000000;;
            }

            SkinWeights
            {
                "Joint2";
                50;
                48,
                49,
                50,
                51,
                52,
                53,
                54,
                55,
                56,
                57,
                58,
                59,
                60,
                61,
                62,
                63,
                64,
                65,
                66,
                67,
                68,
                69,
                70,
                71,
                72,
                73,
                74,
                75,
                76,
                77,
                78,
                79,
                80,
                81,
                82,
                83,
                84,
                85,
                86,
                87,
                88,
                89,
                90,
                91,
                92,
                93,
                94,
                95,
                201,
                202;
                1.000000,
                1.000000,
                1.000000,
                1.000000,
                1.000000,
                1.000000,
                1.000000,
                1.000000,
                1.000000,
                1.000000,
                1.000000,
                1.000000,
                1.000000,
                1.000000,
                1.000000,
                1.000000,
                1.000000,
                1.000000,
                1.000000,
                1.000000,
                1.000000,
                1.000000,
                1.000000,
                1.000000,
                1.000000,
                1.000000,
                1.000000,
                1.000000,
                1.000000,
                1.000000,
                1.000000,
                1.000000,
                1.000000,
                1.000000,
                1.000000,
                1.000000,
                1.000000,
                1.000000,
                1.000000,
                1.000000,
                1.000000,
                1.000000,
                1.000000,
                1.000000,
                1.000000,
                1.000000,
                1.000000,
                1.000000,
                1.000000,
                1.000000;
                1.000000,0.000000,0.000000,0.000000,
                0.000000,1.000000,0.000000,0.000000,
                0.000000,0.000000,1.000000,0.000000,
                -0.000870,-8.418494,0.028651,1.000000;;
            }
        }
    }
}

AnimationSet AnimationSet0
{
    Animation Joint1Animation
    {
        {Joint1}

        AnimationKey
        {
            2;
            4;
            0;3;-0.075535,-0.194048,0.000000;;,
            210;3;-0.075535,-0.194048,0.000000;;,
            420;3;-0.075535,-0.194048,0.000000;;,
            630;3;-0.075535,-0.194048,0.000000;;;
        }

        AnimationOptions
        {
            0;
            0;
        }

        AnimationKey
        {
            0;
            4;
            0;4;1.000000,-0.000000,-0.000000,-0.000000;;,
            210;4;1.000000,-0.000000,-0.000000,-0.000000;;,
            420;4;1.000000,-0.000000,-0.000000,-0.000000;;,
            630;4;1.000000,-0.000000,-0.000000,-0.000000;;;
        }

        AnimationOptions
        {
            0;
            0;
        }
    }

    Animation Joint2Animation
    {
        {Joint2}

        AnimationKey
        {
            2;
            4;
            0;3;0.076405,8.612542,-0.028651;;,
            210;3;0.076405,8.612542,-0.028651;;,
            420;3;0.076405,8.612542,-0.028651;;,
            630;3;0.076405,8.612542,-0.028651;;;
        }

        AnimationOptions
        {
            0;
            0;
        }

        AnimationKey
        {
            0;
            4;
            0;4;1.000000,-0.000000,-0.000000,-0.000000;;,
            210;4;0.707107,-0.000000,-0.707107,-0.000000;;,
            420;4;-0.000000,0.000000,-1.000000,-0.000000;;,
            630;4;0.707380,-0.000000,0.706834,-0.000000;;;
        }

        AnimationOptions
        {
            0;
            0;
        }
    }
}
