xof 0302txt 0064

// Created by AC3D 6.4.30  ( www.inivis.com )
// Export Plugin : 'DirectX.p' v1.9 by Frank Meinert


Material MatTex_1_1 {
  1.0; 1.0; 1.0; 1.0;;
  128.0;
  0.2; 0.2; 0.2;;
  0.0; 0.0; 0.0;;
  TextureFileName { "force field normal.png"; }
}


Frame WORLD {

FrameTransformMatrix {
  1.0, 0.0, 0.0, 0.0,
  0.0, 1.0, 0.0, 0.0,
  0.0, 0.0, 1.0, 0.0,
  0.0, 0.0, 0.0, 1.0;;
}

Frame sphere {

FrameTransformMatrix {
  1.0, 0.0, 0.0, 0.0,
  0.0, 1.0, 0.0, 0.0,
  0.0, 0.0, 1.0, 0.0,
  0.0, 0.070838, 0.0, 1.0;;
}

Mesh sphere {
43;
2.80945;6.65847;4.8661;,
5.61889;6.65847;0.0;,
0.0;7.68852;0.0;,
-2.80945;6.65847;4.8661;,
-5.61889;6.65847;0.0;,
-2.80945;6.65847;-4.8661;,
2.80945;6.65847;-4.8661;,
9.7322;3.84426;0.0;,
4.8661;3.84426;8.42834;,
4.8661;3.84426;8.42834;,
-4.8661;3.84426;8.42834;,
-4.8661;3.84426;8.42834;,
-9.7322;3.84426;0.0;,
-9.7322;3.84426;0.0;,
-4.8661;3.84426;-8.42834;,
-4.8661;3.84426;-8.42834;,
4.8661;3.84426;-8.42834;,
4.8661;3.84426;-8.42834;,
9.7322;3.84426;0.0;,
11.2378;0.0;0.0;,
9.7322;3.84426;0.0;,
4.8661;3.84426;8.42834;,
5.61889;0.0;9.7322;,
5.61889;0.0;9.7322;,
4.8661;3.84426;8.42834;,
-4.8661;3.84426;8.42834;,
-5.61889;0.0;9.7322;,
-5.61889;0.0;9.7322;,
-4.8661;3.84426;8.42834;,
-9.7322;3.84426;0.0;,
-11.2378;0.0;0.0;,
-11.2378;0.0;0.0;,
-9.7322;3.84426;0.0;,
-4.8661;3.84426;-8.42834;,
-5.61889;0.0;-9.7322;,
-5.61889;0.0;-9.7322;,
-4.8661;3.84426;-8.42834;,
4.8661;3.84426;-8.42834;,
5.61889;0.0;-9.7322;,
5.61889;0.0;-9.7322;,
4.8661;3.84426;-8.42834;,
9.7322;3.84426;0.0;,
11.2378;0.0;0.0;;

18;
3;0,1,2;,
3;3,0,2;,
3;4,3,2;,
3;5,4,2;,
3;6,5,2;,
3;1,6,2;,
4;7,1,0,8;,
4;9,0,3,10;,
4;11,3,4,12;,
4;13,4,5,14;,
4;15,5,6,16;,
4;17,6,1,18;,
4;19,20,21,22;,
4;23,24,25,26;,
4;27,28,29,30;,
4;31,32,33,34;,
4;35,36,37,38;,
4;39,40,41,42;;

MeshMaterialList {
1;
18;
0,
0,
0,
0,
0,
0,
0,
0,
0,
0,
0,
0,
0,
0,
0,
0,
0,
0;;
{ MatTex_1_1 }
}

MeshTextureCoords {
43;
-0.007812;0.0;,
-0.007812;0.0;,
-0.007812;0.0;,
-0.007812;0.0;,
-0.007812;0.0;,
-0.007812;0.0;,
-0.007812;0.0;,
-0.007812;0.0;,
-0.007812;0.0;,
-0.007812;0.0;,
-0.007812;0.0;,
-0.007812;0.0;,
-0.007812;0.0;,
-0.007812;0.0;,
-0.007812;0.0;,
-0.007812;0.0;,
-0.007812;0.0;,
-0.007812;0.0;,
-0.007812;0.0;,
-0.007812;0.0;,
-0.007812;0.0;,
-0.007812;0.0;,
-0.007812;0.0;,
-0.007812;0.0;,
-0.007812;0.0;,
-0.007812;0.0;,
-0.007812;0.0;,
-0.007812;0.0;,
-0.007812;0.0;,
-0.007812;0.0;,
-0.007812;0.0;,
-0.007812;0.0;,
-0.007812;0.0;,
-0.007812;0.0;,
-0.007812;0.0;,
-0.007812;0.0;,
-0.007812;0.0;,
-0.007812;0.0;,
-0.007812;0.0;,
-0.007812;0.0;,
-0.007812;0.0;,
-0.007812;0.0;,
-0.007812;0.0;;
}

MeshNormals{
43;
0.188184;0.92647;0.325945;,
0.376368;0.92647;0.0;,
0.0;1.0;0.0;,
-0.188184;0.92647;0.325945;,
-0.376369;0.92647;0.0;,
-0.188184;0.92647;-0.325945;,
0.188184;0.92647;-0.325945;,
0.696896;0.695684;0.17424;,
0.499345;0.695684;0.516409;,
0.197551;0.695684;0.69065;,
-0.197551;0.695684;0.69065;,
-0.499345;0.695684;0.516409;,
-0.696896;0.695684;0.17424;,
-0.696896;0.695684;-0.17424;,
-0.499345;0.695684;-0.516409;,
-0.197551;0.695684;-0.69065;,
0.197551;0.695684;-0.69065;,
0.499345;0.695684;-0.516409;,
0.696896;0.695684;-0.17424;,
0.820137;0.321198;0.473506;,
0.707554;0.576619;0.408507;,
0.707554;0.576619;0.408507;,
0.820137;0.321198;0.473506;,
0.0;0.321199;0.947012;,
0.0;0.576619;0.817013;,
0.0;0.576619;0.817013;,
0.0;0.321199;0.947012;,
-0.820137;0.321198;0.473506;,
-0.707554;0.576619;0.408507;,
-0.707554;0.576619;0.408507;,
-0.820137;0.321198;0.473506;,
-0.820137;0.321198;-0.473506;,
-0.707554;0.576619;-0.408507;,
-0.707554;0.576619;-0.408507;,
-0.820137;0.321198;-0.473506;,
0.0;0.321199;-0.947012;,
0.0;0.576619;-0.817013;,
0.0;0.576619;-0.817013;,
0.0;0.321199;-0.947012;,
0.820137;0.321198;-0.473506;,
0.707554;0.576619;-0.408507;,
0.707554;0.576619;-0.408507;,
0.820137;0.321198;-0.473506;;

18;
3;0,1,2;,
3;3,0,2;,
3;4,3,2;,
3;5,4,2;,
3;6,5,2;,
3;1,6,2;,
4;7,1,0,8;,
4;9,0,3,10;,
4;11,3,4,12;,
4;13,4,5,14;,
4;15,5,6,16;,
4;17,6,1,18;,
4;19,20,21,22;,
4;23,24,25,26;,
4;27,28,29,30;,
4;31,32,33,34;,
4;35,36,37,38;,
4;39,40,41,42;;
}


}

}

Frame sphere {

FrameTransformMatrix {
  1.0, 0.0, 0.0, 0.0,
  0.0, 1.0, 0.0, 0.0,
  0.0, 0.0, 1.0, 0.0,
  0.153651, -0.094217, 0.0, 1.0;;
}

Mesh sphere {
43;
8.77952;0.0;-15.2066;,
7.60328;6.00666;-13.1693;,
15.2066;6.00666;0.0;,
17.559;0.0;0.0;,
-8.77952;0.0;-15.2066;,
-7.60329;6.00666;-13.1693;,
7.60328;6.00666;-13.1693;,
8.77952;0.0;-15.2066;,
-17.559;0.0;0.000001;,
-15.2066;6.00666;0.000001;,
-7.60329;6.00666;-13.1693;,
-8.77952;0.0;-15.2066;,
-8.77952;0.0;15.2066;,
-7.60329;6.00666;13.1693;,
-15.2066;6.00666;0.000001;,
-17.559;0.0;0.000001;,
8.77952;0.0;15.2066;,
7.60328;6.00666;13.1693;,
-7.60329;6.00666;13.1693;,
-8.77952;0.0;15.2066;,
17.559;0.0;0.0;,
15.2066;6.00666;0.0;,
7.60328;6.00666;13.1693;,
8.77952;0.0;15.2066;,
7.60328;6.00666;-13.1693;,
4.38976;10.4038;-7.60329;,
8.77952;10.4038;0.0;,
15.2066;6.00666;0.0;,
-7.60329;6.00666;-13.1693;,
-4.38976;10.4038;-7.60329;,
7.60328;6.00666;-13.1693;,
-15.2066;6.00666;0.000001;,
-8.77952;10.4038;0.0;,
-7.60329;6.00666;-13.1693;,
-7.60329;6.00666;13.1693;,
-4.38976;10.4038;7.60329;,
-15.2066;6.00666;0.000001;,
7.60328;6.00666;13.1693;,
4.38976;10.4038;7.60329;,
-7.60329;6.00666;13.1693;,
15.2066;6.00666;0.0;,
7.60328;6.00666;13.1693;,
0.0;12.0133;0.0;;

18;
4;0,1,2,3;,
4;4,5,6,7;,
4;8,9,10,11;,
4;12,13,14,15;,
4;16,17,18,19;,
4;20,21,22,23;,
4;24,25,26,27;,
4;28,29,25,30;,
4;31,32,29,33;,
4;34,35,32,36;,
4;37,38,35,39;,
4;40,26,38,41;,
3;26,25,42;,
3;25,29,42;,
3;29,32,42;,
3;32,35,42;,
3;35,38,42;,
3;38,26,42;;

MeshMaterialList {
1;
18;
0,
0,
0,
0,
0,
0,
0,
0,
0,
0,
0,
0,
0,
0,
0,
0,
0,
0;;
{ MatTex_1_1 }
}

MeshTextureCoords {
43;
-0.007812;0.0;,
-0.007812;0.0;,
-0.007812;0.0;,
-0.007812;0.0;,
-0.007812;0.0;,
-0.007812;0.0;,
-0.007812;0.0;,
-0.007812;0.0;,
-0.007812;0.0;,
-0.007812;0.0;,
-0.007812;0.0;,
-0.007812;0.0;,
-0.007812;0.0;,
-0.007812;0.0;,
-0.007812;0.0;,
-0.007812;0.0;,
-0.007812;0.0;,
-0.007812;0.0;,
-0.007812;0.0;,
-0.007812;0.0;,
-0.007812;0.0;,
-0.007812;0.0;,
-0.007812;0.0;,
-0.007812;0.0;,
-0.007812;0.0;,
-0.007812;0.0;,
-0.007812;0.0;,
-0.007812;0.0;,
-0.007812;0.0;,
-0.007812;0.0;,
-0.007812;0.0;,
-0.007812;0.0;,
-0.007812;0.0;,
-0.007812;0.0;,
-0.007812;0.0;,
-0.007812;0.0;,
-0.007812;0.0;,
-0.007812;0.0;,
-0.007812;0.0;,
-0.007812;0.0;,
-0.007812;0.0;,
-0.007812;0.0;,
-0.007812;0.0;;
}

MeshNormals{
43;
0.820135;0.3212;-0.473506;,
0.707552;0.576622;-0.408506;,
0.707552;0.576622;-0.408506;,
0.820135;0.3212;-0.473506;,
0.0;0.321202;-0.947011;,
0.0;0.576622;-0.817011;,
0.0;0.576622;-0.817011;,
0.0;0.321202;-0.947011;,
-0.820136;0.3212;-0.473506;,
-0.707552;0.576622;-0.408506;,
-0.707552;0.576622;-0.408506;,
-0.820136;0.3212;-0.473506;,
-0.820136;0.3212;0.473506;,
-0.707552;0.576622;0.408506;,
-0.707552;0.576622;0.408506;,
-0.820136;0.3212;0.473506;,
0.0;0.321202;0.947011;,
0.0;0.576622;0.817011;,
0.0;0.576622;0.817011;,
0.0;0.321202;0.947011;,
0.820135;0.3212;0.473506;,
0.707552;0.576622;0.408506;,
0.707552;0.576622;0.408506;,
0.820135;0.3212;0.473506;,
0.499343;0.695687;-0.516407;,
0.188185;0.92647;-0.325945;,
0.376369;0.92647;0.0;,
0.696893;0.695687;-0.174241;,
-0.19755;0.695688;-0.690647;,
-0.188185;0.92647;-0.325945;,
0.19755;0.695687;-0.690647;,
-0.696893;0.695687;-0.17424;,
-0.376369;0.92647;0.0;,
-0.499343;0.695687;-0.516407;,
-0.499343;0.695687;0.516407;,
-0.188185;0.92647;0.325945;,
-0.696893;0.695687;0.17424;,
0.19755;0.695687;0.690647;,
0.188185;0.92647;0.325945;,
-0.19755;0.695688;0.690647;,
0.696893;0.695687;0.174241;,
0.499343;0.695687;0.516407;,
0.0;1.0;0.0;;

18;
4;0,1,2,3;,
4;4,5,6,7;,
4;8,9,10,11;,
4;12,13,14,15;,
4;16,17,18,19;,
4;20,21,22,23;,
4;24,25,26,27;,
4;28,29,25,30;,
4;31,32,29,33;,
4;34,35,32,36;,
4;37,38,35,39;,
4;40,26,38,41;,
3;26,25,42;,
3;25,29,42;,
3;29,32,42;,
3;32,35,42;,
3;35,38,42;,
3;38,26,42;;
}


}

}

Frame sphere {

FrameTransformMatrix {
  1.0, 0.0, 0.0, 0.0,
  0.0, 1.0, 0.0, 0.0,
  0.0, 0.0, 1.0, 0.0,
  0.0, -0.109018, 0.0, 1.0;;
}

Mesh sphere {
43;
6.859;16.256;11.8801;,
13.718;16.256;0.0;,
-0.000001;18.7708;0.0;,
-6.859;16.256;11.8801;,
-13.718;16.256;0.000001;,
-6.859;16.256;-11.8801;,
6.859;16.256;-11.8801;,
23.7603;9.38542;0.0;,
11.8801;9.38542;20.577;,
11.8801;9.38542;20.577;,
-11.8801;9.38542;20.577;,
-11.8801;9.38542;20.577;,
-23.7603;9.38542;0.000002;,
-23.7603;9.38542;0.000002;,
-11.8801;9.38542;-20.577;,
-11.8801;9.38542;-20.577;,
11.8801;9.38542;-20.577;,
11.8801;9.38542;-20.577;,
23.7603;9.38542;0.0;,
27.436;0.0;0.0;,
23.7603;9.38542;0.0;,
11.8801;9.38542;20.577;,
13.718;0.0;23.7603;,
13.718;0.0;23.7603;,
11.8801;9.38542;20.577;,
-11.8801;9.38542;20.577;,
-13.718;0.0;23.7603;,
-13.718;0.0;23.7603;,
-11.8801;9.38542;20.577;,
-23.7603;9.38542;0.000002;,
-27.436;0.0;0.000002;,
-27.436;0.0;0.000002;,
-23.7603;9.38542;0.000002;,
-11.8801;9.38542;-20.577;,
-13.718;0.0;-23.7603;,
-13.718;0.0;-23.7603;,
-11.8801;9.38542;-20.577;,
11.8801;9.38542;-20.577;,
13.718;0.0;-23.7603;,
13.718;0.0;-23.7603;,
11.8801;9.38542;-20.577;,
23.7603;9.38542;0.0;,
27.436;0.0;0.0;;

18;
3;0,1,2;,
3;3,0,2;,
3;4,3,2;,
3;5,4,2;,
3;6,5,2;,
3;1,6,2;,
4;7,1,0,8;,
4;9,0,3,10;,
4;11,3,4,12;,
4;13,4,5,14;,
4;15,5,6,16;,
4;17,6,1,18;,
4;19,20,21,22;,
4;23,24,25,26;,
4;27,28,29,30;,
4;31,32,33,34;,
4;35,36,37,38;,
4;39,40,41,42;;

MeshMaterialList {
1;
18;
0,
0,
0,
0,
0,
0,
0,
0,
0,
0,
0,
0,
0,
0,
0,
0,
0,
0;;
{ MatTex_1_1 }
}

MeshTextureCoords {
43;
-0.007812;0.0;,
-0.007812;0.0;,
-0.007812;0.0;,
-0.007812;0.0;,
-0.007812;0.0;,
-0.007812;0.0;,
-0.007812;0.0;,
-0.007812;0.0;,
-0.007812;0.0;,
-0.007812;0.0;,
-0.007812;0.0;,
-0.007812;0.0;,
-0.007812;0.0;,
-0.007812;0.0;,
-0.007812;0.0;,
-0.007812;0.0;,
-0.007812;0.0;,
-0.007812;0.0;,
-0.007812;0.0;,
-0.007812;0.0;,
-0.007812;0.0;,
-0.007812;0.0;,
-0.007812;0.0;,
-0.007812;0.0;,
-0.007812;0.0;,
-0.007812;0.0;,
-0.007812;0.0;,
-0.007812;0.0;,
-0.007812;0.0;,
-0.007812;0.0;,
-0.007812;0.0;,
-0.007812;0.0;,
-0.007812;0.0;,
-0.007812;0.0;,
-0.007812;0.0;,
-0.007812;0.0;,
-0.007812;0.0;,
-0.007812;0.0;,
-0.007812;0.0;,
-0.007812;0.0;,
-0.007812;0.0;,
-0.007812;0.0;,
-0.007812;0.0;;
}

MeshNormals{
43;
0.188183;0.926471;0.325942;,
0.376365;0.926471;0.0;,
0.0;1.0;0.0;,
-0.188183;0.926471;0.325942;,
-0.376365;0.926471;0.0;,
-0.188183;0.926471;-0.325942;,
0.188183;0.926471;-0.325942;,
0.696894;0.695686;0.174241;,
0.499344;0.695685;0.516408;,
0.19755;0.695686;0.690648;,
-0.19755;0.695686;0.690648;,
-0.499344;0.695685;0.516408;,
-0.696894;0.695686;0.174241;,
-0.696894;0.695686;-0.174241;,
-0.499344;0.695685;-0.516408;,
-0.19755;0.695686;-0.690648;,
0.19755;0.695686;-0.690648;,
0.499344;0.695685;-0.516408;,
0.696894;0.695686;-0.174241;,
0.820136;0.321199;0.473506;,
0.707553;0.57662;0.408506;,
0.707553;0.57662;0.408506;,
0.820136;0.321199;0.473506;,
0.0;0.321202;0.947011;,
0.0;0.576621;0.817012;,
0.0;0.576621;0.817012;,
0.0;0.321202;0.947011;,
-0.820136;0.321199;0.473506;,
-0.707553;0.57662;0.408506;,
-0.707553;0.57662;0.408506;,
-0.820136;0.321199;0.473506;,
-0.820136;0.321199;-0.473506;,
-0.707553;0.57662;-0.408506;,
-0.707553;0.57662;-0.408506;,
-0.820136;0.321199;-0.473506;,
0.0;0.321202;-0.947011;,
0.0;0.576621;-0.817012;,
0.0;0.576621;-0.817012;,
0.0;0.321202;-0.947011;,
0.820136;0.321199;-0.473506;,
0.707553;0.57662;-0.408506;,
0.707553;0.57662;-0.408506;,
0.820136;0.321199;-0.473506;;

18;
3;0,1,2;,
3;3,0,2;,
3;4,3,2;,
3;5,4,2;,
3;6,5,2;,
3;1,6,2;,
4;7,1,0,8;,
4;9,0,3,10;,
4;11,3,4,12;,
4;13,4,5,14;,
4;15,5,6,16;,
4;17,6,1,18;,
4;19,20,21,22;,
4;23,24,25,26;,
4;27,28,29,30;,
4;31,32,33,34;,
4;35,36,37,38;,
4;39,40,41,42;;
}


}

}

Frame sphere {

FrameTransformMatrix {
  1.0, 0.0, 0.0, 0.0,
  0.0, 1.0, 0.0, 0.0,
  0.0, 0.0, 1.0, 0.0,
  0.0, -0.037535, 0.0, 1.0;;
}

Mesh sphere {
49;
17.1475;0.0;-29.7003;,
14.8502;11.7318;-25.7212;,
29.7003;11.7318;0.0;,
34.295;0.0;0.0;,
-17.1475;0.0;-29.7003;,
-14.8502;11.7318;-25.7212;,
14.8502;11.7318;-25.7212;,
17.1475;0.0;-29.7003;,
-34.295;0.0;0.000002;,
-29.7003;11.7318;0.000002;,
-14.8502;11.7318;-25.7212;,
-17.1475;0.0;-29.7003;,
-17.1475;0.0;29.7003;,
-14.8502;11.7318;25.7212;,
-29.7003;11.7318;0.000002;,
-34.295;0.0;0.000002;,
17.1475;0.0;29.7003;,
14.8502;11.7318;25.7212;,
-14.8502;11.7318;25.7212;,
-17.1475;0.0;29.7003;,
34.295;0.0;0.0;,
29.7003;11.7318;0.0;,
14.8502;11.7318;25.7212;,
17.1475;0.0;29.7003;,
14.8502;11.7318;-25.7212;,
8.57375;20.3199;-14.8502;,
17.1475;20.3199;0.0;,
29.7003;11.7318;0.0;,
-14.8502;11.7318;-25.7212;,
-8.57375;20.3199;-14.8502;,
14.8502;11.7318;-25.7212;,
-29.7003;11.7318;0.000002;,
-17.1475;20.3199;0.000001;,
-14.8502;11.7318;-25.7212;,
-14.8502;11.7318;25.7212;,
-8.57375;20.3199;14.8502;,
-29.7003;11.7318;0.000002;,
14.8502;11.7318;25.7212;,
8.57375;20.3199;14.8502;,
-14.8502;11.7318;25.7212;,
29.7003;11.7318;0.0;,
17.1475;20.3199;0.0;,
14.8502;11.7318;25.7212;,
-0.000001;23.4635;0.0;,
-0.000001;23.4635;0.0;,
-0.000001;23.4635;0.0;,
-0.000001;23.4635;0.0;,
-0.000001;23.4635;0.0;,
-0.000001;23.4635;0.0;;

18;
4;0,1,2,3;,
4;4,5,6,7;,
4;8,9,10,11;,
4;12,13,14,15;,
4;16,17,18,19;,
4;20,21,22,23;,
4;24,25,26,27;,
4;28,29,25,30;,
4;31,32,29,33;,
4;34,35,32,36;,
4;37,38,35,39;,
4;40,41,38,42;,
3;26,25,43;,
3;25,29,44;,
3;29,32,45;,
3;32,35,46;,
3;35,38,47;,
3;38,41,48;;

MeshMaterialList {
1;
18;
0,
0,
0,
0,
0,
0,
0,
0,
0,
0,
0,
0,
0,
0,
0,
0,
0,
0;;
{ MatTex_1_1 }
}

MeshTextureCoords {
49;
0.617428;0.521775;,
0.617428;0.347849;,
0.742476;0.347849;,
0.742476;0.521775;,
0.49238;0.521775;,
0.49238;0.347849;,
0.617428;0.347849;,
0.617428;0.521775;,
0.367332;0.521775;,
0.367332;0.347849;,
0.49238;0.347849;,
0.49238;0.521775;,
0.242284;0.521775;,
0.242284;0.347849;,
0.367332;0.347849;,
0.367332;0.521775;,
0.117236;0.521775;,
0.117236;0.347849;,
0.242284;0.347849;,
0.242284;0.521775;,
-0.007812;0.521775;,
-0.007812;0.347849;,
0.117236;0.347849;,
0.117236;0.521775;,
0.617428;0.347849;,
0.617428;0.173925;,
0.742476;0.173925;,
0.742476;0.347849;,
0.49238;0.347849;,
0.49238;0.173925;,
0.617428;0.347849;,
0.367332;0.347849;,
0.367332;0.173925;,
0.49238;0.347849;,
0.242284;0.347849;,
0.242284;0.173925;,
0.367332;0.347849;,
0.117236;0.347849;,
0.117236;0.173925;,
0.242284;0.347849;,
-0.007812;0.347849;,
-0.007812;0.173925;,
0.117236;0.347849;,
0.679952;0.0;,
0.554904;0.0;,
0.429856;0.0;,
0.304808;0.0;,
0.17976;0.0;,
0.054711;0.0;;
}

MeshNormals{
49;
0.820137;0.3212;-0.473504;,
0.707552;0.576623;-0.408504;,
0.707552;0.576623;-0.408504;,
0.820137;0.3212;-0.473504;,
0.0;0.321195;-0.947013;,
0.0;0.576621;-0.817012;,
0.0;0.576621;-0.817012;,
0.0;0.321195;-0.947013;,
-0.820137;0.3212;-0.473504;,
-0.707552;0.576623;-0.408504;,
-0.707552;0.576623;-0.408504;,
-0.820137;0.3212;-0.473504;,
-0.820137;0.3212;0.473504;,
-0.707552;0.576623;0.408504;,
-0.707552;0.576623;0.408504;,
-0.820137;0.3212;0.473504;,
0.0;0.321195;0.947013;,
0.0;0.576621;0.817012;,
0.0;0.576621;0.817012;,
0.0;0.321195;0.947013;,
0.820137;0.3212;0.473504;,
0.707552;0.576623;0.408504;,
0.707552;0.576623;0.408504;,
0.820137;0.3212;0.473504;,
0.499343;0.695688;-0.516405;,
0.188184;0.92647;-0.325944;,
0.376368;0.92647;0.0;,
0.696892;0.695688;-0.17424;,
-0.197549;0.695687;-0.690647;,
-0.188184;0.92647;-0.325944;,
0.197549;0.695687;-0.690647;,
-0.696892;0.695688;-0.17424;,
-0.376368;0.92647;0.0;,
-0.499343;0.695688;-0.516405;,
-0.499343;0.695688;0.516405;,
-0.188184;0.92647;0.325944;,
-0.696892;0.695688;0.17424;,
0.197549;0.695687;0.690647;,
0.188184;0.92647;0.325944;,
-0.197549;0.695687;0.690647;,
0.696892;0.695688;0.17424;,
0.376368;0.92647;0.0;,
0.499343;0.695688;0.516405;,
0.0;1.0;0.0;,
0.0;1.0;0.0;,
0.0;1.0;0.0;,
0.0;1.0;0.0;,
0.0;1.0;0.0;,
0.0;1.0;0.0;;

18;
4;0,1,2,3;,
4;4,5,6,7;,
4;8,9,10,11;,
4;12,13,14,15;,
4;16,17,18,19;,
4;20,21,22,23;,
4;24,25,26,27;,
4;28,29,25,30;,
4;31,32,29,33;,
4;34,35,32,36;,
4;37,38,35,39;,
4;40,41,38,42;,
3;26,25,43;,
3;25,29,44;,
3;29,32,45;,
3;32,35,46;,
3;35,38,47;,
3;38,41,48;;
}


}

}

}
